﻿// EVENT 4582
Name "Devil Fighter 2"

If(0,25,1)
 221()
 PictureClear(5)
 PictureClear(6)
 ShowMessageFace("",0,0,2,0)
 ShowMessage("......")
 242(2)
 Wait(120)
 241(bytes(0x04,0x08,0x6f,0x3a,0x0d,0x52,0x50,0x47,0x3a,0x3a,0x42,0x47,0x4d,0x08,0x3a,0x0a,0x40,0x6e,0x61,0x6d,0x65,0x49,0x22,0x0c,0x63,0x61,0x73,0x74,0x6c,0x65,0x36,0x06,0x3a,0x06,0x45,0x54,0x3a,0x0c,0x40,0x76,0x6f,0x6c,0x75,0x6d,0x65,0x69,0x69,0x3a,0x0b,0x40,0x70,0x69,0x74,0x63,0x68,0x69,0x69))
 EndEventProcessing()
 0()
EndIf()
PictureDisplay(5,"80_d_fighter_st01",0,0,0,0,100,100,255,0)
ShowMessageFace("d_fighter_fc1",0,0,2,1)
ShowMessage("\\n<Regina>Y-You want me to... V-violate you...?")
ShowMessageFace("",0,0,2,2)
ShowMessage("\\n<Luka>P-please...")
PictureDisplay(5,"80_d_fighter_st02",0,0,0,0,100,100,255,0)
ShowMessageFace("d_fighter_fc1",1,0,2,3)
ShowMessage("\\n<Regina>Well then...Come to my room.")
ShowMessageFace("",0,0,2,4)
ShowMessage("I follow Regina to her room...")
221()
ShowMessageFace("",0,0,2,5)
ShowMessage("\\n<Luka>U-ugh...")
ShowMessageFace("",0,0,2,6)
ShowMessage("As soon as I enter her room, everything goes dark.\nI feel something warm on my body...")
ShowMessageFace("",0,0,2,7)
ShowMessage("Just what's going on...?")
241(bytes(0x04,0x08,0x6f,0x3a,0x0d,0x52,0x50,0x47,0x3a,0x3a,0x42,0x47,0x4d,0x08,0x3a,0x0a,0x40,0x6e,0x61,0x6d,0x65,0x49,0x22,0x09,0x65,0x72,0x6f,0x31,0x06,0x3a,0x06,0x45,0x54,0x3a,0x0c,0x40,0x76,0x6f,0x6c,0x75,0x6d,0x65,0x69,0x69,0x3a,0x0b,0x40,0x70,0x69,0x74,0x63,0x68,0x69,0x69))
PictureDisplay(1,"bg195",0,0,0,0,100,100,255,0)
PictureDisplay(5,"ev_d_fighter_hb1",0,0,0,0,100,100,255,0)
222()
ShowMessageFace("",0,0,2,8)
ShowMessage("\\n<Luka>What is this...?\nWhat are you doing...?")
ShowMessageFace("d_fighter_fc1",0,0,2,9)
ShowMessage("\\n<Regina>Hey, don't make so much noise...")
ShowMessageFace("",0,0,2,10)
ShowMessage("\\n<Luka>Where are we...? We're not in the room anymore...?")
ShowMessageFace("",0,0,2,11)
ShowMessage("It's pitch black.\nNo, actually there's something like a hand blocking my vision.")
ShowMessageFace("",0,0,2,12)
ShowMessage("I'm sitting in a chair.\nAnd I think Regina is straddling me.")
ShowMessageFace("d_fighter_fc1",1,0,2,13)
ShowMessage("\\n<Regina>This is a different space I created.\nI'm a yoma, I can do this at least.")
ShowMessageFace("d_fighter_fc1",2,0,2,14)
ShowMessage("\\n<Regina>Then... Well, err... Now...\nI'll...r-rape...")
ShowMessageFace("",0,0,2,15)
ShowMessage("\\n<Luka>B-but why in a place like this...?")
ShowMessageFace("d_fighter_fc1",2,0,2,16)
ShowMessage("\\n<Regina>W-well then...\nI'm going to put it in... Okay?")
ShowMessageFace("",0,0,2,17)
ShowMessage("Regina slowly lowers her waist...\nThe tip of my penis presses against her slit.")
ShowMessageFace("",0,0,2,18)
ShowMessage("I feel her wetness dripping down onto my penis.")
ShowMessageFace("",0,0,2,19)
ShowMessage("\\n<Luka>Ah, aaah...")
245(bytes(0x04,0x08,0x6f,0x3a,0x0d,0x52,0x50,0x47,0x3a,0x3a,0x42,0x47,0x53,0x08,0x3a,0x0a,0x40,0x6e,0x61,0x6d,0x65,0x49,0x22,0x1e,0x6d,0x6f,0x6e,0x5f,0x68,0x73,0x65,0x61,0x6e,0x30,0x36,0x5f,0x69,0x6e,0x6e,0x65,0x72,0x77,0x6f,0x72,0x6b,0x73,0x5f,0x61,0x36,0x06,0x3a,0x06,0x45,0x54,0x3a,0x0c,0x40,0x76,0x6f,0x6c,0x75,0x6d,0x65,0x69,0x55,0x3a,0x0b,0x40,0x70,0x69,0x74,0x63,0x68,0x69,0x69))
PictureDisplay(5,"ev_d_fighter_hb2",0,0,0,0,100,100,255,0)
ShowMessageFace("",0,0,2,20)
ShowMessage("She sits down, taking me into her vagina.")
ShowMessage("As if pushing an obstacle aside, my penis pushes her flesh away as I go inside.")
ShowMessageFace("d_fighter_fc1",1,0,2,21)
ShowMessage("\\n<Regina>It's in...♪\nOh hey, it isn't painful at all.")
ShowMessageFace("d_fighter_fc1",1,0,2,22)
ShowMessage("\\n<Regina>Actually, it feels really good...\nNnfufufufu...♪")
ShowMessageFace("",0,0,2,23)
ShowMessage("Her vagina twitches and shrinks around me.\nThe intermittent, tight contractions feel amazing.")
ShowMessageFace("",0,0,2,24)
ShowMessage("\\n<Luka>Ah, unnngh...")
ShowMessageFace("d_fighter_fc1",1,0,2,25)
ShowMessage("\\n<Regina>Aha... Are you moaning?\nDo I really feel that good...?")
ShowMessageFace("d_fighter_fc1",1,0,2,26)
ShowMessage("\\n<Regina>Then let me do something even better.\nWhat if I squeeze it like this...?")
ShowMessageFace("",0,0,2,27)
ShowMessage("Regina clenches her stomach...\nwhich causes her already-tight vagina to get even tighter!")
ShowMessageFace("",0,0,2,28)
ShowMessage("\\n<Luka>Ah, aaaah...!")
ShowMessageFace("",0,0,2,29)
ShowMessage("Her soft flesh presses down on me from every side.\nIt's a crazy tightness...")
ShowMessageFace("",0,0,2,30)
ShowMessage("A forced pleasure, ignoring the man.\nSince she's inexperienced with sex, she's going as hard as she can right from the start.")
ShowMessageFace("",0,0,2,31)
ShowMessage("\\n<Luka>Urhg... Aaah...")
ShowMessageFace("d_fighter_fc1",0,0,2,32)
ShowMessage("\\n<Regina>What's wrong...? That didn't feel good...?")
ShowMessageFace("",0,0,2,33)
ShowMessage("The moment Regina loosens that crazed tightness...")
RunCommonEvent(104)
PictureDisplay(5,"ev_d_fighter_hb3",0,0,0,0,100,100,255,0)
RunCommonEvent(105)
ShowMessageFace("",0,0,2,34)
ShowMessage("I surrender without delay.\nMy semen pours into her tight vagina.")
ShowMessageFace("",0,0,2,35)
ShowMessage("\\n<Luka>Nnngh...")
ShowMessageFace("d_fighter_fc1",0,0,2,36)
ShowMessage("\\n<Regina>Eh?! Did you just come...?")
ShowMessageFace("d_fighter_fc1",1,0,2,37)
ShowMessage("\\n<Regina>My virgin pussy made him come...\nOr are you just an unusually quick shot? Fufu.")
ShowMessageFace("",0,0,2,38)
ShowMessage("Accepting my semen pouring into her, Regina laughs.\nShe keeps squeezing me until all of my semen has been squeezed out.")
PictureDisplay(5,"ev_d_fighter_hb4",0,0,0,0,100,100,255,0)
ShowMessageFace("",0,0,2,39)
ShowMessage("\\n<Luka>L-let me go now...")
ShowMessageFace("d_fighter_fc1",1,0,2,40)
ShowMessage("\\n<Regina>Making men come is actually pretty simple, isn't it...? All right, how about this then?")
ShowMessageFace("",0,0,2,41)
ShowMessage("\\n<Luka>Ngh... Ah, aaaah...!")
ShowMessageFace("",0,0,2,42)
ShowMessage("Her pussy tightens again.\nMy penis is crushed by her soft flesh again.")
PictureDisplay(5,"ev_d_fighter_hb5",0,0,0,0,100,100,255,0)
ShowMessageFace("",0,0,2,43)
ShowMessage("At the same time, a tentacle reaches up toward my ass.\nThe tip of it aims at my anus...")
ShowMessageFace("",0,0,2,44)
ShowMessage("\\n<Luka>Ah, aaaaaah!!")
ShowMessageFace("",0,0,2,45)
ShowMessage("It easily slips into my ass!")
ShowMessageFace("",0,0,2,46)
ShowMessage("Invading me, it presses against my prostate.\nIn that instant, my penis starts to pulse in her tight pussy.")
246(2)
RunCommonEvent(104)
PictureDisplay(5,"ev_d_fighter_hb6",0,0,0,0,100,100,255,0)
RunCommonEvent(105)
ShowMessageFace("",0,0,2,47)
ShowMessage("I come inside of her for a second time.\nIt's as if she pushed an ejaculation switch.")
PictureDisplay(5,"ev_d_fighter_hb7",0,0,0,0,100,100,255,0)
ShowMessageFace("d_fighter_fc1",1,0,2,48)
ShowMessage("\\n<Regina>Ahaha, you came...!\nUsing the ass, it's really simple...!")
ShowMessageFace("",0,0,2,49)
ShowMessage("\\n<Luka>Unnngh...")
ShowMessageFace("",0,0,2,50)
ShowMessage("My state seems to delight Regina.\nI'm left totally weak after the forced ejaculation.")
ShowMessageFace("d_fighter_fc1",1,0,2,51)
ShowMessage("\\n<Regina>I never imagined this would make you so weak...\nYou're totally pitiful right now, aren't you?")
ShowMessageFace("d_fighter_fc1",1,0,2,52)
ShowMessage("\\n<Regina>I'll be trying a ton of different techniques from now on. Look forward to them... Ahaha!")
ShowMessageFace("",0,0,2,53)
ShowMessage("\\n<Luka>......")
ShowMessageFace("",0,0,2,54)
ShowMessage("Too weak underneath her, I can't reply to Regina.\nShe may draw me into this alternate space at any time...")
221()
PictureClear(5)
246(2)
ShowMessageFace("",0,0,2,55)
ShowMessage("......")
242(2)
Wait(120)
241(bytes(0x04,0x08,0x6f,0x3a,0x0d,0x52,0x50,0x47,0x3a,0x3a,0x42,0x47,0x4d,0x08,0x3a,0x0a,0x40,0x6e,0x61,0x6d,0x65,0x49,0x22,0x0c,0x63,0x61,0x73,0x74,0x6c,0x65,0x36,0x06,0x3a,0x06,0x45,0x54,0x3a,0x0c,0x40,0x76,0x6f,0x6c,0x75,0x6d,0x65,0x69,0x69,0x3a,0x0b,0x40,0x70,0x69,0x74,0x63,0x68,0x69,0x69))
0()
