// EVENT 7211
Name "Milio: Talk"

If(1,822,0,0,0)
 ChangeVariable(822,822,0,0,1)
 0()
EndIf()
241(bytes(0x04,0x08,0x6f,0x3a,0x0d,0x52,0x50,0x47,0x3a,0x3a,0x42,0x47,0x4d,0x08,0x3a,0x0a,0x40,0x6e,0x61,0x6d,0x65,0x49,0x22,0x09,0x65,0x72,0x6f,0x32,0x06,0x3a,0x06,0x45,0x54,0x3a,0x0c,0x40,0x76,0x6f,0x6c,0x75,0x6d,0x65,0x69,0x50,0x3a,0x0b,0x40,0x70,0x69,0x74,0x63,0x68,0x69,0x69))
PictureDisplay(5,"80_mob_kaihei_st01",0,0,0,0,100,100,0,0)
PictureMove(5,null,0,0,0,0,100,100,255,0,30,true)
If(0,2331,1)
 ShowMessageFace("mob_kaihei_fc1",0,0,2,1)
 ShowMessage("\\n<Milio>Hey, hey, want to Battle Fuck with me?")
 ShowMessage("I'm in training right now~♪")
 0()
EndIf()
If(1,822,0,2,1)
 ShowMessageFace("mob_kaihei_fc1",0,0,2,2)
 ShowMessage("\\n<Milio>The stakes will be 450G.")
 ShowMessage("If you win, you get nothing!")
 0()
Else()
 ShowMessageFace("mob_kaihei_fc1",0,0,2,3)
 ShowMessage("\\n<Milio>The stakes will be 450G.")
 ShowMessage("If you win, I'll give you a Crisis Gauntlet♪")
 0()
EndIf()
ShowMessageFace("mob_kaihei_fc1",0,0,2,4)
ShowMessage("\\n<Milio>Hey, hey, what will you do?")
ShowMessage("You want to Battle Fuck me, don't you?♪")
ShowChoices(strings("Battle Fuck Challenge","Reconsider"),2)
IfPlayerPicksChoice(0,"バトルファックを挑む")
 If(7,450,0)
  If(0,2331,1)
   216(1)
   ShowMessageFace("",0,0,2,5)
   ShowMessage("Luka's allies leave the building...")
   0()
  EndIf()
  RunCommonEvent(7212)
  EndEventProcessing()
  0()
 Else()
  ShowMessageFace("mob_kaihei_fc1",0,0,2,6)
  ShowMessage("\\n<Milio>Arere, you don't have enough money.")
  ShowMessage("Save a lot and come back soon~♪")
  If(0,2331,1)
   PictureClear(5)
   If(0,2149,0)
    241(bytes(0x04,0x08,0x6f,0x3a,0x0d,0x52,0x50,0x47,0x3a,0x3a,0x42,0x47,0x4d,0x08,0x3a,0x0a,0x40,0x6e,0x61,0x6d,0x65,0x49,0x22,0x0a,0x6b,0x69,0x6b,0x69,0x34,0x06,0x3a,0x06,0x45,0x54,0x3a,0x0c,0x40,0x76,0x6f,0x6c,0x75,0x6d,0x65,0x69,0x69,0x3a,0x0b,0x40,0x70,0x69,0x74,0x63,0x68,0x69,0x69))
    0()
   Else()
    241(bytes(0x04,0x08,0x6f,0x3a,0x0d,0x52,0x50,0x47,0x3a,0x3a,0x42,0x47,0x4d,0x08,0x3a,0x0a,0x40,0x6e,0x61,0x6d,0x65,0x49,0x22,0x16,0x64,0x75,0x6e,0x67,0x65,0x6f,0x6e,0x5f,0x63,0x6f,0x6c,0x6f,0x73,0x73,0x65,0x75,0x6d,0x06,0x3a,0x06,0x45,0x54,0x3a,0x0c,0x40,0x76,0x6f,0x6c,0x75,0x6d,0x65,0x69,0x69,0x3a,0x0b,0x40,0x70,0x69,0x74,0x63,0x68,0x69,0x69))
    0()
   EndIf()
   0()
  EndIf()
  EndEventProcessing()
  0()
 EndIf()
 0()
IfPlayerPicksChoice(1,"やめておく")
 ShowMessageFace("mob_kaihei_fc1",0,0,2,7)
 ShowMessage("\\n<Milio>Arere, you won't be my opponent?")
 ShowMessage("I'll make you feel really good, so come on and Battle Fuck me~!")
 If(0,2331,1)
  PictureClear(5)
  If(0,2149,0)
   241(bytes(0x04,0x08,0x6f,0x3a,0x0d,0x52,0x50,0x47,0x3a,0x3a,0x42,0x47,0x4d,0x08,0x3a,0x0a,0x40,0x6e,0x61,0x6d,0x65,0x49,0x22,0x0a,0x6b,0x69,0x6b,0x69,0x34,0x06,0x3a,0x06,0x45,0x54,0x3a,0x0c,0x40,0x76,0x6f,0x6c,0x75,0x6d,0x65,0x69,0x69,0x3a,0x0b,0x40,0x70,0x69,0x74,0x63,0x68,0x69,0x69))
   0()
  Else()
   241(bytes(0x04,0x08,0x6f,0x3a,0x0d,0x52,0x50,0x47,0x3a,0x3a,0x42,0x47,0x4d,0x08,0x3a,0x0a,0x40,0x6e,0x61,0x6d,0x65,0x49,0x22,0x16,0x64,0x75,0x6e,0x67,0x65,0x6f,0x6e,0x5f,0x63,0x6f,0x6c,0x6f,0x73,0x73,0x65,0x75,0x6d,0x06,0x3a,0x06,0x45,0x54,0x3a,0x0c,0x40,0x76,0x6f,0x6c,0x75,0x6d,0x65,0x69,0x69,0x3a,0x0b,0x40,0x70,0x69,0x74,0x63,0x68,0x69,0x69))
   0()
  EndIf()
  0()
 EndIf()
 EndEventProcessing()
 0()
404()
0()
