﻿// EVENT 0071
Name "Skill: Play 311-320"

ChangeVariable(11,11,0,2,1,5)
If(1,100,0,311,0)
 If(1,11,0,1,0)
  ShowMessageFace("trickfairy_fc1",0,0,2,1)
  ShowMessage("\\n<Sicily>Let's have fun dancing! ♪")
  355("interrupt_skill(2032)")
  EndEventProcessing()
  0()
 EndIf()
 If(1,11,0,2,0)
  ShowMessageFace("trickfairy_fc1",0,0,2,2)
  ShowMessage("\\n<Sicily>Ehehehe...")
  ShowMessageFace("",0,0,2,3)
  ShowMessage("Sicily is giggling...")
  EndEventProcessing()
  0()
 EndIf()
 If(1,11,0,3,0)
  ShowMessageFace("trickfairy_fc1",0,0,2,4)
  ShowMessage("\\n<Sicily>I'm taking a nap...♪")
  313(0,311,0,11)
  ShowMessageFace("",0,0,2,5)
  ShowMessage("Sicily fell asleep...")
  EndEventProcessing()
  0()
 EndIf()
 If(1,11,0,4,0)
  ShowMessageFace("trickfairy_fc1",0,0,2,6)
  ShowMessage("\\n<Sicily>This kid is my friend♪")
  ShowMessageFace("",0,0,2,7)
  ShowMessage("Sicily presents a gift!")
  250(bytes(0x04,0x08,0x6f,0x3a,0x0c,0x52,0x50,0x47,0x3a,0x3a,0x53,0x45,0x08,0x3a,0x0a,0x40,0x6e,0x61,0x6d,0x65,0x49,0x22,0x0a,0x49,0x74,0x65,0x6d,0x31,0x06,0x3a,0x06,0x45,0x54,0x3a,0x0b,0x40,0x70,0x69,0x74,0x63,0x68,0x69,0x69,0x3a,0x0c,0x40,0x76,0x6f,0x6c,0x75,0x6d,0x65,0x69,0x55))
  ChangeInventory_Item(450,0,0,1)
  ShowMessageFace("",0,0,2,8)
  ShowMessage("You obtain a \\ii[450]!")
  EndEventProcessing()
  0()
 EndIf()
 If(1,11,0,5,0)
  ShowMessageFace("trickfairy_fc1",0,0,2,9)
  ShowMessage("\\n<Sicily>This is a fairy dance! ♪")
  355("interrupt_skill(2037)")
  EndEventProcessing()
  0()
 EndIf()
 0()
EndIf()
If(1,100,0,312,0)
 If(1,11,0,1,0)
  ShowMessageFace("amazoneself_fc1",0,0,2,10)
  ShowMessage("\\n<San>Seii! Seii!")
  355("interrupt_skill(3287)")
  EndEventProcessing()
  0()
 EndIf()
 If(1,11,0,2,0)
  ShowMessageFace("amazoneself_fc1",0,0,2,11)
  ShowMessage("\\n<San>Seii! Seii!")
  355("interrupt_skill(3291)")
  EndEventProcessing()
  0()
 EndIf()
 If(1,11,0,3,0)
  ShowMessageFace("amazoneself_fc1",0,0,2,12)
  ShowMessage("\\n<San>Spirit of earth, grant us protection...!")
  ShowMessageFace("",0,0,2,13)
  ShowMessage("San is praying to the earth...")
  EndEventProcessing()
  0()
 EndIf()
 If(1,11,0,4,0)
  ShowMessageFace("amazoneself_fc1",1,0,2,14)
  ShowMessage("\\n<San>Eat this to get stronger!")
  ShowMessageFace("",0,0,2,15)
  ShowMessage("San presents a gift!")
  250(bytes(0x04,0x08,0x6f,0x3a,0x0c,0x52,0x50,0x47,0x3a,0x3a,0x53,0x45,0x08,0x3a,0x0a,0x40,0x6e,0x61,0x6d,0x65,0x49,0x22,0x0a,0x49,0x74,0x65,0x6d,0x31,0x06,0x3a,0x06,0x45,0x54,0x3a,0x0b,0x40,0x70,0x69,0x74,0x63,0x68,0x69,0x69,0x3a,0x0c,0x40,0x76,0x6f,0x6c,0x75,0x6d,0x65,0x69,0x55))
  ChangeInventory_Item(329,0,0,1)
  ShowMessageFace("",0,0,2,16)
  ShowMessage("You obtain some \\ii[329]!")
  EndEventProcessing()
  0()
 EndIf()
 If(1,11,0,5,0)
  ShowMessageFace("amazoneself_fc1",0,0,2,17)
  ShowMessage("\\n<San>Crap!")
  355("interrupt_skill(3293)")
  EndEventProcessing()
  0()
 EndIf()
 0()
EndIf()
If(1,100,0,313,0)
 If(1,11,0,1,0)
  ShowMessageFace("carbuncle_fc1",0,0,2,18)
  ShowMessage("\\n<Carcana>This is boring...")
  ShowMessageFace("",0,0,2,19)
  ShowMessage("Carcana is staring blankly...")
  EndEventProcessing()
  0()
 EndIf()
 If(1,11,0,2,0)
  ShowMessageFace("carbuncle_fc1",0,0,2,20)
  ShowMessage("\\n<Carcana>I'm feeling hungry...")
  ShowMessageFace("",0,0,2,21)
  ShowMessage("Carcana is eating some food she stole...")
  EndEventProcessing()
  0()
 EndIf()
 If(1,11,0,3,0)
  ShowMessageFace("carbuncle_fc1",1,0,2,22)
  ShowMessage("\\n<Carcana>Smile♪")
  ShowMessageFace("",0,0,2,23)
  ShowMessage("Carcana flashes a sweet smile!\n...But nothing happened.")
  EndEventProcessing()
  0()
 EndIf()
 If(1,11,0,4,0)
  ShowMessageFace("carbuncle_fc1",1,0,2,24)
  ShowMessage("\\n<Carcana>This is fresh and tasty♪")
  ShowMessageFace("",0,0,2,25)
  ShowMessage("Carcana presents a gift!")
  250(bytes(0x04,0x08,0x6f,0x3a,0x0c,0x52,0x50,0x47,0x3a,0x3a,0x53,0x45,0x08,0x3a,0x0a,0x40,0x6e,0x61,0x6d,0x65,0x49,0x22,0x0a,0x49,0x74,0x65,0x6d,0x31,0x06,0x3a,0x06,0x45,0x54,0x3a,0x0b,0x40,0x70,0x69,0x74,0x63,0x68,0x69,0x69,0x3a,0x0c,0x40,0x76,0x6f,0x6c,0x75,0x6d,0x65,0x69,0x55))
  ChangeInventory_Item(306,0,0,1)
  ShowMessageFace("",0,0,2,26)
  ShowMessage("You obtain a \\ii[306]!")
  EndEventProcessing()
  0()
 EndIf()
 If(1,11,0,5,0)
  ShowMessageFace("carbuncle_fc1",0,0,2,27)
  ShowMessage("\\n<Carcana>I'll protect everyone...!")
  355("interrupt_skill(1717)")
  EndEventProcessing()
  0()
 EndIf()
 0()
EndIf()
If(1,100,0,314,0)
 If(1,11,0,1,0)
  ShowMessageFace("gigantic_fc1",1,0,2,28)
  ShowMessage("\\n<Jame>What's for lunch today?")
  ShowMessageFace("",0,0,2,29)
  ShowMessage("Jame is getting excited...")
  EndEventProcessing()
  0()
 EndIf()
 If(1,11,0,2,0)
  ShowMessageFace("gigantic_fc1",0,0,2,30)
  ShowMessage("\\n<Jame>I'll draw pictures on the ground!")
  ShowMessageFace("",0,0,2,31)
  ShowMessage("Jame is doodling on the ground...")
  EndEventProcessing()
  0()
 EndIf()
 If(1,11,0,3,0)
  ShowMessageFace("gigantic_fc1",1,0,2,32)
  ShowMessage("\\n<Jame>*snore*...")
  313(0,314,0,11)
  ShowMessageFace("",0,0,2,33)
  ShowMessage("Jame fell asleep...")
  EndEventProcessing()
  0()
 EndIf()
 If(1,11,0,4,0)
  ShowMessageFace("gigantic_fc1",0,0,2,34)
  ShowMessage("\\n<Jame>Isn't it nice and warm...?")
  ShowMessageFace("",0,0,2,35)
  ShowMessage("Jame is laying on the ground sunbathing...")
  EndEventProcessing()
  0()
 EndIf()
 If(1,11,0,5,0)
  ShowMessageFace("gigantic_fc1",0,0,2,36)
  ShowMessage("\\n<Jame>Cruuush!")
  355("interrupt_skill(2993)")
  EndEventProcessing()
  0()
 EndIf()
 0()
EndIf()
If(1,100,0,315,0)
 If(1,11,0,1,0)
  ShowMessageFace("queenfairy_fc1",0,0,2,37)
  ShowMessage("\\n<Airy>Ufufufu...")
  ShowMessageFace("",0,0,2,38)
  ShowMessage("Airy is giggling...")
  EndEventProcessing()
  0()
 EndIf()
 If(1,11,0,2,0)
  ShowMessageFace("queenfairy_fc1",0,0,2,39)
  ShowMessage("\\n<Airy>It's time to perish...")
  355("interrupt_skill(2042)")
  EndEventProcessing()
  0()
 EndIf()
 If(1,11,0,3,0)
  ShowMessageFace("queenfairy_fc1",2,0,2,40)
  ShowMessage("\\n<Airy>As the Queen, I'm the best when it comes to playing with fire...\n...Hyaaaaa!!")
  313(0,315,0,13)
  ShowMessageFace("",0,0,2,41)
  ShowMessage("Airy is playing with fire...\nShe blunders, and her body catches on fire!")
  EndEventProcessing()
  0()
 EndIf()
 If(1,11,0,4,0)
  ShowMessageFace("queenfairy_fc1",0,0,2,42)
  ShowMessage("\\n<Airy>Everyone, please do your best...♪")
  355("interrupt_skill(3300)")
  EndEventProcessing()
  0()
 EndIf()
 If(1,11,0,5,0)
  ShowMessageFace("queenfairy_fc1",0,0,2,43)
  ShowMessage("\\n<Airy>Let's watch the fairy's dance...")
  355("interrupt_skill(2037)")
  EndEventProcessing()
  0()
 EndIf()
 0()
EndIf()
If(1,100,0,316,0)
 If(1,11,0,1,0)
  ShowMessageFace("queenelf_fc1",0,0,2,44)
  ShowMessage("\\n<Freya>............")
  ShowMessageFace("",0,0,2,45)
  ShowMessage("Freya makes a sidelong glance...\nHowever, it appeared to be more like a glare!")
  EndEventProcessing()
  0()
 EndIf()
 If(1,11,0,2,0)
  ShowMessageFace("queenelf_fc1",0,0,2,46)
  ShowMessage("\\n<Freya>As the Queen, I have a vast knowledge of music...")
  355("interrupt_skill(3305)")
  EndEventProcessing()
  0()
 EndIf()
 If(1,11,0,3,0)
  ShowMessageFace("queenelf_fc1",0,0,2,47)
  ShowMessage("\\n<Freya>Unlike the fairies, I'm not good at dancing, but...")
  ShowMessageFace("",0,0,2,48)
  ShowMessage("Freya is dancing a cheerful dance!\n...But nothing happened.")
  EndEventProcessing()
  0()
 EndIf()
 If(1,11,0,4,0)
  ShowMessageFace("queenelf_fc1",0,0,2,49)
  ShowMessage("\\n<Freya>Let me give you this...")
  ShowMessageFace("",0,0,2,50)
  ShowMessage("Freya presents a gift!")
  250(bytes(0x04,0x08,0x6f,0x3a,0x0c,0x52,0x50,0x47,0x3a,0x3a,0x53,0x45,0x08,0x3a,0x0a,0x40,0x6e,0x61,0x6d,0x65,0x49,0x22,0x0a,0x49,0x74,0x65,0x6d,0x31,0x06,0x3a,0x06,0x45,0x54,0x3a,0x0b,0x40,0x70,0x69,0x74,0x63,0x68,0x69,0x69,0x3a,0x0c,0x40,0x76,0x6f,0x6c,0x75,0x6d,0x65,0x69,0x55))
  ChangeInventory_Item(404,0,0,1)
  ShowMessageFace("",0,0,2,51)
  ShowMessage("You obtain some \\ii[404]!")
  EndEventProcessing()
  0()
 EndIf()
 If(1,11,0,5,0)
  ShowMessageFace("queenelf_fc1",0,0,2,52)
  ShowMessage("\\n<Freya>Haa!")
  355("interrupt_skill(3294)")
  EndEventProcessing()
  0()
 EndIf()
 0()
EndIf()
If(1,100,0,317,0)
 If(1,11,0,1,0)
  ShowMessageFace("f_alraune_fc1",0,0,2,53)
  ShowMessage("\\n<Aria>Lalalaaa♪")
  355("interrupt_skill(3288)")
  EndEventProcessing()
  0()
 EndIf()
 If(1,11,0,2,0)
  ShowMessageFace("f_alraune_fc1",0,0,2,54)
  ShowMessage("\\n<Aria>Ahaha, this is fuuun! ♪")
  ShowMessageFace("",0,0,2,55)
  ShowMessage("Aria is dancing and singing happily...")
  EndEventProcessing()
  0()
 EndIf()
 If(1,11,0,3,0)
  ShowMessageFace("f_alraune_fc1",0,0,2,56)
  ShowMessage("\\n<Aria>Go for it! Fight!")
  355("interrupt_skill(3300)")
  EndEventProcessing()
  0()
 EndIf()
 If(1,11,0,4,0)
  ShowMessageFace("f_alraune_fc1",0,0,2,57)
  ShowMessage("\\n<Aria>I'll give you this!")
  ShowMessageFace("",0,0,2,58)
  ShowMessage("Aria presents a gift!")
  250(bytes(0x04,0x08,0x6f,0x3a,0x0c,0x52,0x50,0x47,0x3a,0x3a,0x53,0x45,0x08,0x3a,0x0a,0x40,0x6e,0x61,0x6d,0x65,0x49,0x22,0x0a,0x49,0x74,0x65,0x6d,0x31,0x06,0x3a,0x06,0x45,0x54,0x3a,0x0b,0x40,0x70,0x69,0x74,0x63,0x68,0x69,0x69,0x3a,0x0c,0x40,0x76,0x6f,0x6c,0x75,0x6d,0x65,0x69,0x55))
  ChangeInventory_Item(304,0,0,1)
  ShowMessageFace("",0,0,2,59)
  ShowMessage("You obtain a \\ii[304]!")
  EndEventProcessing()
  0()
 EndIf()
 If(1,11,0,5,0)
  ShowMessageFace("f_alraune_fc1",0,0,2,60)
  ShowMessage("\\n<Aria>This is a flower's fragrance...♪")
  355("interrupt_skill(2922)")
  EndEventProcessing()
  0()
 EndIf()
 0()
EndIf()
If(1,100,0,318,0)
 If(1,11,0,1,0)
  ShowMessageFace("f_dryad_fc1",0,0,2,61)
  ShowMessage("\\n<Rachel>This is perfect weather for photosynthesis...")
  ShowMessageFace("",0,0,2,62)
  ShowMessage("Rachel is laying on the ground sunbathing...")
  EndEventProcessing()
  0()
 EndIf()
 If(1,11,0,2,0)
  ShowMessageFace("f_dryad_fc1",2,0,2,63)
  ShowMessage("\\n<Rachel>*sob*...*sob*....")
  ShowMessageFace("",0,0,2,64)
  ShowMessage("Rachel is pretending to cry!\n...But no one paid any attention.")
  EndEventProcessing()
  0()
 EndIf()
 If(1,11,0,3,0)
  ShowMessageFace("f_dryad_fc1",2,0,2,65)
  ShowMessage("\\n<Rachel>Would you please stop this fighting...?")
  ShowMessageFace("",0,0,2,66)
  ShowMessage("Rachel tries to stop the fight!\nBut no one is listening...")
  EndEventProcessing()
  0()
 EndIf()
 If(1,11,0,4,0)
  ShowMessageFace("f_dryad_fc1",0,0,2,67)
  ShowMessage("\\n<Rachel>This is full of nutrition...")
  ShowMessageFace("",0,0,2,68)
  ShowMessage("Rachel presents a gift!")
  250(bytes(0x04,0x08,0x6f,0x3a,0x0c,0x52,0x50,0x47,0x3a,0x3a,0x53,0x45,0x08,0x3a,0x0a,0x40,0x6e,0x61,0x6d,0x65,0x49,0x22,0x0a,0x49,0x74,0x65,0x6d,0x31,0x06,0x3a,0x06,0x45,0x54,0x3a,0x0b,0x40,0x70,0x69,0x74,0x63,0x68,0x69,0x69,0x3a,0x0c,0x40,0x76,0x6f,0x6c,0x75,0x6d,0x65,0x69,0x55))
  ChangeInventory_Item(307,0,0,1)
  ShowMessageFace("",0,0,2,69)
  ShowMessage("You obtain a \\ii[307]!")
  EndEventProcessing()
  0()
 EndIf()
 If(1,11,0,5,0)
  ShowMessageFace("f_dryad_fc1",0,0,2,70)
  ShowMessage("\\n<Rachel>Yaaaa!")
  355("interrupt_skill(2904)")
  EndEventProcessing()
  0()
 EndIf()
 0()
EndIf()
If(1,100,0,319,0)
 If(1,11,0,1,0)
  ShowMessageFace("walraune_fc1",3,0,2,71)
  ShowMessage("\\n<Belladonna>Fufufu...")
  ShowMessageFace("",0,0,2,72)
  ShowMessage("Belladonna is staring with an intrigued look at something...")
  EndEventProcessing()
  0()
 EndIf()
 If(1,11,0,2,0)
  ShowMessageFace("walraune_fc1",3,0,2,73)
  ShowMessage("\\n<Belladonna>Sexy flower pose!")
  ShowMessageFace("",0,0,2,74)
  ShowMessage("Belladonna struck her signature pose!\n...But nobody was watching.")
  EndEventProcessing()
  0()
 EndIf()
 If(1,11,0,3,0)
  ShowMessageFace("walraune_fc1",3,0,2,75)
  ShowMessage("\\n<Belladonna>I should go to sleep now...")
  313(0,319,0,11)
  ShowMessageFace("",0,0,2,76)
  ShowMessage("Belladonna fell asleep...")
  EndEventProcessing()
  0()
 EndIf()
 If(1,11,0,4,0)
  ShowMessageFace("walraune_fc1",3,0,2,77)
  ShowMessage("\\n<Belladonna>Please eat this.")
  ShowMessageFace("",0,0,2,78)
  ShowMessage("Belladonna presents a gift!")
  250(bytes(0x04,0x08,0x6f,0x3a,0x0c,0x52,0x50,0x47,0x3a,0x3a,0x53,0x45,0x08,0x3a,0x0a,0x40,0x6e,0x61,0x6d,0x65,0x49,0x22,0x0a,0x49,0x74,0x65,0x6d,0x31,0x06,0x3a,0x06,0x45,0x54,0x3a,0x0b,0x40,0x70,0x69,0x74,0x63,0x68,0x69,0x69,0x3a,0x0c,0x40,0x76,0x6f,0x6c,0x75,0x6d,0x65,0x69,0x55))
  ChangeInventory_Item(346,0,0,1)
  ShowMessageFace("",0,0,2,79)
  ShowMessage("You obtain an \\ii[346]!")
  EndEventProcessing()
  0()
 EndIf()
 If(1,11,0,5,0)
  ShowMessageFace("walraune_fc1",3,0,2,80)
  ShowMessage("\\n<Belladonna>Melt in the fragrance of flowers...!")
  355("interrupt_skill(2921)")
  EndEventProcessing()
  0()
 EndIf()
 0()
EndIf()
If(1,100,0,320,0)
 If(1,11,0,1,0)
  ShowMessageFace("dryad_fc1",1,0,2,81)
  ShowMessage("\\n<Doria>Do your best♪ Do your best♪")
  355("interrupt_skill(2922)")
  EndEventProcessing()
  0()
 EndIf()
 If(1,11,0,2,0)
  ShowMessageFace("dryad_fc1",1,0,2,82)
  ShowMessage("\\n<Doria>Hawawaaa...")
  ShowMessageFace("",0,0,2,83)
  ShowMessage("Doria is in a daze...")
  EndEventProcessing()
  0()
 EndIf()
 If(1,11,0,3,0)
  ShowMessageFace("dryad_fc1",1,0,2,84)
  ShowMessage("\\n<Doria>This is fun! ♪")
  ShowMessageFace("",0,0,2,85)
  ShowMessage("Doria is dancing and singing happily...")
  EndEventProcessing()
  0()
 EndIf()
 If(1,11,0,4,0)
  ShowMessageFace("dryad_fc1",1,0,2,86)
  ShowMessage("\\n<Doria>Please have this♪")
  ShowMessageFace("",0,0,2,87)
  ShowMessage("Doria presents a gift!")
  250(bytes(0x04,0x08,0x6f,0x3a,0x0c,0x52,0x50,0x47,0x3a,0x3a,0x53,0x45,0x08,0x3a,0x0a,0x40,0x6e,0x61,0x6d,0x65,0x49,0x22,0x0a,0x49,0x74,0x65,0x6d,0x31,0x06,0x3a,0x06,0x45,0x54,0x3a,0x0b,0x40,0x70,0x69,0x74,0x63,0x68,0x69,0x69,0x3a,0x0c,0x40,0x76,0x6f,0x6c,0x75,0x6d,0x65,0x69,0x55))
  ChangeInventory_Item(394,0,0,1)
  ShowMessageFace("",0,0,2,88)
  ShowMessage("You obtain some \\ii[394]!")
  EndEventProcessing()
  0()
 EndIf()
 If(1,11,0,5,0)
  ShowMessageFace("dryad_fc1",1,0,2,89)
  ShowMessage("\\n<Doria>This is a nice scent♪")
  355("interrupt_skill(2922)")
  EndEventProcessing()
  0()
 EndIf()
 0()
EndIf()
0()
