﻿// EVENT 1371
ChangeVariable(25,25,0,0,0)
ShowMessageFace("soniamazda_fc1",0,0,2,1)
ShowMessage("\\n<Sonya Mazda>")
ShowMessage("■■■■■■■■■■■■■■■■...")
ShowMessageFace("",0,0,2,2)
ShowMessage("Sonya Mazda rejects any attempt at conversation!")
EndEventProcessing()
0()
