﻿// EVENT 0823
Name "Rare Gem"

ChangeVariable(13,13,0,2,1,4)
If(1,13,0,1,0)
 JumpToLabel("特殊能力")
 0()
EndIf()
If(1,13,0,2,0)
 JumpToLabel("属性強化")
 0()
EndIf()
If(1,13,0,3,0)
 JumpToLabel("スキル強化")
 0()
EndIf()
If(1,13,0,4,0)
 JumpToLabel("スキル使用可能")
 0()
EndIf()
DefineLabel("特殊能力")
ChangeVariable(11,11,0,2,1,33)
If(1,11,0,1,0)
 ChangeInventory_Item(2519,0,0,1)
 EndEventProcessing()
 0()
EndIf()
If(1,11,0,2,0)
 ChangeInventory_Item(2853,0,0,1)
 EndEventProcessing()
 0()
EndIf()
If(1,11,0,3,0)
 ChangeInventory_Item(2857,0,0,1)
 EndEventProcessing()
 0()
EndIf()
If(1,11,0,4,0)
 ChangeInventory_Item(2305,0,0,1)
 EndEventProcessing()
 0()
EndIf()
If(1,11,0,5,0)
 ChangeInventory_Item(2164,0,0,1)
 EndEventProcessing()
 0()
EndIf()
If(1,11,0,6,0)
 ChangeInventory_Item(2188,0,0,1)
 EndEventProcessing()
 0()
EndIf()
If(1,11,0,7,0)
 ChangeInventory_Item(3101,0,0,1)
 EndEventProcessing()
 0()
EndIf()
If(1,11,0,8,0)
 ChangeInventory_Item(3128,0,0,1)
 EndEventProcessing()
 0()
EndIf()
If(1,11,0,9,0)
 ChangeInventory_Item(3129,0,0,1)
 EndEventProcessing()
 0()
EndIf()
If(1,11,0,10,0)
 ChangeInventory_Item(3135,0,0,1)
 EndEventProcessing()
 0()
EndIf()
If(1,11,0,11,0)
 ChangeInventory_Item(3177,0,0,1)
 EndEventProcessing()
 0()
EndIf()
If(1,11,0,12,0)
 ChangeInventory_Item(3183,0,0,1)
 EndEventProcessing()
 0()
EndIf()
If(1,11,0,13,0)
 ChangeInventory_Item(3201,0,0,1)
 EndEventProcessing()
 0()
EndIf()
If(1,11,0,14,0)
 ChangeInventory_Item(3207,0,0,1)
 EndEventProcessing()
 0()
EndIf()
If(1,11,0,15,0)
 ChangeInventory_Item(3227,0,0,1)
 EndEventProcessing()
 0()
EndIf()
If(1,11,0,16,0)
 ChangeInventory_Item(3324,0,0,1)
 EndEventProcessing()
 0()
EndIf()
If(1,11,0,17,0)
 ChangeInventory_Item(3331,0,0,1)
 EndEventProcessing()
 0()
EndIf()
If(1,11,0,18,0)
 ChangeInventory_Item(3338,0,0,1)
 EndEventProcessing()
 0()
EndIf()
If(1,11,0,19,0)
 ChangeInventory_Item(3345,0,0,1)
 EndEventProcessing()
 0()
EndIf()
If(1,11,0,20,0)
 ChangeInventory_Item(3372,0,0,1)
 EndEventProcessing()
 0()
EndIf()
If(1,11,0,21,0)
 ChangeInventory_Item(3375,0,0,1)
 EndEventProcessing()
 0()
EndIf()
If(1,11,0,22,0)
 ChangeInventory_Item(3377,0,0,1)
 EndEventProcessing()
 0()
EndIf()
If(1,11,0,23,0)
 ChangeInventory_Item(3381,0,0,1)
 EndEventProcessing()
 0()
EndIf()
If(1,11,0,24,0)
 ChangeInventory_Item(3386,0,0,1)
 EndEventProcessing()
 0()
EndIf()
If(1,11,0,25,0)
 ChangeInventory_Item(3391,0,0,1)
 EndEventProcessing()
 0()
EndIf()
If(1,11,0,26,0)
 ChangeInventory_Item(3396,0,0,1)
 EndEventProcessing()
 0()
EndIf()
If(1,11,0,27,0)
 ChangeInventory_Item(3401,0,0,1)
 EndEventProcessing()
 0()
EndIf()
If(1,11,0,28,0)
 ChangeInventory_Item(3422,0,0,1)
 EndEventProcessing()
 0()
EndIf()
If(1,11,0,29,0)
 ChangeInventory_Item(3426,0,0,1)
 EndEventProcessing()
 0()
EndIf()
If(1,11,0,30,0)
 ChangeInventory_Item(3428,0,0,1)
 EndEventProcessing()
 0()
EndIf()
If(1,11,0,31,0)
 ChangeInventory_Item(3430,0,0,1)
 EndEventProcessing()
 0()
EndIf()
If(1,11,0,32,0)
 ChangeInventory_Item(3432,0,0,1)
 EndEventProcessing()
 0()
EndIf()
If(1,11,0,33,0)
 ChangeInventory_Item(3436,0,0,1)
 EndEventProcessing()
 0()
EndIf()
DefineLabel("属性強化")
ChangeVariable(11,11,0,2,1,13)
If(1,11,0,1,0)
 ChangeInventory_Item(2300,0,0,1)
 EndEventProcessing()
 0()
EndIf()
If(1,11,0,2,0)
 ChangeInventory_Item(2858,0,0,1)
 EndEventProcessing()
 0()
EndIf()
If(1,11,0,3,0)
 ChangeInventory_Item(2863,0,0,1)
 EndEventProcessing()
 0()
EndIf()
If(1,11,0,4,0)
 ChangeInventory_Item(2868,0,0,1)
 EndEventProcessing()
 0()
EndIf()
If(1,11,0,5,0)
 ChangeInventory_Item(2873,0,0,1)
 EndEventProcessing()
 0()
EndIf()
If(1,11,0,6,0)
 ChangeInventory_Item(2878,0,0,1)
 EndEventProcessing()
 0()
EndIf()
If(1,11,0,7,0)
 ChangeInventory_Item(2883,0,0,1)
 EndEventProcessing()
 0()
EndIf()
If(1,11,0,8,0)
 ChangeInventory_Item(2888,0,0,1)
 EndEventProcessing()
 0()
EndIf()
If(1,11,0,9,0)
 ChangeInventory_Item(2893,0,0,1)
 EndEventProcessing()
 0()
EndIf()
If(1,11,0,10,0)
 ChangeInventory_Item(2898,0,0,1)
 EndEventProcessing()
 0()
EndIf()
If(1,11,0,11,0)
 ChangeInventory_Item(2903,0,0,1)
 EndEventProcessing()
 0()
EndIf()
If(1,11,0,12,0)
 ChangeInventory_Item(2908,0,0,1)
 EndEventProcessing()
 0()
EndIf()
If(1,11,0,13,0)
 ChangeInventory_Item(2913,0,0,1)
 EndEventProcessing()
 0()
EndIf()
DefineLabel("スキル強化")
ChangeVariable(11,11,0,2,1,62)
If(1,11,0,1,0)
 ChangeInventory_Item(2310,0,0,1)
 EndEventProcessing()
 0()
EndIf()
If(1,11,0,2,0)
 ChangeInventory_Item(2315,0,0,1)
 EndEventProcessing()
 0()
EndIf()
If(1,11,0,3,0)
 ChangeInventory_Item(2320,0,0,1)
 EndEventProcessing()
 0()
EndIf()
If(1,11,0,4,0)
 ChangeInventory_Item(2325,0,0,1)
 EndEventProcessing()
 0()
EndIf()
If(1,11,0,5,0)
 ChangeInventory_Item(2330,0,0,1)
 EndEventProcessing()
 0()
EndIf()
If(1,11,0,6,0)
 ChangeInventory_Item(2335,0,0,1)
 EndEventProcessing()
 0()
EndIf()
If(1,11,0,7,0)
 ChangeInventory_Item(2340,0,0,1)
 EndEventProcessing()
 0()
EndIf()
If(1,11,0,8,0)
 ChangeInventory_Item(2345,0,0,1)
 EndEventProcessing()
 0()
EndIf()
If(1,11,0,9,0)
 ChangeInventory_Item(2350,0,0,1)
 EndEventProcessing()
 0()
EndIf()
If(1,11,0,10,0)
 ChangeInventory_Item(2355,0,0,1)
 EndEventProcessing()
 0()
EndIf()
If(1,11,0,11,0)
 ChangeInventory_Item(2360,0,0,1)
 EndEventProcessing()
 0()
EndIf()
If(1,11,0,12,0)
 ChangeInventory_Item(2365,0,0,1)
 EndEventProcessing()
 0()
EndIf()
If(1,11,0,13,0)
 ChangeInventory_Item(2370,0,0,1)
 EndEventProcessing()
 0()
EndIf()
If(1,11,0,14,0)
 ChangeInventory_Item(2375,0,0,1)
 EndEventProcessing()
 0()
EndIf()
If(1,11,0,15,0)
 ChangeInventory_Item(2380,0,0,1)
 EndEventProcessing()
 0()
EndIf()
If(1,11,0,16,0)
 ChangeInventory_Item(2385,0,0,1)
 EndEventProcessing()
 0()
EndIf()
If(1,11,0,17,0)
 ChangeInventory_Item(2647,0,0,1)
 EndEventProcessing()
 0()
EndIf()
If(1,11,0,18,0)
 ChangeInventory_Item(2652,0,0,1)
 EndEventProcessing()
 0()
EndIf()
If(1,11,0,19,0)
 ChangeInventory_Item(2657,0,0,1)
 EndEventProcessing()
 0()
EndIf()
If(1,11,0,20,0)
 ChangeInventory_Item(2662,0,0,1)
 EndEventProcessing()
 0()
EndIf()
If(1,11,0,21,0)
 ChangeInventory_Item(2667,0,0,1)
 EndEventProcessing()
 0()
EndIf()
If(1,11,0,22,0)
 ChangeInventory_Item(2672,0,0,1)
 EndEventProcessing()
 0()
EndIf()
If(1,11,0,23,0)
 ChangeInventory_Item(2677,0,0,1)
 EndEventProcessing()
 0()
EndIf()
If(1,11,0,24,0)
 ChangeInventory_Item(2682,0,0,1)
 EndEventProcessing()
 0()
EndIf()
If(1,11,0,25,0)
 ChangeInventory_Item(2687,0,0,1)
 EndEventProcessing()
 0()
EndIf()
If(1,11,0,26,0)
 ChangeInventory_Item(2692,0,0,1)
 EndEventProcessing()
 0()
EndIf()
If(1,11,0,27,0)
 ChangeInventory_Item(2697,0,0,1)
 EndEventProcessing()
 0()
EndIf()
If(1,11,0,28,0)
 ChangeInventory_Item(2702,0,0,1)
 EndEventProcessing()
 0()
EndIf()
If(1,11,0,29,0)
 ChangeInventory_Item(2707,0,0,1)
 EndEventProcessing()
 0()
EndIf()
If(1,11,0,30,0)
 ChangeInventory_Item(2712,0,0,1)
 EndEventProcessing()
 0()
EndIf()
If(1,11,0,31,0)
 ChangeInventory_Item(2717,0,0,1)
 EndEventProcessing()
 0()
EndIf()
If(1,11,0,32,0)
 ChangeInventory_Item(2722,0,0,1)
 EndEventProcessing()
 0()
EndIf()
If(1,11,0,33,0)
 ChangeInventory_Item(2727,0,0,1)
 EndEventProcessing()
 0()
EndIf()
If(1,11,0,34,0)
 ChangeInventory_Item(2918,0,0,1)
 EndEventProcessing()
 0()
EndIf()
If(1,11,0,35,0)
 ChangeInventory_Item(2923,0,0,1)
 EndEventProcessing()
 0()
EndIf()
If(1,11,0,36,0)
 ChangeInventory_Item(2928,0,0,1)
 EndEventProcessing()
 0()
EndIf()
If(1,11,0,37,0)
 ChangeInventory_Item(2933,0,0,1)
 EndEventProcessing()
 0()
EndIf()
If(1,11,0,38,0)
 ChangeInventory_Item(2938,0,0,1)
 EndEventProcessing()
 0()
EndIf()
If(1,11,0,39,0)
 ChangeInventory_Item(2943,0,0,1)
 EndEventProcessing()
 0()
EndIf()
If(1,11,0,40,0)
 ChangeInventory_Item(2948,0,0,1)
 EndEventProcessing()
 0()
EndIf()
If(1,11,0,41,0)
 ChangeInventory_Item(2953,0,0,1)
 EndEventProcessing()
 0()
EndIf()
If(1,11,0,42,0)
 ChangeInventory_Item(2958,0,0,1)
 EndEventProcessing()
 0()
EndIf()
If(1,11,0,43,0)
 ChangeInventory_Item(2963,0,0,1)
 EndEventProcessing()
 0()
EndIf()
If(1,11,0,44,0)
 ChangeInventory_Item(2968,0,0,1)
 EndEventProcessing()
 0()
EndIf()
If(1,11,0,45,0)
 ChangeInventory_Item(3444,0,0,1)
 EndEventProcessing()
 0()
EndIf()
If(1,11,0,46,0)
 ChangeInventory_Item(3449,0,0,1)
 EndEventProcessing()
 0()
EndIf()
If(1,11,0,47,0)
 ChangeInventory_Item(3454,0,0,1)
 EndEventProcessing()
 0()
EndIf()
If(1,11,0,48,0)
 ChangeInventory_Item(3459,0,0,1)
 EndEventProcessing()
 0()
EndIf()
If(1,11,0,49,0)
 ChangeInventory_Item(3464,0,0,1)
 EndEventProcessing()
 0()
EndIf()
If(1,11,0,50,0)
 ChangeInventory_Item(3469,0,0,1)
 EndEventProcessing()
 0()
EndIf()
If(1,11,0,51,0)
 ChangeInventory_Item(3474,0,0,1)
 EndEventProcessing()
 0()
EndIf()
If(1,11,0,52,0)
 ChangeInventory_Item(3479,0,0,1)
 EndEventProcessing()
 0()
EndIf()
If(1,11,0,53,0)
 ChangeInventory_Item(3484,0,0,1)
 EndEventProcessing()
 0()
EndIf()
If(1,11,0,54,0)
 ChangeInventory_Item(3489,0,0,1)
 EndEventProcessing()
 0()
EndIf()
If(1,11,0,55,0)
 ChangeInventory_Item(3494,0,0,1)
 EndEventProcessing()
 0()
EndIf()
If(1,11,0,56,0)
 ChangeInventory_Item(3499,0,0,1)
 EndEventProcessing()
 0()
EndIf()
If(1,11,0,57,0)
 ChangeInventory_Item(3504,0,0,1)
 EndEventProcessing()
 0()
EndIf()
If(1,11,0,58,0)
 ChangeInventory_Item(3509,0,0,1)
 EndEventProcessing()
 0()
EndIf()
If(1,11,0,59,0)
 ChangeInventory_Item(3514,0,0,1)
 EndEventProcessing()
 0()
EndIf()
If(1,11,0,60,0)
 ChangeInventory_Item(3009,0,0,1)
 EndEventProcessing()
 0()
EndIf()
If(1,11,0,61,0)
 ChangeInventory_Item(3568,0,0,1)
 EndEventProcessing()
 0()
EndIf()
If(1,11,0,62,0)
 ChangeInventory_Item(3573,0,0,1)
 EndEventProcessing()
 0()
EndIf()
DefineLabel("スキル使用可能")
ChangeVariable(11,11,0,2,1,69)
If(1,11,0,1,0)
 ChangeInventory_Item(2390,0,0,1)
 EndEventProcessing()
 0()
EndIf()
If(1,11,0,2,0)
 ChangeInventory_Item(2391,0,0,1)
 EndEventProcessing()
 0()
EndIf()
If(1,11,0,3,0)
 ChangeInventory_Item(2392,0,0,1)
 EndEventProcessing()
 0()
EndIf()
If(1,11,0,4,0)
 ChangeInventory_Item(2393,0,0,1)
 EndEventProcessing()
 0()
EndIf()
If(1,11,0,5,0)
 ChangeInventory_Item(2394,0,0,1)
 EndEventProcessing()
 0()
EndIf()
If(1,11,0,6,0)
 ChangeInventory_Item(2395,0,0,1)
 EndEventProcessing()
 0()
EndIf()
If(1,11,0,7,0)
 ChangeInventory_Item(2396,0,0,1)
 EndEventProcessing()
 0()
EndIf()
If(1,11,0,8,0)
 ChangeInventory_Item(2397,0,0,1)
 EndEventProcessing()
 0()
EndIf()
If(1,11,0,9,0)
 ChangeInventory_Item(2398,0,0,1)
 EndEventProcessing()
 0()
EndIf()
If(1,11,0,10,0)
 ChangeInventory_Item(2399,0,0,1)
 EndEventProcessing()
 0()
EndIf()
If(1,11,0,11,0)
 ChangeInventory_Item(2400,0,0,1)
 EndEventProcessing()
 0()
EndIf()
If(1,11,0,12,0)
 ChangeInventory_Item(2401,0,0,1)
 EndEventProcessing()
 0()
EndIf()
If(1,11,0,13,0)
 ChangeInventory_Item(2402,0,0,1)
 EndEventProcessing()
 0()
EndIf()
If(1,11,0,14,0)
 ChangeInventory_Item(2403,0,0,1)
 EndEventProcessing()
 0()
EndIf()
If(1,11,0,15,0)
 ChangeInventory_Item(2404,0,0,1)
 EndEventProcessing()
 0()
EndIf()
If(1,11,0,16,0)
 ChangeInventory_Item(2405,0,0,1)
 EndEventProcessing()
 0()
EndIf()
If(1,11,0,17,0)
 ChangeInventory_Item(2732,0,0,1)
 EndEventProcessing()
 0()
EndIf()
If(1,11,0,18,0)
 ChangeInventory_Item(2733,0,0,1)
 EndEventProcessing()
 0()
EndIf()
If(1,11,0,19,0)
 ChangeInventory_Item(2734,0,0,1)
 EndEventProcessing()
 0()
EndIf()
If(1,11,0,20,0)
 ChangeInventory_Item(2735,0,0,1)
 EndEventProcessing()
 0()
EndIf()
If(1,11,0,21,0)
 ChangeInventory_Item(2736,0,0,1)
 EndEventProcessing()
 0()
EndIf()
If(1,11,0,22,0)
 ChangeInventory_Item(2737,0,0,1)
 EndEventProcessing()
 0()
EndIf()
If(1,11,0,23,0)
 ChangeInventory_Item(2738,0,0,1)
 EndEventProcessing()
 0()
EndIf()
If(1,11,0,24,0)
 ChangeInventory_Item(2739,0,0,1)
 EndEventProcessing()
 0()
EndIf()
If(1,11,0,25,0)
 ChangeInventory_Item(2740,0,0,1)
 EndEventProcessing()
 0()
EndIf()
If(1,11,0,26,0)
 ChangeInventory_Item(2741,0,0,1)
 EndEventProcessing()
 0()
EndIf()
If(1,11,0,27,0)
 ChangeInventory_Item(2742,0,0,1)
 EndEventProcessing()
 0()
EndIf()
If(1,11,0,28,0)
 ChangeInventory_Item(2743,0,0,1)
 EndEventProcessing()
 0()
EndIf()
If(1,11,0,29,0)
 ChangeInventory_Item(2744,0,0,1)
 EndEventProcessing()
 0()
EndIf()
If(1,11,0,30,0)
 ChangeInventory_Item(2745,0,0,1)
 EndEventProcessing()
 0()
EndIf()
If(1,11,0,31,0)
 ChangeInventory_Item(2746,0,0,1)
 EndEventProcessing()
 0()
EndIf()
If(1,11,0,32,0)
 ChangeInventory_Item(2747,0,0,1)
 EndEventProcessing()
 0()
EndIf()
If(1,11,0,33,0)
 ChangeInventory_Item(2973,0,0,1)
 EndEventProcessing()
 0()
EndIf()
If(1,11,0,34,0)
 ChangeInventory_Item(2974,0,0,1)
 EndEventProcessing()
 0()
EndIf()
If(1,11,0,35,0)
 ChangeInventory_Item(2975,0,0,1)
 EndEventProcessing()
 0()
EndIf()
If(1,11,0,36,0)
 ChangeInventory_Item(2976,0,0,1)
 EndEventProcessing()
 0()
EndIf()
If(1,11,0,37,0)
 ChangeInventory_Item(2977,0,0,1)
 EndEventProcessing()
 0()
EndIf()
If(1,11,0,38,0)
 ChangeInventory_Item(2978,0,0,1)
 EndEventProcessing()
 0()
EndIf()
If(1,11,0,39,0)
 ChangeInventory_Item(2979,0,0,1)
 EndEventProcessing()
 0()
EndIf()
If(1,11,0,40,0)
 ChangeInventory_Item(2980,0,0,1)
 EndEventProcessing()
 0()
EndIf()
If(1,11,0,41,0)
 ChangeInventory_Item(2981,0,0,1)
 EndEventProcessing()
 0()
EndIf()
If(1,11,0,42,0)
 ChangeInventory_Item(2982,0,0,1)
 EndEventProcessing()
 0()
EndIf()
If(1,11,0,43,0)
 ChangeInventory_Item(2983,0,0,1)
 EndEventProcessing()
 0()
EndIf()
If(1,11,0,44,0)
 ChangeInventory_Item(3519,0,0,1)
 EndEventProcessing()
 0()
EndIf()
If(1,11,0,45,0)
 ChangeInventory_Item(3520,0,0,1)
 EndEventProcessing()
 0()
EndIf()
If(1,11,0,46,0)
 ChangeInventory_Item(3521,0,0,1)
 EndEventProcessing()
 0()
EndIf()
If(1,11,0,47,0)
 ChangeInventory_Item(3522,0,0,1)
 EndEventProcessing()
 0()
EndIf()
If(1,11,0,48,0)
 ChangeInventory_Item(3523,0,0,1)
 EndEventProcessing()
 0()
EndIf()
If(1,11,0,49,0)
 ChangeInventory_Item(3524,0,0,1)
 EndEventProcessing()
 0()
EndIf()
If(1,11,0,50,0)
 ChangeInventory_Item(3525,0,0,1)
 EndEventProcessing()
 0()
EndIf()
If(1,11,0,51,0)
 ChangeInventory_Item(3526,0,0,1)
 EndEventProcessing()
 0()
EndIf()
If(1,11,0,52,0)
 ChangeInventory_Item(3527,0,0,1)
 EndEventProcessing()
 0()
EndIf()
If(1,11,0,53,0)
 ChangeInventory_Item(3528,0,0,1)
 EndEventProcessing()
 0()
EndIf()
If(1,11,0,54,0)
 ChangeInventory_Item(3530,0,0,1)
 EndEventProcessing()
 0()
EndIf()
If(1,11,0,55,0)
 ChangeInventory_Item(3531,0,0,1)
 EndEventProcessing()
 0()
EndIf()
If(1,11,0,56,0)
 ChangeInventory_Item(3406,0,0,1)
 EndEventProcessing()
 0()
EndIf()
If(1,11,0,57,0)
 ChangeInventory_Item(3407,0,0,1)
 EndEventProcessing()
 0()
EndIf()
If(1,11,0,58,0)
 ChangeInventory_Item(3408,0,0,1)
 EndEventProcessing()
 0()
EndIf()
If(1,11,0,59,0)
 ChangeInventory_Item(3409,0,0,1)
 EndEventProcessing()
 0()
EndIf()
If(1,11,0,60,0)
 ChangeInventory_Item(3410,0,0,1)
 EndEventProcessing()
 0()
EndIf()
If(1,11,0,61,0)
 ChangeInventory_Item(3411,0,0,1)
 EndEventProcessing()
 0()
EndIf()
If(1,11,0,62,0)
 ChangeInventory_Item(3412,0,0,1)
 EndEventProcessing()
 0()
EndIf()
If(1,11,0,63,0)
 ChangeInventory_Item(3413,0,0,1)
 EndEventProcessing()
 0()
EndIf()
If(1,11,0,64,0)
 ChangeInventory_Item(3414,0,0,1)
 EndEventProcessing()
 0()
EndIf()
If(1,11,0,65,0)
 ChangeInventory_Item(3415,0,0,1)
 EndEventProcessing()
 0()
EndIf()
If(1,11,0,66,0)
 ChangeInventory_Item(3416,0,0,1)
 EndEventProcessing()
 0()
EndIf()
If(1,11,0,67,0)
 ChangeInventory_Item(3417,0,0,1)
 EndEventProcessing()
 0()
EndIf()
If(1,11,0,68,0)
 ChangeInventory_Item(3418,0,0,1)
 EndEventProcessing()
 0()
EndIf()
If(1,11,0,69,0)
 ChangeInventory_Item(3419,0,0,1)
 EndEventProcessing()
 0()
EndIf()
0()
