﻿// EVENT 5808
Name "R貝娘"

If(0,443,0)
 PictureDisplay(5,"80_kai_st01",0,0,0,0,100,100,255,0)
 0()
EndIf()
242(1)
250(bytes(0x04,0x08,0x6f,0x3a,0x0c,0x52,0x50,0x47,0x3a,0x3a,0x53,0x45,0x08,0x3a,0x0a,0x40,0x6e,0x61,0x6d,0x65,0x49,0x22,0x0a,0x7a,0x69,0x68,0x6f,0x75,0x06,0x3a,0x06,0x45,0x54,0x3a,0x0b,0x40,0x70,0x69,0x74,0x63,0x68,0x69,0x69,0x3a,0x0c,0x40,0x76,0x6f,0x6c,0x75,0x6d,0x65,0x69,0x55))
Wait(60)
ShowMessageFace("",0,0,2,1)
ShowMessage("その時――城内に、五時の鐘が鳴り響いた。")
241(bytes(0x04,0x08,0x6f,0x3a,0x0d,0x52,0x50,0x47,0x3a,0x3a,0x42,0x47,0x4d,0x08,0x3a,0x0a,0x40,0x6e,0x61,0x6d,0x65,0x49,0x22,0x09,0x65,0x72,0x6f,0x31,0x06,0x3a,0x06,0x45,0x54,0x3a,0x0c,0x40,0x76,0x6f,0x6c,0x75,0x6d,0x65,0x69,0x69,0x3a,0x0b,0x40,0x70,0x69,0x74,0x63,0x68,0x69,0x69))
ShowMessageFace("kai_fc1",0,0,2,2)
ShowMessage("【シェリー】")
ShowMessage("うふふっ……")
ShowMessage("そろそろ観念されましたか？")
ShowMessageFace("kai_fc1",0,0,2,3)
ShowMessage("【シェリー】")
ShowMessage("それでは式を挙げましょう、旦那様……")
ShowMessage("未来永劫、私と一緒に暮らすのです。")
ShowMessageFace("",0,0,2,4)
ShowMessage("【ルカ】")
ShowMessage("ちょ、ちょっと待って――")
ShowMessageFace("",0,0,2,5)
ShowMessage("僕の制止も聞かず、シェリーは一気に飛びついてきて――")
245(bytes(0x04,0x08,0x6f,0x3a,0x0d,0x52,0x50,0x47,0x3a,0x3a,0x42,0x47,0x53,0x08,0x3a,0x0a,0x40,0x6e,0x61,0x6d,0x65,0x49,0x22,0x1e,0x6d,0x6f,0x6e,0x5f,0x68,0x73,0x65,0x61,0x6e,0x30,0x36,0x5f,0x69,0x6e,0x6e,0x65,0x72,0x77,0x6f,0x72,0x6b,0x73,0x5f,0x61,0x36,0x06,0x3a,0x06,0x45,0x54,0x3a,0x0c,0x40,0x76,0x6f,0x6c,0x75,0x6d,0x65,0x69,0x55,0x3a,0x0b,0x40,0x70,0x69,0x74,0x63,0x68,0x69,0x69))
PictureDisplay(5,"ev_kai_hb1",0,0,0,0,100,100,255,0)
ShowMessageFace("",0,0,2,6)
ShowMessage("【ルカ】")
ShowMessage("ん……んんんっ……！")
ShowMessageFace("",0,0,2,7)
ShowMessage("抱擁と同時に、甘いキスを交わしていた。")
ShowMessage("同時に、下半身の貝が僕の体を挟み込んでくる。")
ShowMessageFace("",0,0,2,8)
ShowMessage("腰から下に密着する、艶めかしい貝肉の感触。")
ShowMessage("ペニスは肉厚の粘膜に包まれ、ぐにゅぐにゅと揉みしだかれた――")
ShowMessageFace("",0,0,2,9)
ShowMessage("【ルカ】")
ShowMessage("あ……あぁぁっ……")
ShowMessageFace("kai_fc1",0,0,2,10)
ShowMessage("【シェリー】")
ShowMessage("うふふっ、私の中は気持ちいいですか？")
ShowMessage("卵管の中に、たっぷりと種付けをして下さいね……")
ShowMessageFace("",0,0,2,11)
ShowMessage("【ルカ】")
ShowMessage("そんなぁ……ダメだよぉ……")
ShowMessageFace("",0,0,2,12)
ShowMessage("柔らかな貝肉がぐにょぐにょとうねり、ペニスを揉みしだく――")
ShowMessage("そんな甘い感触に、僕はたちまち耐えられなくなった。")
ShowMessageFace("",0,0,2,13)
ShowMessage("シェリーとキスを交わしたまま、思わず抱き締めてしまい――")
ShowMessageFace("",0,0,2,14)
ShowMessage("【ルカ】")
ShowMessage("で、出ちゃう……あぁぁぁ……")
RunCommonEvent(104)
RunCommonEvent(105)
ShowMessageFace("",0,0,2,15)
ShowMessage("そのまま、あえなくイってしまった。")
ShowMessage("卵管の中に、ドクドクと精液が放たれていく――")
ShowMessageFace("kai_fc1",0,0,2,16)
ShowMessage("【シェリー】")
ShowMessage("うふふっ、出しちゃいましたね。")
ShowMessage("これで、赤ちゃんができますよ……♡")
ShowMessageFace("",0,0,2,17)
ShowMessage("【ルカ】")
ShowMessage("はぅぅぅぅ……")
ShowMessageFace("",0,0,2,18)
ShowMessage("快楽に屈し、シェリーの卵管に種付けをしてしまった――")
ShowMessage("もはや僕は、責任を取って結婚するしかなかった。")
ShowMessageFace("",0,0,2,19)
ShowMessage("こうして、シェリーと結ばれ――")
ShowMessage("この周回は、ハッピーエンドで終わりを告げたのである。")
221()
PictureClear(5)
242(1)
246(1)
ShowMessageFace("",0,0,2,20)
ShowMessage("・・・・・・・・")
221()
Wait(120)
If(0,443,0)
 EndEventProcessing()
 0()
EndIf()
RunCommonEvent(541)
0()
