// EVENT 2045
Name "Seduction: Centaur"

If(0,25,1)
 EndEventProcessing()
 0()
EndIf()
355("$game_troop.lose_event_id = 3045")
ChangeVariable(26,26,0,3,3,1,4)
ChangeVariable(26,26,4,0,10)
ShowMessageFace("cent2_fc1",0,0,2,1)
ShowMessage("\\n<Centaur>This isn't good, I'll lose at this rate.\nBut this boy has been staring at my breasts...")
ShowMessageFace("cent2_fc1",1,0,2,2)
ShowMessage("\\n<Centaur>Hey, why don't you come over here and touch my breasts?\nI'll show you plenty of love...")
ShowMessageFace("",0,0,2,3)
ShowMessage("The Centaur widens her arms, and invites Luka.")
ChangeSwitch(98,98,0)
ChangeSwitch(96,96,0)
ShowChoices(strings("Ignore her","Give in to temptation"),1)
IfPlayerPicksChoice(0,"Ignore her")
 ShowMessageFace("",0,0,2,4)
 ShowMessage("Luka resists her temptation!")
 RunCommonEvent(1999)
 EndEventProcessing()
 0()
IfPlayerPicksChoice(1,"誘惑に乗る")
 0()
404()
ShowMessageFace("",0,0,2,5)
ShowMessage("Luka jumps into the Centaur's chest!")
ShowMessageFace("cent2_fc1",1,0,2,6)
ShowMessage("\\n<Centaur>Ahaha, how simple!\nNow then, let me show you lots of love♪")
ChangeVariable(26,26,3,0,2)
250(bytes(0x04,0x08,0x6f,0x3a,0x0c,0x52,0x50,0x47,0x3a,0x3a,0x53,0x45,0x08,0x3a,0x0a,0x40,0x6e,0x61,0x6d,0x65,0x49,0x22,0x12,0x6d,0x6f,0x6e,0x5f,0x65,0x72,0x6f,0x5f,0x6b,0x6f,0x6b,0x69,0x31,0x06,0x3a,0x06,0x45,0x54,0x3a,0x0b,0x40,0x70,0x69,0x74,0x63,0x68,0x69,0x69,0x3a,0x0c,0x40,0x76,0x6f,0x6c,0x75,0x6d,0x65,0x69,0x69))
PictureDisplay(6,"ev_cent2_ct01",0,0,0,0,100,100,255,0)
311(0,1,1,1,26,true)
ShowMessageFace("",0,0,2,7)
ShowMessage("The Centaur presses Luka's face into her breasts!")
ShowMessage("At the same time, she grabs hold of his penis!\\D")
ShowMessage("Luka takes \\V[26] damage!")
ChangeVariable(27,27,0,3,3,1,2)
If(1,27,0,0,0)
 JumpToLabel("射精1")
 0()
EndIf()
ShowMessageFace("cent2_fc1",1,0,2,8)
ShowMessage("\\n<Centaur>Fufufu, what a shameful little boy.\nHaving your penis act like this while sucking my breasts...")
250(bytes(0x04,0x08,0x6f,0x3a,0x0c,0x52,0x50,0x47,0x3a,0x3a,0x53,0x45,0x08,0x3a,0x0a,0x40,0x6e,0x61,0x6d,0x65,0x49,0x22,0x12,0x6d,0x6f,0x6e,0x5f,0x65,0x72,0x6f,0x5f,0x6b,0x6f,0x6b,0x69,0x31,0x06,0x3a,0x06,0x45,0x54,0x3a,0x0b,0x40,0x70,0x69,0x74,0x63,0x68,0x69,0x69,0x3a,0x0c,0x40,0x76,0x6f,0x6c,0x75,0x6d,0x65,0x69,0x69))
PictureDisplay(6,"ev_cent2_ct02",0,0,0,0,100,100,255,0)
311(0,1,1,1,26,true)
ShowMessageFace("",0,0,2,9)
ShowMessage("The Centaur gently strokes Luka's penis!")
ShowMessage("While being tightly held, she stimulates him!\\D")
ShowMessage("Luka takes \\V[26] damage!")
ChangeVariable(27,27,0,3,3,1,2)
If(1,27,0,0,0)
 JumpToLabel("射精2")
 0()
EndIf()
ShowMessageFace("cent2_fc1",1,0,2,10)
ShowMessage("\\n<Centaur>Get a good taste of my breasts.\nI'll show your penis love, too♪")
250(bytes(0x04,0x08,0x6f,0x3a,0x0c,0x52,0x50,0x47,0x3a,0x3a,0x53,0x45,0x08,0x3a,0x0a,0x40,0x6e,0x61,0x6d,0x65,0x49,0x22,0x12,0x6d,0x6f,0x6e,0x5f,0x65,0x72,0x6f,0x5f,0x6b,0x6f,0x6b,0x69,0x31,0x06,0x3a,0x06,0x45,0x54,0x3a,0x0b,0x40,0x70,0x69,0x74,0x63,0x68,0x69,0x69,0x3a,0x0c,0x40,0x76,0x6f,0x6c,0x75,0x6d,0x65,0x69,0x69))
311(0,1,1,1,26,true)
ShowMessageFace("",0,0,2,11)
ShowMessage("The Centaur pushes her breasts against Luka's face!")
ShowMessage("At the same time, she strokes Luka's penis!\\D")
ShowMessage("Luka takes \\V[26] damage!")
ChangeVariable(27,27,0,3,3,1,2)
If(1,27,0,0,0)
 JumpToLabel("射精2")
 0()
EndIf()
ShowMessageFace("",0,0,2,12)
ShowMessage("\\n<Luka>Ah, aaah...")
ShowMessageFace("",0,0,2,13)
ShowMessage("While being crushed by her breasts, she's stroking my penis...")
ShowMessage("It's a sweet drug I could get addicted to...")
ShowMessageFace("",0,0,2,14)
ShowMessage("If this continues, she'll make me come easily...")
ShowChoices(strings("Resist Temptation","Indulge in her breasts"),1)
IfPlayerPicksChoice(0,"誘惑を振り払う")
 ShowMessageFace("",0,0,2,15)
 ShowMessage("Luka struggles to get away!")
 ShowMessageFace("cent2_fc1",1,0,2,16)
 ShowMessage("\\n<Centaur>Fufu, I won't let you go...")
 0()
IfPlayerPicksChoice(1,"このままおっぱいに溺れる")
 ShowMessageFace("",0,0,2,17)
 ShowMessage("Luka surrenders to the pleasure...")
 ShowMessageFace("cent2_fc1",1,0,2,18)
 ShowMessage("\\n<Centaur>Ahaha, you don't want to resist?\nThen allow me to make you harmless...")
 0()
404()
250(bytes(0x04,0x08,0x6f,0x3a,0x0c,0x52,0x50,0x47,0x3a,0x3a,0x53,0x45,0x08,0x3a,0x0a,0x40,0x6e,0x61,0x6d,0x65,0x49,0x22,0x12,0x6d,0x6f,0x6e,0x5f,0x65,0x72,0x6f,0x5f,0x6b,0x6f,0x6b,0x69,0x31,0x06,0x3a,0x06,0x45,0x54,0x3a,0x0b,0x40,0x70,0x69,0x74,0x63,0x68,0x69,0x69,0x3a,0x0c,0x40,0x76,0x6f,0x6c,0x75,0x6d,0x65,0x69,0x69))
311(0,1,1,1,26,true)
ShowMessageFace("",0,0,2,19)
ShowMessage("The Centaur's breasts press into Luka's face!")
ShowMessage("At the same time, her stroking gets even more intense!\\D")
ShowMessage("Luka takes \\V[26] damage!")
ChangeVariable(27,27,0,3,3,1,2)
If(1,27,0,0,0)
 JumpToLabel("射精2")
 0()
EndIf()
ShowMessageFace("cent2_fc1",1,0,2,20)
ShowMessage("\\n<Centaur>You're going to come soon...\nI'll squeeze out your milk with this hand.")
250(bytes(0x04,0x08,0x6f,0x3a,0x0c,0x52,0x50,0x47,0x3a,0x3a,0x53,0x45,0x08,0x3a,0x0a,0x40,0x6e,0x61,0x6d,0x65,0x49,0x22,0x12,0x6d,0x6f,0x6e,0x5f,0x65,0x72,0x6f,0x5f,0x6b,0x6f,0x6b,0x69,0x31,0x06,0x3a,0x06,0x45,0x54,0x3a,0x0b,0x40,0x70,0x69,0x74,0x63,0x68,0x69,0x69,0x3a,0x0c,0x40,0x76,0x6f,0x6c,0x75,0x6d,0x65,0x69,0x69))
311(0,1,1,1,26,true)
ShowMessageFace("",0,0,2,21)
ShowMessage("The Centaur strokes Luka, like she's milking him!")
ShowMessage("His semen is forcibly squeezed out by her skilled hands!\\D")
ShowMessage("Luka takes \\V[26] damage!")
ChangeVariable(27,27,0,3,3,1,2)
If(1,27,0,0,0)
 JumpToLabel("射精2")
 0()
EndIf()
DefineLabel("射精1")
ShowMessageFace("",0,0,2,22)
ShowMessage("\\n<Luka>I'm coming... Aaah...")
RunCommonEvent(104)
PictureDisplay(6,"ev_cent2_ct03",0,0,0,0,100,100,255,0)
RunCommonEvent(105)
ShowMessageFace("",0,0,2,23)
ShowMessage("The moment she grabs my penis, I come.")
ShowMessage("Pressed against her breasts, I gasp as I climax.")
ShowMessageFace("cent2_fc1",1,0,2,24)
ShowMessage("\\n<Centaur>Aww... You already leaked.\nWhat a naughty little boy, sheesh.")
RunCommonEvent(2000)
EndEventProcessing()
DefineLabel("射精2")
ShowMessageFace("",0,0,2,25)
ShowMessage("\\n<Luka>Hnnaaa...")
RunCommonEvent(104)
PictureDisplay(6,"ev_cent2_ct03",0,0,0,0,100,100,255,0)
RunCommonEvent(105)
ShowMessageFace("",0,0,2,26)
ShowMessage("Soaking in her breasts, I reach a climax.")
ShowMessage("I give myself over to the feeling of being milked.")
ShowMessageFace("cent2_fc1",1,0,2,27)
ShowMessage("\\n<Centaur>Fufu, so much milk.\nIt's almost like a mother...")
RunCommonEvent(2000)
EndEventProcessing()
0()
