// EVENT 4257
Name "Riot 2"

If(0,25,1)
 221()
 PictureClear(5)
 PictureClear(6)
 ShowMessageFace("",0,0,2,0)
 ShowMessage("......")
 242(2)
 Wait(120)
 241(bytes(0x04,0x08,0x6f,0x3a,0x0d,0x52,0x50,0x47,0x3a,0x3a,0x42,0x47,0x4d,0x08,0x3a,0x0a,0x40,0x6e,0x61,0x6d,0x65,0x49,0x22,0x0c,0x63,0x61,0x73,0x74,0x6c,0x65,0x36,0x06,0x3a,0x06,0x45,0x54,0x3a,0x0c,0x40,0x76,0x6f,0x6c,0x75,0x6d,0x65,0x69,0x69,0x3a,0x0b,0x40,0x70,0x69,0x74,0x63,0x68,0x69,0x69))
 EndEventProcessing()
 0()
EndIf()
PictureDisplay(5,"80_liot_st01",0,0,0,0,100,100,255,0)
ShowMessageFace("liot_fc1",0,0,2,1)
ShowMessage("\\n<Riot>You want me to pamper you like a baby...?")
ShowMessageFace("",0,0,2,2)
ShowMessage("\\n<Luka>P-please...")
ShowMessageFace("liot_fc1",1,0,2,3)
ShowMessage("\\n<Riot>Fine. Come to my room...")
ShowMessageFace("",0,0,2,4)
ShowMessage("Thus, I follow Riot back to her room.")
221()
PictureDisplay(1,"bg195",0,0,0,0,100,100,255,0)
PictureDisplay(5,"ev_liot_hb01",0,0,0,0,100,100,255,0)
222()
241(bytes(0x04,0x08,0x6f,0x3a,0x0d,0x52,0x50,0x47,0x3a,0x3a,0x42,0x47,0x4d,0x08,0x3a,0x0a,0x40,0x6e,0x61,0x6d,0x65,0x49,0x22,0x09,0x65,0x72,0x6f,0x31,0x06,0x3a,0x06,0x45,0x54,0x3a,0x0c,0x40,0x76,0x6f,0x6c,0x75,0x6d,0x65,0x69,0x69,0x3a,0x0b,0x40,0x70,0x69,0x74,0x63,0x68,0x69,0x69))
ShowMessageFace("liot_fc1",0,0,2,5)
ShowMessage("\\n<Riot>Geez, I can't believe you want me to do this... But now that we're here, I'm going to do it all the way.")
ShowMessageFace("",0,0,2,6)
ShowMessage("Riot cradles me in her arms and lifts my head up to one of her voluptuous fruits. At the same time, she brings the onahole down towards my crotch--")
ShowMessageFace("",0,0,2,7)
ShowMessage("But right before she inserts my penis, she stops, dangling the enticing hole just out of reach.")
ShowMessageFace("liot_fc1",0,0,2,8)
ShowMessage("\\n<Riot>Drink your milk and I'll reward you with this fake vagina. Come on, suck on my tit as hard as you can...")
ShowMessageFace("",0,0,2,9)
ShowMessage("\\n<Luka>Mmmn... Chp, chuuu...")
ShowMessageFace("",0,0,2,10)
ShowMessage("As commanded, I latch my mouth on to her nipple and begin to suck. I feel like a baby doing this...")
ShowMessageFace("liot_fc1",0,0,2,11)
ShowMessage("\\n<Riot>Sigh... I've got a perfectly good hole he could be suck--")
ShowMessageFace("liot_fc1",3,0,2,12)
ShowMessage("\\n<Riot>...huh? I didn't say anything!")
ShowMessageFace("",0,0,2,13)
ShowMessage("Riot pushes her breast forward to smother my face, forcing me to frantically suck harder--")
PictureDisplay(5,"ev_liot_hb02",0,0,0,0,100,100,255,0)
ShowMessageFace("liot_fc1",1,0,2,14)
ShowMessage("\\n<Riot>Ngh... Hora, here comes mommy's milk!")
ShowMessageFace("",0,0,2,15)
ShowMessage("A milky white fluid suddenly gushes from her tit! Without pause, I greedily gulp down as much of it as I can.")
ShowMessageFace("",0,0,2,16)
ShowMessage("Its sweet taste spreads through my mouth and into the rest of my body. It feels like I'm floating on a cloud...")
ShowMessageFace("",0,0,2,17)
ShowMessage("\\n<Luka>Mmmn... Mmmmmmh...")
ShowMessageFace("liot_fc1",1,0,2,18)
ShowMessage("\\n<Riot>Fufu, you really do make an excellent baby. What would your other companions think if they saw you like this...")
ShowMessageFace("liot_fc1",1,0,2,19)
ShowMessage("\\n<Riot>All right, I'll use my vagina on you as promised. This fake one, of course!")
ShowMessageFace("",0,0,2,20)
ShowMessage("Riot smears her milk over the entrance to the onahole. Once it's lubricated, she pushes it against my glans--")
PictureDisplay(5,"ev_liot_hb03",0,0,0,0,100,100,255,0)
245(bytes(0x04,0x08,0x6f,0x3a,0x0d,0x52,0x50,0x47,0x3a,0x3a,0x42,0x47,0x53,0x08,0x3a,0x0a,0x40,0x6e,0x61,0x6d,0x65,0x49,0x22,0x1e,0x6d,0x6f,0x6e,0x5f,0x68,0x73,0x65,0x61,0x6e,0x30,0x35,0x5f,0x69,0x6e,0x6e,0x65,0x72,0x77,0x6f,0x72,0x6b,0x73,0x5f,0x61,0x35,0x06,0x3a,0x06,0x45,0x54,0x3a,0x0c,0x40,0x76,0x6f,0x6c,0x75,0x6d,0x65,0x69,0x55,0x3a,0x0b,0x40,0x70,0x69,0x74,0x63,0x68,0x69,0x69))
ShowMessageFace("",0,0,2,21)
ShowMessage("\\n<Luka>Ah... Aaah!")
ShowMessageFace("",0,0,2,22)
ShowMessage("*Plop*!\nThe onahole sucks my dick inside, its soft silicone walls tightly squeezing my shaft as I go deeper.")
ShowMessageFace("liot_fc1",1,0,2,23)
ShowMessage("\\n<Riot>I suppose this thing must feel good.\nHey, keep sucking! The stronger you suck, the faster I'll stroke you.")
ShowMessageFace("",0,0,2,24)
ShowMessage("\\n<Luka>Mmmn, mmmmngh...")
ShowMessageFace("",0,0,2,25)
ShowMessage("I vigorously suck on her nipple like she asked while she plays with my twitching penis inside the onahole.")
ShowMessageFace("liot_fc1",1,0,2,26)
ShowMessage("\\n<Riot>Come on, you're the one who asked for this. Spread your legs and take this balls deep like the wretched pervert you are!")
PictureDisplay(5,"ev_liot_hb04",0,0,0,0,100,100,255,0)
ShowMessageFace("",0,0,2,27)
ShowMessage("Riot rapidly moves the onahole up and down to apply a strong stimulation to my penis! The creases inside run along my sensitive spots, sending my waist spasming into the air.")
ShowMessageFace("",0,0,2,28)
ShowMessage("\\n<Luka>Mnnh, mmm! Aaah!")
ShowMessageFace("liot_fc1",1,0,2,29)
ShowMessage("\\n<Riot>Hmm... So how is it?\nIt looks like you're going to lose control if I go any faster.")
ShowMessageFace("liot_fc1",1,0,2,30)
ShowMessage("\\n<Riot>Well, I can't bear to watch this any longer than necessary... Time to finish you off!")
ShowMessageFace("",0,0,2,31)
ShowMessage("Riot pumps even faster, dragging the creases against the underside of my tip and increasing my urge to ejaculate.")
ShowMessageFace("",0,0,2,32)
ShowMessage("\\n<Luka>Aaah... I'm going to come!")
ShowMessageFace("liot_fc1",1,0,2,33)
ShowMessage("\\n<Riot>That's fine, just let yourself come.\nMate with this fake pussy you like so much!")
ShowMessageFace("",0,0,2,34)
ShowMessage("\\n<Luka>Ah, aaah...")
RunCommonEvent(104)
PictureDisplay(5,"ev_liot_hb05",0,0,0,0,100,100,255,0)
RunCommonEvent(105)
ShowMessageFace("",0,0,2,35)
ShowMessage("I reach climax and keep sucking on her tit as I fill the onahole with spurt after spurt of semen.")
ShowMessageFace("liot_fc1",1,0,2,36)
ShowMessage("\\n<Riot>Fufu, it looks like you tinkled properly. Although babies should be ashamed for peeing like that...")
ShowMessageFace("",0,0,2,37)
ShowMessage("\\n<Luka>Mmmn... Mmmmmm...")
ShowMessageFace("",0,0,2,38)
ShowMessage("Despite being immersed in the ecstasy of release, I don't stop sucking for a second. It's almost like my mind has reverted to that of a baby...")
PictureDisplay(5,"ev_liot_hb06",0,0,0,0,100,100,255,0)
ShowMessageFace("",0,0,2,39)
ShowMessage("\\n<Luka>Huaaa... Aaah...")
ShowMessageFace("liot_fc1",0,0,2,40)
ShowMessage("\\n<Riot>At any rate, this is really pitiful... I suppose the baby needs to be scolded.")
ShowMessageFace("",0,0,2,41)
ShowMessage("\\n<Luka>Scold me? I'm not really a...")
PictureDisplay(5,"ev_liot_hb07",0,0,0,0,100,100,255,0)
ShowMessageFace("liot_fc1",2,0,2,42)
ShowMessage("\\n<Riot>Don't finish that sentence! You sure as hell can't call yourself a man in this situation!")
ShowMessageFace("",0,0,2,43)
ShowMessage("Riot takes a surprisingly harsh tone of voice with me. Meanwhile, she moves the onahole with more energy, slamming it against my pelvis on each stroke.")
ShowMessageFace("liot_fc1",2,0,2,44)
ShowMessage("\\n<Riot>I'm a warrior! I'm proud of my strength in battle! For you to want to be pampered by me is idiotic!")
ShowMessageFace("",0,0,2,45)
ShowMessage("\\n<Luka>Ugh, unngh...")
ShowMessageFace("",0,0,2,46)
ShowMessage("Despite the stern reprimand, I'm unable to do anything but continue sucking on her nipple.")
ShowMessageFace("",0,0,2,47)
ShowMessage("With my face buried in her plump breast, I silently take Riot's criticism, just like a baby would do.")
PictureDisplay(5,"ev_liot_hb08",0,0,0,0,100,100,255,0)
ShowMessageFace("liot_fc1",2,0,2,48)
ShowMessage("\\n<Riot>Plus, you've got a hot, moist hole right here in front of you, and yet you're spilling your seed in this fake one! What a joke!")
ShowMessageFace("",0,0,2,49)
ShowMessage("\\n<Luka>......")
ShowMessageFace("liot_fc1",0,0,2,50)
ShowMessage("\\n<Riot>Hmph, you can't even defend yourself?! Big surprise! You're too busy being engrossed in sucking on my teat!")
ShowMessageFace("liot_fc1",2,0,2,51)
ShowMessage("\\n<Riot>Come on, I'm fulfilling your greatest desire! Don't hold back on me! Hurry up and come, you premature ejaculator!")
ShowMessageFace("",0,0,2,52)
ShowMessage("She slides the onahole up and down my shaft at an intense tempo. I press my face into her chest as my waist quivers.")
ShowMessageFace("",0,0,2,53)
ShowMessage("My entire lower body gradually begins to throb, and the feeling of an impending release bubbles up. I can't hold out for much longer...")
ShowMessageFace("liot_fc1",2,0,2,54)
ShowMessage("\\n<Riot>There we go... Shoot out your filthy semen!")
ShowMessageFace("",0,0,2,55)
ShowMessage("\\n<Luka>Ah... Aaaah!!")
RunCommonEvent(104)
PictureDisplay(5,"ev_liot_hb09",0,0,0,0,100,100,255,0)
RunCommonEvent(105)
ShowMessageFace("",0,0,2,56)
ShowMessage("My penis pulses inside the onahole, and before long, the end of it overflows in cloudy goo.")
ShowMessageFace("",0,0,2,57)
ShowMessage("\\n<Luka>Hnnaaa...")
ShowMessageFace("",0,0,2,58)
ShowMessage("I let my body relax in the pleasure and my face rest against her pillowy breasts. Seeing that, Riot--")
ShowMessageFace("liot_fc1",0,0,2,59)
ShowMessage("\\n<Riot>......")
ShowMessageFace("liot_fc1",0,0,2,60)
ShowMessage("\\n<Riot>That looks like it feels really good... I guess it wouldn't hurt for me to try it out too.")
PictureDisplay(5,"ev_liot_hb10",0,0,0,0,100,100,255,0)
ShowMessageFace("",0,0,2,61)
ShowMessage("The tip of Riot's tail rubs against the opposite end of the onahole and penetrates the opening on that side.")
PictureDisplay(5,"ev_liot_hb11",0,0,0,0,100,100,255,0)
ShowMessageFace("liot_fc1",0,0,2,62)
ShowMessage("\\n<Riot>Mmmn...♪")
ShowMessageFace("liot_fc1",1,0,2,63)
ShowMessage("\\n<Riot>...not too shabby.\nI can see why you're so enthralled with it...")
ShowMessageFace("",0,0,2,64)
ShowMessage("Her tail screws deeper inside the onahole, giving me a unique pleasure as the sensation is transferred to my penis.")
ShowMessageFace("liot_fc1",1,0,2,65)
ShowMessage("\\n<Riot>Here...? Is this firm area the part that made you come? It feels pretty good, and you were so kind to warm it up...")
ShowMessageFace("liot_fc1",1,0,2,66)
ShowMessage("\\n<Riot>Having a bit of flesh to rub my tip against is a nice bonus too...")
ShowMessageFace("",0,0,2,67)
ShowMessage("The end of her tail comes into contact with my glans, sending a strange sensation through my penis. At the same time, the creases inside the onahole stimulate the underside of my head.")
ShowMessageFace("",0,0,2,68)
ShowMessage("\\n<Luka>Ah, unnngh...")
PictureDisplay(5,"ev_liot_hb12",0,0,0,0,100,100,255,0)
ShowMessageFace("liot_fc1",1,0,2,69)
ShowMessage("\\n<Riot>Hmph, are you getting horny again?\nYou're never going to develop any endurance, are you?!")
ShowMessageFace("",0,0,2,70)
ShowMessage("It's like Riot has dragged me into her own masturbation session. I can feel every movement as she spins her tail around inside the onahole.")
ShowMessageFace("liot_fc1",1,0,2,71)
ShowMessage("\\n<Riot>It feels like you're going to come soon. Fufu, your cock is already twitching, isn't it?")
ShowMessageFace("liot_fc1",1,0,2,72)
ShowMessage("\\n<Riot>Seems that you'll finish before me then... Hora, hurry up and do it!")
ShowMessageFace("",0,0,2,73)
ShowMessage("\\n<Luka>Ah... Aaaaaah!!")
ShowMessageFace("",0,0,2,74)
ShowMessage("Her spinning tail squishes against my penis inside the tight onahole, quickly driving me towards climax--")
RunCommonEvent(104)
PictureDisplay(5,"ev_liot_hb13",0,0,0,0,100,100,255,0)
RunCommonEvent(105)
ShowMessageFace("",0,0,2,75)
ShowMessage("As I gush out another load of semen into the toy, I feel Riot's tail vibrating and trembling as well--")
ShowMessageFace("liot_fc1",3,0,2,76)
ShowMessage("\\n<Riot>Ngh... Mmmngh! ♪")
246(2)
RunCommonEvent(104)
RunCommonEvent(105)
ShowMessageFace("",0,0,2,77)
ShowMessage("A warm, slimy feeling fills the inside of the onahole as our bodily fluids intermingle.")
PictureDisplay(5,"ev_liot_hb14",0,0,0,0,100,100,255,0)
ShowMessageFace("liot_fc1",1,0,2,78)
ShowMessage("\\n<Riot>Fufu, I actually came too...\nThe slick feeling of your gooey semen helped me along.")
ShowMessageFace("liot_fc1",1,0,2,79)
ShowMessage("\\n<Riot>Nevertheless, this toy is quite good.\nWould you let me hold on to it...?")
ShowMessageFace("",0,0,2,80)
ShowMessage("\\n<Luka>Ah... Nnngh...")
ShowMessageFace("",0,0,2,81)
ShowMessage("She's made me come so many times already on top of letting me suck on her breast... I bury my face further into Riot's chest, completely lost in ecstasy.")
PictureDisplay(5,"ev_liot_hb15",0,0,0,0,100,100,255,0)
ShowMessageFace("liot_fc1",0,0,2,82)
ShowMessage("\\n<Riot>Hmph, how long are you going to cling to me? It's about time you stopped acting like a baby.")
ShowMessageFace("",0,0,2,83)
ShowMessage("Riot pulls her tail out of the onahole and lets out a long sigh. After a brief pause, she begins rocking me back and forth and looks down at my face--")
ShowMessageFace("liot_fc1",4,0,2,84)
ShowMessage("\\n<Riot>...then again, I don't mind spending more time with you if that's what you want.")
ShowMessageFace("",0,0,2,85)
ShowMessage("Riot stammers, her face hot and flushed--")
221()
PictureClear(5)
ShowMessageFace("",0,0,2,86)
ShowMessage("......")
242(2)
Wait(120)
241(bytes(0x04,0x08,0x6f,0x3a,0x0d,0x52,0x50,0x47,0x3a,0x3a,0x42,0x47,0x4d,0x08,0x3a,0x0a,0x40,0x6e,0x61,0x6d,0x65,0x49,0x22,0x0c,0x63,0x61,0x73,0x74,0x6c,0x65,0x36,0x06,0x3a,0x06,0x45,0x54,0x3a,0x0c,0x40,0x76,0x6f,0x6c,0x75,0x6d,0x65,0x69,0x69,0x3a,0x0b,0x40,0x70,0x69,0x74,0x63,0x68,0x69,0x69))
0()
