// EVENT 0139
Name "Skill: Kudagitsune"

ChangeVariable(11,11,0,2,1,10)
If(1,11,0,1,0)
 ShowMessageFace("mononohuyonbi_fc1",3,0,2,1)
 ShowMessage("\\n<Kudagitsune>I'll heal you!")
 250(bytes(0x04,0x08,0x6f,0x3a,0x0c,0x52,0x50,0x47,0x3a,0x3a,0x53,0x45,0x08,0x3a,0x0a,0x40,0x6e,0x61,0x6d,0x65,0x49,0x22,0x0a,0x48,0x65,0x61,0x6c,0x33,0x06,0x3a,0x06,0x45,0x54,0x3a,0x0b,0x40,0x70,0x69,0x74,0x63,0x68,0x69,0x69,0x3a,0x0c,0x40,0x76,0x6f,0x6c,0x75,0x6d,0x65,0x69,0x55))
 314(0,0)
 ShowMessageFace("",0,0,2,2)
 ShowMessage("The party's HP was fully restored!")
 EndEventProcessing()
 0()
EndIf()
If(1,11,0,2,0)
 ShowMessageFace("mononohuyonbi_fc1",3,0,2,3)
 ShowMessage("\\n<Kudagitsune>Faster, faster♪")
 250(bytes(0x04,0x08,0x6f,0x3a,0x0c,0x52,0x50,0x47,0x3a,0x3a,0x53,0x45,0x08,0x3a,0x0a,0x40,0x6e,0x61,0x6d,0x65,0x49,0x22,0x08,0x55,0x70,0x31,0x06,0x3a,0x06,0x45,0x54,0x3a,0x0b,0x40,0x70,0x69,0x74,0x63,0x68,0x69,0x69,0x3a,0x0c,0x40,0x76,0x6f,0x6c,0x75,0x6d,0x65,0x69,0x55))
 313(0,0,0,29)
 ShowMessageFace("",0,0,2,4)
 ShowMessage("The party's movements have sped up!")
 EndEventProcessing()
 0()
EndIf()
If(1,11,0,3,0)
 ShowMessageFace("mononohuyonbi_fc1",3,0,2,5)
 ShowMessage("\\n<Kudagitsune>Regenerate~♪")
 250(bytes(0x04,0x08,0x6f,0x3a,0x0c,0x52,0x50,0x47,0x3a,0x3a,0x53,0x45,0x08,0x3a,0x0a,0x40,0x6e,0x61,0x6d,0x65,0x49,0x22,0x08,0x55,0x70,0x31,0x06,0x3a,0x06,0x45,0x54,0x3a,0x0b,0x40,0x70,0x69,0x74,0x63,0x68,0x69,0x69,0x3a,0x0c,0x40,0x76,0x6f,0x6c,0x75,0x6d,0x65,0x69,0x55))
 313(0,0,0,34)
 313(0,0,0,37)
 ShowMessageFace("",0,0,2,6)
 ShowMessage("The party's metabolisms have been invigorated!")
 EndEventProcessing()
 0()
EndIf()
If(1,11,0,4,0)
 ShowMessageFace("mononohuyonbi_fc1",3,0,2,7)
 ShowMessage("\\n<Kudagitsune>You can do it♪\nYou can do it~♪")
 250(bytes(0x04,0x08,0x6f,0x3a,0x0c,0x52,0x50,0x47,0x3a,0x3a,0x53,0x45,0x08,0x3a,0x0a,0x40,0x6e,0x61,0x6d,0x65,0x49,0x22,0x08,0x55,0x70,0x31,0x06,0x3a,0x06,0x45,0x54,0x3a,0x0b,0x40,0x70,0x69,0x74,0x63,0x68,0x69,0x69,0x3a,0x0c,0x40,0x76,0x6f,0x6c,0x75,0x6d,0x65,0x69,0x55))
 313(0,0,0,41)
 ShowMessageFace("",0,0,2,8)
 ShowMessage("The party's metabolisms have been invigorated!")
 EndEventProcessing()
 0()
EndIf()
If(1,11,0,5,0)
 ShowMessageFace("mononohuyonbi_fc1",3,0,2,9)
 ShowMessage("\\n<Kudagitsune>Illusion dance~♪")
 250(bytes(0x04,0x08,0x6f,0x3a,0x0c,0x52,0x50,0x47,0x3a,0x3a,0x53,0x45,0x08,0x3a,0x0a,0x40,0x6e,0x61,0x6d,0x65,0x49,0x22,0x08,0x55,0x70,0x31,0x06,0x3a,0x06,0x45,0x54,0x3a,0x0b,0x40,0x70,0x69,0x74,0x63,0x68,0x69,0x69,0x3a,0x0c,0x40,0x76,0x6f,0x6c,0x75,0x6d,0x65,0x69,0x55))
 313(0,0,0,46)
 313(0,0,0,50)
 ShowMessageFace("",0,0,2,10)
 ShowMessage("The party's evasion has increased!\nThe party's magic evasion has increased!")
 EndEventProcessing()
 0()
EndIf()
If(1,11,0,6,0)
 ShowMessageFace("mononohuyonbi_fc1",3,0,2,11)
 ShowMessage("\\n<Kudagitsune>Go for the eyes!")
 250(bytes(0x04,0x08,0x6f,0x3a,0x0c,0x52,0x50,0x47,0x3a,0x3a,0x53,0x45,0x08,0x3a,0x0a,0x40,0x6e,0x61,0x6d,0x65,0x49,0x22,0x08,0x55,0x70,0x31,0x06,0x3a,0x06,0x45,0x54,0x3a,0x0b,0x40,0x70,0x69,0x74,0x63,0x68,0x69,0x69,0x3a,0x0c,0x40,0x76,0x6f,0x6c,0x75,0x6d,0x65,0x69,0x55))
 313(0,0,0,53)
 ShowMessageFace("",0,0,2,12)
 ShowMessage("The party's critical hit rate has increased!")
 EndEventProcessing()
 0()
EndIf()
If(1,11,0,7,0)
 ShowMessageFace("mononohuyonbi_fc1",3,0,2,13)
 ShowMessage("\\n<Kudagitsune>Element up!")
 250(bytes(0x04,0x08,0x6f,0x3a,0x0c,0x52,0x50,0x47,0x3a,0x3a,0x53,0x45,0x08,0x3a,0x0a,0x40,0x6e,0x61,0x6d,0x65,0x49,0x22,0x08,0x55,0x70,0x31,0x06,0x3a,0x06,0x45,0x54,0x3a,0x0b,0x40,0x70,0x69,0x74,0x63,0x68,0x69,0x69,0x3a,0x0c,0x40,0x76,0x6f,0x6c,0x75,0x6d,0x65,0x69,0x55))
 313(0,0,0,68)
 ShowMessageFace("",0,0,2,14)
 ShowMessage("The party's elemental attacks have been strengthened!")
 EndEventProcessing()
 0()
EndIf()
If(1,11,0,8,0)
 ShowMessageFace("mononohuyonbi_fc1",3,0,2,15)
 ShowMessage("\\n<Kudagitsune>Get immunized♪")
 250(bytes(0x04,0x08,0x6f,0x3a,0x0c,0x52,0x50,0x47,0x3a,0x3a,0x53,0x45,0x08,0x3a,0x0a,0x40,0x6e,0x61,0x6d,0x65,0x49,0x22,0x08,0x55,0x70,0x31,0x06,0x3a,0x06,0x45,0x54,0x3a,0x0b,0x40,0x70,0x69,0x74,0x63,0x68,0x69,0x69,0x3a,0x0c,0x40,0x76,0x6f,0x6c,0x75,0x6d,0x65,0x69,0x55))
 313(0,0,0,137)
 ShowMessageFace("",0,0,2,16)
 ShowMessage("The party has become immune to abnormal status effects!")
 EndEventProcessing()
 0()
EndIf()
If(1,11,0,9,0)
 ShowMessageFace("mononohuyonbi_fc1",3,0,2,17)
 ShowMessage("\\n<Kudagitsune>Rapid-fire skills!")
 250(bytes(0x04,0x08,0x6f,0x3a,0x0c,0x52,0x50,0x47,0x3a,0x3a,0x53,0x45,0x08,0x3a,0x0a,0x40,0x6e,0x61,0x6d,0x65,0x49,0x22,0x08,0x55,0x70,0x31,0x06,0x3a,0x06,0x45,0x54,0x3a,0x0b,0x40,0x70,0x69,0x74,0x63,0x68,0x69,0x69,0x3a,0x0c,0x40,0x76,0x6f,0x6c,0x75,0x6d,0x65,0x69,0x55))
 313(0,0,0,165)
 ShowMessageFace("",0,0,2,18)
 ShowMessage("The party's SP consumption was halved!")
 EndEventProcessing()
 0()
EndIf()
If(1,11,0,10,0)
 ShowMessageFace("mononohuyonbi_fc1",3,0,2,19)
 ShowMessage("\\n<Kudagitsune>Rapid-fire magic!")
 250(bytes(0x04,0x08,0x6f,0x3a,0x0c,0x52,0x50,0x47,0x3a,0x3a,0x53,0x45,0x08,0x3a,0x0a,0x40,0x6e,0x61,0x6d,0x65,0x49,0x22,0x08,0x55,0x70,0x31,0x06,0x3a,0x06,0x45,0x54,0x3a,0x0b,0x40,0x70,0x69,0x74,0x63,0x68,0x69,0x69,0x3a,0x0c,0x40,0x76,0x6f,0x6c,0x75,0x6d,0x65,0x69,0x55))
 313(0,0,0,162)
 ShowMessageFace("",0,0,2,20)
 ShowMessage("The party's MP consumption was halved!")
 EndEventProcessing()
 0()
EndIf()
0()
