﻿// EVENT 0549
Name "RC:ルシフィナちゃん"

If(1,1099,0,1,0)
 ShowMessageFace("",0,0,2,1)
 ShowMessage("四人は休憩しているようだ……")
 ShowMessageFace("iriasu_fc4",0,0,2,2)
 ShowMessage("【イリアス】")
 ShowMessage("練習の合間のお茶は、至福の味ですね。")
 ShowMessage("ルカ、あなたも一服していきませんか？")
 If(1,1098,0,3,0)
  ShowMessageFace("",0,0,2,3)
  ShowMessage("まず、イリアス様にピザを渡そう。")
  EndEventProcessing()
  0()
 EndIf()
 If(1,1098,0,4,0)
  ShowMessageFace("",0,0,2,4)
  ShowMessage("今は先に、一階の食堂に昼ごはんを食べに行こう。")
  EndEventProcessing()
  0()
 EndIf()
 If(1,1098,0,7,0)
  ShowMessageFace("",0,0,2,5)
  ShowMessage("まず、イリアス様にピザを渡そう。")
  EndEventProcessing()
  0()
 EndIf()
 0()
EndIf()
If(1,1099,0,4,0)
 ShowMessageFace("rucyfinac_fc1",1,0,2,6)
 ShowMessage("【ルシフィナちゃん】")
 ShowMessage("スロットって、とっても楽しいね。")
 ShowMessage("ルカも、一緒に遊ぼうよ～♪")
 If(0,2338,0)
  ShowMessageFace("",0,0,2,7)
  ShowMessage("今は、荷物を運んでいる最中だ。")
  ShowMessage("大聖堂に向かうことを優先しよう。")
  EndEventProcessing()
  0()
 EndIf()
 0()
EndIf()
DefineLabel("メイン")
If(1,1099,0,1,0)
 355("ex_choice_add(\"一服する（時間経過）\",1,")
 655("\"v[1098] >= 5\",0)")
 0()
EndIf()
If(1,1099,0,4,0)
 355("ex_choice_add(\"スロットで遊ぶ（時間経過）\",1,")
 655("\"v[1098] >= 5\",0)")
 0()
EndIf()
355("ex_choice_add(\"異変について相談する\",2,")
655("\"s[2341]\",0)")
655("ex_choice_add(\"後悔していることについて聞く\",3,")
655("\"s[2342]\",0)")
655("ex_choice_add(\"時を繰り返す道具について聞く\",4,")
655("\"s[2343]\",0)")
655("ex_choice_add(\"ピザを注文したか聞く\",5,")
655("\"s[2345]\",0)")
355("ex_choice_add(\"謎のマキナについて聞く\",6,")
655("\"s[2365]\",0)")
655("ex_choice_add(\"作戦に必要な品について聞く\",7,")
655("\"s[2364]\",0)")
655("ex_choice_add(\"お茶会に誘う\",8,")
655("\"s[2378]\",0)")
655("ex_choice_add(\"立ち去る\",10)")
355("ex_choice_show(0,11,[0,0])")
If(1,9,0,1,0)
 If(1,1099,0,1,0)
  221()
  205(54,bytes(0x04,0x08,0x6f,0x3a,0x13,0x52,0x50,0x47,0x3a,0x3a,0x4d,0x6f,0x76,0x65,0x52,0x6f,0x75,0x74,0x65,0x09,0x3a,0x0c,0x40,0x72,0x65,0x70,0x65,0x61,0x74,0x46,0x3a,0x0f,0x40,0x73,0x6b,0x69,0x70,0x70,0x61,0x62,0x6c,0x65,0x46,0x3a,0x0a,0x40,0x77,0x61,0x69,0x74,0x54,0x3a,0x0a,0x40,0x6c,0x69,0x73,0x74,0x5b,0x07,0x6f,0x3a,0x15,0x52,0x50,0x47,0x3a,0x3a,0x4d,0x6f,0x76,0x65,0x43,0x6f,0x6d,0x6d,0x61,0x6e,0x64,0x07,0x3a,0x0a,0x40,0x63,0x6f,0x64,0x65,0x69,0x15,0x3a,0x10,0x40,0x70,0x61,0x72,0x61,0x6d,0x65,0x74,0x65,0x72,0x73,0x5b,0x00,0x6f,0x3b,0x0a,0x07,0x3b,0x0b,0x69,0x00,0x3b,0x0c,0x5b,0x00))
  TeleportPlayer(0,83,28,49,6,2)
  222()
  ShowMessageFace("iriasu_fc4",0,0,2,8)
  ShowMessage("【イリアス】")
  ShowMessage("この休憩を終えたら、また全員で合わせますよ。")
  ShowMessage("これが、本番まで最後の練習となるでしょう。")
  ShowMessageFace("rucyfinac_fc1",0,0,2,9)
  ShowMessage("【ルシフィナちゃん】")
  ShowMessage("いよいよ本番、たのしみだね～♪")
  ShowMessageFace("micaelac_fc1",3,0,2,10)
  ShowMessage("【ミカエラちゃん】")
  ShowMessage("この一週間の研鑽……")
  ShowMessage("本番の舞台で、惜しみなく披露するわ。")
  ShowMessageFace("eden_fc1",0,0,2,11)
  ShowMessage("【エデン】")
  ShowMessage("皆の背は、この私が守ります。")
  ShowMessage("全力で戦い抜きましょう！")
  ShowMessageFace("",0,0,2,12)
  ShowMessage("四人とも、気合いは十分のようだ。")
  ShowMessage("だが、この時間ループを抜けなければ大会は始まらない……")
  RunCommonEvent(540)
  EndEventProcessing()
  0()
 EndIf()
 If(1,1099,0,4,0)
  221()
  TeleportPlayer(0,83,27,46,8,2)
  222()
  ShowMessageFace("rucyfinac_fc1",1,0,2,13)
  ShowMessage("【ルシフィナちゃん】")
  ShowMessage("じゃらじゃらじゃら……")
  ShowMessage("おおあたり～♪　7がいっぱい～♪")
  ShowMessageFace("rucyfinac_fc1",1,0,2,14)
  ShowMessage("【ルシフィナちゃん】")
  ShowMessage("じゃらじゃらじゃら……")
  ShowMessage("また、おおあたり～♪　コインがいっぱい～♪")
  ShowMessageFace("ruka_fc1",0,0,2,15)
  ShowMessage("【ルカ】")
  ShowMessage("ルシフィナちゃんのスロット運はすごいなぁ。")
  ShowMessage("ミカエラちゃんの方は……？")
  ShowMessageFace("micaelac_fc1",2,0,2,16)
  ShowMessage("【ミカエラちゃん】")
  ShowMessage("全然当たらない……")
  ShowMessage("サクランボさえ揃わない……")
  ShowMessageFace("ruka_fc1",0,0,2,17)
  ShowMessage("【ルカ】")
  ShowMessage("あっちは……ダメか。")
  ShowMessageFace("",0,0,2,18)
  ShowMessage("スロットで遊びながら時間を過ごした……")
  RunCommonEvent(5817)
  EndEventProcessing()
  0()
 EndIf()
 0()
EndIf()
If(1,9,0,2,0)
 ShowMessageFace("",0,0,2,19)
 ShowMessage("ルカは、異変について相談した……")
 ShowMessageFace("rucyfinac_fc1",2,0,2,20)
 ShowMessage("【ルシフィナちゃん】")
 ShowMessage("私じゃ力になれないみたい。")
 ShowMessage("ごめんね……")
 ShowMessageFace("",0,0,2,21)
 ShowMessage("ルシフィナちゃんは頼れそうにない……")
 JumpToLabel("メイン")
 0()
EndIf()
If(1,9,0,3,0)
 ShowMessageFace("rucyfinac_fc1",0,0,2,22)
 ShowMessage("【ルシフィナちゃん】")
 ShowMessage("後悔？　ぜんぜんないよ～！")
 ShowMessageFace("",0,0,2,23)
 ShowMessage("有益な情報は得られなかった……")
 JumpToLabel("メイン")
 0()
EndIf()
If(1,9,0,4,0)
 ShowMessageFace("rucyfinac_fc1",0,0,2,24)
 ShowMessage("【ルシフィナちゃん】")
 ShowMessage("時間を戻すの……？")
 ShowMessage("どれだけ壊しても、元通りだね♪")
 ShowMessageFace("",0,0,2,25)
 ShowMessage("有益な情報は得られなかった……")
 JumpToLabel("メイン")
 0()
EndIf()
If(1,9,0,5,0)
 ShowMessageFace("rucyfinac_fc1",0,0,2,26)
 ShowMessage("【ルシフィナちゃん】")
 ShowMessage("知らないよ～♪")
 ShowMessageFace("",0,0,2,27)
 ShowMessage("ピザを頼んだのはルシフィナちゃんではないようだ……")
 JumpToLabel("メイン")
 0()
EndIf()
If(1,9,0,6,0)
 ShowMessageFace("rucyfinac_fc1",0,0,2,28)
 ShowMessage("【ルシフィナちゃん】")
 ShowMessage("なにこれ、壊していいの？")
 ShowMessage("……もう、壊れちゃってるね。")
 ShowMessageFace("",0,0,2,29)
 ShowMessage("有益な情報は得られなかった……")
 JumpToLabel("メイン")
 0()
EndIf()
If(1,9,0,7,0)
 ShowMessageFace("rucyfinac_fc1",0,0,2,30)
 ShowMessage("【ルシフィナちゃん】")
 ShowMessage("そういうアイテム、あんまり持ち歩いてないの……")
 ShowMessage("ごめんね。")
 ShowMessageFace("",0,0,2,31)
 ShowMessage("有益なアイテムは得られなかった……")
 JumpToLabel("メイン")
 0()
EndIf()
If(1,9,0,8,0)
 ShowMessageFace("rucyfinac_fc1",2,0,2,32)
 ShowMessage("【ルシフィナちゃん】")
 ShowMessage("ケンカになっちゃうから、行けないの……")
 ShowMessage("ごめんね。")
 ShowMessageFace("",0,0,2,33)
 ShowMessage("ルシフィナちゃんはお茶会の誘いを断った……")
 JumpToLabel("メイン")
 0()
EndIf()
EndEventProcessing()
0()
