﻿// EVENT 5806
Name "Rジャンクドール"

If(0,443,0)
 PictureDisplay(5,"80_junkdoll_st01",0,0,0,0,100,100,255,0)
 0()
EndIf()
242(1)
250(bytes(0x04,0x08,0x6f,0x3a,0x0c,0x52,0x50,0x47,0x3a,0x3a,0x53,0x45,0x08,0x3a,0x0a,0x40,0x6e,0x61,0x6d,0x65,0x49,0x22,0x0a,0x7a,0x69,0x68,0x6f,0x75,0x06,0x3a,0x06,0x45,0x54,0x3a,0x0b,0x40,0x70,0x69,0x74,0x63,0x68,0x69,0x69,0x3a,0x0c,0x40,0x76,0x6f,0x6c,0x75,0x6d,0x65,0x69,0x55))
Wait(60)
ShowMessageFace("",0,0,2,1)
ShowMessage("その時――城内に、五時の鐘が鳴り響いた。")
241(bytes(0x04,0x08,0x6f,0x3a,0x0d,0x52,0x50,0x47,0x3a,0x3a,0x42,0x47,0x4d,0x08,0x3a,0x0a,0x40,0x6e,0x61,0x6d,0x65,0x49,0x22,0x09,0x65,0x72,0x6f,0x31,0x06,0x3a,0x06,0x45,0x54,0x3a,0x0c,0x40,0x76,0x6f,0x6c,0x75,0x6d,0x65,0x69,0x69,0x3a,0x0b,0x40,0x70,0x69,0x74,0x63,0x68,0x69,0x69))
ShowMessageFace("junkdoll_fc2",0,0,2,2)
ShowMessage("【フランチェスカ】")
ShowMessage("無事に組み立てられるなんて、すごいじゃない……")
ShowMessage("賞品をあげないとね……ふふふっ。")
ShowMessageFace("",0,0,2,3)
ShowMessage("【ルカ】")
ShowMessage("そんな、賞品なんて――")
ShowMessageFace("junkdoll_fc2",0,0,2,4)
ShowMessage("【フランチェスカ】")
ShowMessage("賞品は、人形ハーレムよ……")
ShowMessage("さあ、たっぷりと昇天しなさい……")
ShowMessageFace("",0,0,2,5)
ShowMessage("【ルカ】")
ShowMessage("や、やめて……あぁぁぁっ！！")
ShowMessageFace("",0,0,2,6)
ShowMessage("逃げる間もなく、人形達の中心へと引き込まれ――")
245(bytes(0x04,0x08,0x6f,0x3a,0x0d,0x52,0x50,0x47,0x3a,0x3a,0x42,0x47,0x53,0x08,0x3a,0x0a,0x40,0x6e,0x61,0x6d,0x65,0x49,0x22,0x17,0x6d,0x6f,0x6e,0x5f,0x68,0x73,0x65,0x61,0x6e,0x31,0x37,0x5f,0x73,0x69,0x67,0x6f,0x6b,0x69,0x06,0x3a,0x06,0x45,0x54,0x3a,0x0c,0x40,0x76,0x6f,0x6c,0x75,0x6d,0x65,0x69,0x55,0x3a,0x0b,0x40,0x70,0x69,0x74,0x63,0x68,0x69,0x69))
PictureDisplay(5,"ev_junkdoll_hd1",0,0,0,0,100,100,255,0)
ShowMessageFace("",0,0,2,7)
ShowMessage("【ルカ】")
ShowMessage("はぅ……あぅぅぅ……")
ShowMessageFace("",0,0,2,8)
ShowMessage("僕は人形達に埋もれながら、全身を蹂躙されていた。")
ShowMessage("いや、それは輪姦といっても良いほどだ。")
ShowMessageFace("junkdoll_fc2",0,0,2,9)
ShowMessage("【フランチェスカ】")
ShowMessage("さあ、作り物の女性器に好きなだけ出しなさい。")
ShowMessage("その精、全部養分にしてあげるから……")
ShowMessageFace("",0,0,2,10)
ShowMessage("【ルカ】")
ShowMessage("あぅぅ……あ、あぁぁっ……！")
ShowMessageFace("",0,0,2,11)
ShowMessage("赤髪の人形に抱きすくめられ、完全に拘束されている。")
ShowMessage("そしてペニスは、その女性器に咥え込まれていた。")
ShowMessageFace("",0,0,2,12)
ShowMessage("作り物の膣内では、柔肉がじゅぶじゅぶと波打つように動き――")
ShowMessage("耐えることは不可能なほどの快楽で、ペニスを嫐ってくる。")
ShowMessageFace("",0,0,2,13)
ShowMessage("【ルカ】")
ShowMessage("うぁ……あ、あぁぁっ……！！")
ShowMessageFace("",0,0,2,14)
ShowMessage("金髪の人形は、舌を伸ばして耳を舐め回していた。")
ShowMessage("ぞわぞわとした快感で背筋が震え、思わず悶えてしまう。")
ShowMessageFace("junkdoll_fc2",0,0,2,15)
ShowMessage("【フランチェスカ】")
ShowMessage("あはっ、幸せよねぇ……")
ShowMessage("前も後ろも、気持ちいいところを責め尽くされてさぁ……")
ShowMessageFace("",0,0,2,16)
ShowMessage("そして後ろの穴は、人形の男性器で犯されていた。")
ShowMessage("アナルの中に作り物の肉棒が侵入し、ピストン刺激で責めたてられる――")
ShowMessageFace("",0,0,2,17)
ShowMessage("【ルカ】")
ShowMessage("はぅ……！　あ、あぁぁぁっ……！！")
ShowMessageFace("",0,0,2,18)
ShowMessage("人形達に全身を嫐り尽くされ、前後から蹂躙され――")
ShowMessage("赤髪人形に抱かれたまま、がくがくと体を震わせ――")
RunCommonEvent(104)
RunCommonEvent(105)
ShowMessageFace("",0,0,2,19)
ShowMessage("そして、人形の女性器にドクドクと精液を発射してしまった。")
ShowMessage("背筋を貫く快感に悶えながら、強烈な放出感を味わう――")
ShowMessageFace("junkdoll_fc2",0,0,2,20)
ShowMessage("【フランチェスカ】")
ShowMessage("あははっ、人形に中出ししちゃったぁ……")
ShowMessage("作り物の性器に、無駄撃ち射精した気分はどう？")
ShowMessageFace("",0,0,2,21)
ShowMessage("【ルカ】")
ShowMessage("はぅぅぅぅ……")
ShowMessageFace("junkdoll_fc2",0,0,2,22)
ShowMessage("【フランチェスカ】")
ShowMessage("気持ち良かったら、何でもいいんでしょ？")
ShowMessage("ほらほら……もっと突いてあげるわ。")
ShowMessageFace("",0,0,2,23)
ShowMessage("青髪の人形は、容赦なくアナルを責め続け――")
ShowMessage("その動きと連動するように、僕の腰も前後に動いてしまう。")
ShowMessageFace("",0,0,2,24)
ShowMessage("【ルカ】")
ShowMessage("あ……はぅ、あぁぁぁっ！！")
ShowMessageFace("",0,0,2,25)
ShowMessage("アナルを責められ、情けなく動いてしまう腰の動きに従い――")
ShowMessage("赤髪人形の女性器の中で、ペニスが強制的に抜き差しさせられる。")
ShowMessageFace("",0,0,2,26)
ShowMessage("柔らかな膣肉での摩擦感により、ペニスの快感もますます増し――")
ShowMessage("あっという間に、二度目の絶頂へと追い込まれ――")
ShowMessageFace("",0,0,2,27)
ShowMessage("【ルカ】")
ShowMessage("うぅっ……あ、あぁぁぁ！！")
RunCommonEvent(104)
RunCommonEvent(105)
ShowMessageFace("",0,0,2,28)
ShowMessage("そして、大量の精液を人造の性器へと捧げてしまった――")
ShowMessageFace("junkdoll_fc2",0,0,2,29)
ShowMessage("【フランチェスカ】")
ShowMessage("あはっ、また出しちゃったぁ。")
ShowMessage("人間の男って、精子の無駄撃ちが好きよねぇ。")
ShowMessageFace("",0,0,2,30)
ShowMessage("【ルカ】")
ShowMessage("うぁ……はぅぅ……もう、やめてぇ……")
ShowMessageFace("junkdoll_fc2",0,0,2,31)
ShowMessage("【フランチェスカ】")
ShowMessage("まだまだ……もっと人形ハーレムを味わいなさい。")
ShowMessage("精子がカラッポになるまでね……うふふふっ。")
ShowMessageFace("",0,0,2,32)
ShowMessage("【ルカ】")
ShowMessage("そんなぁ……あぁぁぁ……")
RunCommonEvent(104)
RunCommonEvent(105)
ShowMessageFace("",0,0,2,33)
ShowMessage("そのまま僕は、延々と人形達に蹂躙され――")
ShowMessage("作り物の女性器へと、精液を出し尽くした。")
ShowMessageFace("",0,0,2,34)
ShowMessage("人形達に陵辱され、精を根こそぎ搾り尽くされ――")
ShowMessage("とうとう無数の人形に埋もれながら、力尽きたのである。")
221()
PictureClear(5)
242(1)
246(1)
ShowMessageFace("",0,0,2,35)
ShowMessage("・・・・・・・・")
221()
Wait(120)
If(0,443,0)
 EndEventProcessing()
 0()
EndIf()
RunCommonEvent(541)
0()
