﻿// EVENT 0573
Name "ループ：ソニア同行"

If(1,1098,0,5,0)
 205(20,bytes(0x04,0x08,0x6f,0x3a,0x13,0x52,0x50,0x47,0x3a,0x3a,0x4d,0x6f,0x76,0x65,0x52,0x6f,0x75,0x74,0x65,0x09,0x3a,0x0c,0x40,0x72,0x65,0x70,0x65,0x61,0x74,0x46,0x3a,0x0f,0x40,0x73,0x6b,0x69,0x70,0x70,0x61,0x62,0x6c,0x65,0x46,0x3a,0x0a,0x40,0x77,0x61,0x69,0x74,0x54,0x3a,0x0a,0x40,0x6c,0x69,0x73,0x74,0x5b,0x07,0x6f,0x3a,0x15,0x52,0x50,0x47,0x3a,0x3a,0x4d,0x6f,0x76,0x65,0x43,0x6f,0x6d,0x6d,0x61,0x6e,0x64,0x07,0x3a,0x0a,0x40,0x63,0x6f,0x64,0x65,0x69,0x1e,0x3a,0x10,0x40,0x70,0x61,0x72,0x61,0x6d,0x65,0x74,0x65,0x72,0x73,0x5b,0x00,0x6f,0x3b,0x0a,0x07,0x3b,0x0b,0x69,0x00,0x3b,0x0c,0x5b,0x00))
 ShowMessageFace("sonia_fc1",0,0,2,1)
 ShowMessage("【ソニア】")
 ShowMessage("あっ、ルカ。")
 ShowMessage("大聖堂に荷物を運ぶんだけど、手伝ってくれない？")
 ShowMessageFace("ruka_fc1",0,0,2,2)
 ShowMessage("【ルカ】")
 ShowMessage("うん、分かった。")
 ShowMessageFace("",0,0,2,3)
 ShowMessage("ルカとソニアは、手分けして荷物を抱えた！")
 ShowMessageFace("sonia_fc1",0,0,2,4)
 ShowMessage("【ソニア】")
 ShowMessage("大聖堂の場所は分かるよね？")
 ShowMessage("一階の、いちばん北ね。")
 ShowMessageFace("ruka_fc1",0,0,2,5)
 ShowMessage("【ルカ】")
 ShowMessage("ああ……それじゃあ、行こう！")
 205(20,bytes(0x04,0x08,0x6f,0x3a,0x13,0x52,0x50,0x47,0x3a,0x3a,0x4d,0x6f,0x76,0x65,0x52,0x6f,0x75,0x74,0x65,0x09,0x3a,0x0c,0x40,0x72,0x65,0x70,0x65,0x61,0x74,0x46,0x3a,0x0f,0x40,0x73,0x6b,0x69,0x70,0x70,0x61,0x62,0x6c,0x65,0x46,0x3a,0x0a,0x40,0x77,0x61,0x69,0x74,0x54,0x3a,0x0a,0x40,0x6c,0x69,0x73,0x74,0x5b,0x09,0x6f,0x3a,0x15,0x52,0x50,0x47,0x3a,0x3a,0x4d,0x6f,0x76,0x65,0x43,0x6f,0x6d,0x6d,0x61,0x6e,0x64,0x07,0x3a,0x0a,0x40,0x63,0x6f,0x64,0x65,0x69,0x2a,0x3a,0x10,0x40,0x70,0x61,0x72,0x61,0x6d,0x65,0x74,0x65,0x72,0x73,0x5b,0x00,0x6f,0x3b,0x0a,0x07,0x3b,0x0b,0x69,0x11,0x3b,0x0c,0x5b,0x00,0x6f,0x3b,0x0a,0x07,0x3b,0x0b,0x69,0x2c,0x3b,0x0c,0x5b,0x00,0x6f,0x3b,0x0a,0x07,0x3b,0x0b,0x69,0x00,0x3b,0x0c,0x5b,0x00))
 355("add_temp_actors(525)")
 ChangeSwitch(2338,2338,0)
 ChangeVariable(1098,1098,0,0,6)
 EndEventProcessing()
 0()
EndIf()
If(1,1098,0,8,0)
 205(20,bytes(0x04,0x08,0x6f,0x3a,0x13,0x52,0x50,0x47,0x3a,0x3a,0x4d,0x6f,0x76,0x65,0x52,0x6f,0x75,0x74,0x65,0x09,0x3a,0x0c,0x40,0x72,0x65,0x70,0x65,0x61,0x74,0x46,0x3a,0x0f,0x40,0x73,0x6b,0x69,0x70,0x70,0x61,0x62,0x6c,0x65,0x46,0x3a,0x0a,0x40,0x77,0x61,0x69,0x74,0x54,0x3a,0x0a,0x40,0x6c,0x69,0x73,0x74,0x5b,0x07,0x6f,0x3a,0x15,0x52,0x50,0x47,0x3a,0x3a,0x4d,0x6f,0x76,0x65,0x43,0x6f,0x6d,0x6d,0x61,0x6e,0x64,0x07,0x3a,0x0a,0x40,0x63,0x6f,0x64,0x65,0x69,0x1e,0x3a,0x10,0x40,0x70,0x61,0x72,0x61,0x6d,0x65,0x74,0x65,0x72,0x73,0x5b,0x00,0x6f,0x3b,0x0a,0x07,0x3b,0x0b,0x69,0x00,0x3b,0x0c,0x5b,0x00))
 ShowMessageFace("sonia_fc1",0,0,2,6)
 ShowMessage("【ソニア】")
 ShowMessage("あっ、ルカ。")
 ShowMessage("大聖堂に荷物を運ぶんだけど、手伝ってくれない？")
 ShowMessageFace("ruka_fc1",0,0,2,7)
 ShowMessage("【ルカ】")
 ShowMessage("……………………")
 ShowMessageFace("",0,0,2,8)
 ShowMessage("やっぱりこれも、あの悪夢で見た通り。")
 ShowMessage("何もかも、一度体験したのと同じ流れである。")
 ShowMessageFace("",0,0,2,9)
 ShowMessage("そしてこの後は、大聖堂に行って――")
 ShowMessage("五時の鐘と共に、ラミアに食べられてしまうのだ――")
 ShowMessageFace("ruka_fc1",0,0,2,10)
 ShowMessage("【ルカ】")
 ShowMessage("ごめん……")
 ShowMessage("ちょっと体調が悪くて、手伝えないよ。")
 ShowMessageFace("sonia_fc2",2,0,2,11)
 ShowMessage("【ソニア】")
 ShowMessage("えっ、大丈夫なの……？")
 ShowMessage("もうすぐ、夜祭もあるのに……")
 ShowMessageFace("",0,0,2,12)
 ShowMessage("なんだか、嫌な予感がする。")
 ShowMessage("僕はあえて、ソニアと一緒に行動しないことにした――")
 ChangeVariable(1098,1098,0,0,9)
 205(20,bytes(0x04,0x08,0x6f,0x3a,0x13,0x52,0x50,0x47,0x3a,0x3a,0x4d,0x6f,0x76,0x65,0x52,0x6f,0x75,0x74,0x65,0x09,0x3a,0x0c,0x40,0x72,0x65,0x70,0x65,0x61,0x74,0x46,0x3a,0x0f,0x40,0x73,0x6b,0x69,0x70,0x70,0x61,0x62,0x6c,0x65,0x46,0x3a,0x0a,0x40,0x77,0x61,0x69,0x74,0x54,0x3a,0x0a,0x40,0x6c,0x69,0x73,0x74,0x5b,0x07,0x6f,0x3a,0x15,0x52,0x50,0x47,0x3a,0x3a,0x4d,0x6f,0x76,0x65,0x43,0x6f,0x6d,0x6d,0x61,0x6e,0x64,0x07,0x3a,0x0a,0x40,0x63,0x6f,0x64,0x65,0x69,0x15,0x3a,0x10,0x40,0x70,0x61,0x72,0x61,0x6d,0x65,0x74,0x65,0x72,0x73,0x5b,0x00,0x6f,0x3b,0x0a,0x07,0x3b,0x0b,0x69,0x00,0x3b,0x0c,0x5b,0x00))
 EndEventProcessing()
 0()
EndIf()
0()
