﻿// EVENT 0568
Name "ループ：玄関トラップ"

241(bytes(0x04,0x08,0x6f,0x3a,0x0d,0x52,0x50,0x47,0x3a,0x3a,0x42,0x47,0x4d,0x08,0x3a,0x0a,0x40,0x6e,0x61,0x6d,0x65,0x49,0x22,0x0a,0x6b,0x69,0x6b,0x69,0x31,0x06,0x3a,0x06,0x45,0x54,0x3a,0x0c,0x40,0x76,0x6f,0x6c,0x75,0x6d,0x65,0x69,0x69,0x3a,0x0b,0x40,0x70,0x69,0x74,0x63,0x68,0x69,0x69))
250(bytes(0x04,0x08,0x6f,0x3a,0x0c,0x52,0x50,0x47,0x3a,0x3a,0x53,0x45,0x08,0x3a,0x0a,0x40,0x6e,0x61,0x6d,0x65,0x49,0x22,0x0e,0x54,0x68,0x75,0x6e,0x64,0x65,0x72,0x31,0x32,0x06,0x3a,0x06,0x45,0x54,0x3a,0x0b,0x40,0x70,0x69,0x74,0x63,0x68,0x69,0x69,0x3a,0x0c,0x40,0x76,0x6f,0x6c,0x75,0x6d,0x65,0x69,0x55))
225(5,5,60,false)
PictureDisplay(1,"iv_trap",0,0,0,0,100,100,0,0)
PictureMove(1,null,0,0,0,0,100,100,255,0,30,true)
ShowMessageFace("ruka_fc1",0,0,2,1)
ShowMessage("【ルカ】")
ShowMessage("あ……うわぁぁぁ！！")
ShowMessageFace("",0,0,2,2)
ShowMessage("次の瞬間、電流のような衝撃が全身を駆け巡った。")
ShowMessage("このドアには、まだ魔術的トラップが残っていたのだ。")
ShowMessageFace("ruka_fc1",0,0,2,3)
ShowMessage("【ルカ】")
ShowMessage("うぐ……あぁぁぁ！！")
ShowMessageFace("",0,0,2,4)
ShowMessage("全身が焼き尽くされるような衝撃で、意識が薄れていく。")
ShowMessage("そのまま僕は、気を失ってしまった――")
242(1)
221()
Wait(60)
PictureClear(1)
ChangeSwitch(35,35,0)
TeleportPlayer(0,153,35,5,4,2)
ShowMessageFace("ruka_fc1",0,0,2,5)
ShowMessage("【ルカ】")
ShowMessage("う……ここは……")
ShowMessageFace("",0,0,2,6)
ShowMessage("目を覚ますと、そこには――")
222()
ShowSpeechBalloon(-1,1,false)
ShowMessageFace("ruka_fc1",0,0,2,7)
ShowMessage("【ルカ】")
ShowMessage("ミュ……ミュスカ！？")
ShowMessageFace("myuska_fc1",5,0,2,8)
ShowMessage("【ミュスカ】")
ShowMessage("あはっ、ようやく目覚めたね。")
ShowMessage("キミ、異世界の勇者なんだって？")
ShowMessageFace("myuska_fc1",5,0,2,9)
ShowMessage("【ミュスカ】")
ShowMessage("それってさぁ……とっても美味しそうじゃん……")
ShowMessage("あはっ。ワクワクしちゃうなぁ。")
ShowMessageFace("ruka_fc1",0,0,2,10)
ShowMessage("【ルカ】")
ShowMessage("と、透はどうしたんだ……？")
ScrollMap(2,5,5)
ShowMessageFace("myuska_fc1",5,0,2,11)
ShowMessage("【ミュスカ】")
ShowMessage("あの人間……？")
ShowMessage("もう、食べちゃったよ。")
ScrollMap(8,5,5)
ChangeSwitch(2407,2407,0)
RunCommonEvent(5783)
EndEventProcessing()
0()
