// EVENT 4077
Name "Slime Girl 2"

If(0,25,1)
 221()
 PictureClear(5)
 PictureClear(6)
 ShowMessageFace("",0,0,2,0)
 ShowMessage("......")
 242(2)
 Wait(120)
 241(bytes(0x04,0x08,0x6f,0x3a,0x0d,0x52,0x50,0x47,0x3a,0x3a,0x42,0x47,0x4d,0x08,0x3a,0x0a,0x40,0x6e,0x61,0x6d,0x65,0x49,0x22,0x0c,0x63,0x61,0x73,0x74,0x6c,0x65,0x36,0x06,0x3a,0x06,0x45,0x54,0x3a,0x0c,0x40,0x76,0x6f,0x6c,0x75,0x6d,0x65,0x69,0x69,0x3a,0x0b,0x40,0x70,0x69,0x74,0x63,0x68,0x69,0x69))
 EndEventProcessing()
 0()
EndIf()
PictureDisplay(5,"80_slime_st02",0,0,0,0,100,100,255,0)
ShowMessageFace("slime_fc1",1,0,2,1)
ShowMessage("\\n<Lime>Ehehe... Do you want to do something that feels really good?\nHaving all your semen squeezed out, until you're totally dizzy.")
ShowMessageFace("",0,0,2,2)
ShowMessage("\\n<Luka>Y...Yes... Please...")
ShowMessageFace("slime_fc1",1,0,2,3)
ShowMessage("\\n<Lime>Let's go to my room then.\nI'll make it feel like you're in heaven♪")
ShowMessageFace("",0,0,2,4)
ShowMessage("I follow her to a private room...")
221()
PictureDisplay(1,"bg195",0,0,0,0,100,100,255,0)
PictureDisplay(5,"ev_slime_hb1",0,0,0,0,100,100,255,0)
222()
241(bytes(0x04,0x08,0x6f,0x3a,0x0d,0x52,0x50,0x47,0x3a,0x3a,0x42,0x47,0x4d,0x08,0x3a,0x0a,0x40,0x6e,0x61,0x6d,0x65,0x49,0x22,0x09,0x65,0x72,0x6f,0x31,0x06,0x3a,0x06,0x45,0x54,0x3a,0x0c,0x40,0x76,0x6f,0x6c,0x75,0x6d,0x65,0x69,0x69,0x3a,0x0b,0x40,0x70,0x69,0x74,0x63,0x68,0x69,0x69))
245(bytes(0x04,0x08,0x6f,0x3a,0x0d,0x52,0x50,0x47,0x3a,0x3a,0x42,0x47,0x53,0x08,0x3a,0x0a,0x40,0x6e,0x61,0x6d,0x65,0x49,0x22,0x17,0x6d,0x6f,0x6e,0x5f,0x68,0x73,0x65,0x61,0x6e,0x31,0x38,0x5f,0x73,0x6c,0x69,0x6d,0x65,0x31,0x06,0x3a,0x06,0x45,0x54,0x3a,0x0c,0x40,0x76,0x6f,0x6c,0x75,0x6d,0x65,0x69,0x55,0x3a,0x0b,0x40,0x70,0x69,0x74,0x63,0x68,0x69,0x69))
ShowMessageFace("slime_fc1",1,0,2,5)
ShowMessage("\\n<Lime>First, I'll wrap you up~♪")
ShowMessageFace("",0,0,2,6)
ShowMessage("\\n<Luka>U-Uwaa!")
ShowMessageFace("",0,0,2,7)
ShowMessage("After undressing me, Lime climbs on top of me.")
ShowMessage("Her slimy body wraps up my entire body, as if I've been swallowed by a Slime.")
ShowMessageFace("",0,0,2,8)
ShowMessage("While a Slime is super elastic, her body is slightly sticky.")
ShowMessage("The squirming feeling of her jelly-like body fills every sense of mine.")
ShowMessageFace("slime_fc1",1,0,2,9)
ShowMessage("\\n<Lime>Ehehe, I wrapped you up.\nAnd your penis is already so big~♪")
ShowMessageFace("",0,0,2,10)
ShowMessage("Delighting in the sensation of her body, my penis is already erect.")
ShowMessage("It trembles in bliss in her blue body, as if drowning in pleasure.")
ShowMessageFace("",0,0,2,11)
ShowMessage("Wrapped up in her Slime body, feeling her soft elastic body...")
ShowMessage("The feeling of being surrounded everywhere feels amazing.")
ShowMessageFace("",0,0,2,12)
ShowMessage("\\n<Luka>Nnngh...")
ShowMessageFace("slime_fc1",1,0,2,13)
ShowMessage("\\n<Lime>Hey, hey... Do you want me to tease your penis?")
ShowMessageFace("",0,0,2,14)
ShowMessage("\\n<Luka>Eh...? Ah... Unnngh...")
ShowMessageFace("",0,0,2,15)
ShowMessage("The slime around my penis starts to press against it harder.")
ShowMessage("My waist trembles at the unexpected pleasure.")
ShowMessageFace("slime_fc1",1,0,2,16)
ShowMessage("\\n<Lime>I'll knead your penis with my slime inside of me.\nEvery inch of it will be massaged...")
ShowMessageFace("slime_fc1",1,0,2,17)
ShowMessage("\\n<Lime>It will feel so good, you'll come right away.\nHey, hey... Want me to do it?")
ShowMessageFace("",0,0,2,18)
ShowMessage("\\n<Luka>......")
ShowMessageFace("",0,0,2,19)
ShowMessage("Just being wrapped in her slime feels so good.")
ShowMessage("If she does that on top of it, I'll come in no time.")
ShowMessageFace("",0,0,2,20)
ShowMessage("\\n<Luka>P-please do it...")
ShowMessageFace("",0,0,2,21)
ShowMessage("I can't hold back my desire for pleasure.")
ShowMessage("Even if I know she'll force me to come fast...")
ShowMessageFace("slime_fc1",1,0,2,22)
ShowMessage("\\n<Lime>Ehehe...Ok, then I'll tease your penis♪\nHere I go...")
ShowMessageFace("",0,0,2,23)
ShowMessage("\\n<Luka>Ah...! Aaah...")
ShowMessageFace("",0,0,2,24)
ShowMessage("The slime around my penis starts to move.")
ShowMessage("It's wriggling around every inch of my cock, from tip to base.")
ShowMessageFace("",0,0,2,25)
ShowMessage("Squeezing my glans, massaging my shaft...")
ShowMessage("Every weak point on me is assaulted at the same time.")
ShowMessageFace("",0,0,2,26)
ShowMessage("\\n<Luka>D-don't...This is too much...")
ShowMessageFace("slime_fc1",1,0,2,27)
ShowMessage("\\n<Lime>Ehehe...Already at your limit?\nLet's watch your white stuff spurt into me♪")
ShowMessageFace("",0,0,2,28)
ShowMessage("I weaken with ecstasy as her slime kneads my penis.")
ShowMessage("Tasting heaven, I feel my body relax in bliss.")
ShowMessageFace("",0,0,2,29)
ShowMessage("\\n<Luka>Ah... Aaah...")
RunCommonEvent(104)
PictureDisplay(5,"ev_slime_hb2",0,0,0,0,100,100,255,0)
RunCommonEvent(105)
ShowMessageFace("",0,0,2,30)
ShowMessage("I can see my penis pulsing inside of Lime.")
ShowMessage("Each time it trembles, cloudy white semen shoots into her body.")
ShowMessageFace("",0,0,2,31)
ShowMessage("Wrapped in slime, and indulging in ecstasy...")
ShowMessage("It's truly like being in heaven.")
ShowMessageFace("",0,0,2,32)
ShowMessage("\\n<Luka>Huaaa...")
ShowMessageFace("slime_fc1",1,0,2,33)
ShowMessage("\\n<Lime>Ehehe, was that nice?\nBut I still have to squeeze more♪")
ShowMessageFace("",0,0,2,34)
ShowMessage("\\n<Luka>Eh, more...?")
ShowMessageFace("",0,0,2,35)
ShowMessage("After my ejaculation finished, her slime starts to move again.")
ShowMessageFace("",0,0,2,36)
ShowMessage("But it's not just my penis being stimulated.")
ShowMessage("Wrapped in her slime, my entire body is touched.")
ShowMessageFace("",0,0,2,37)
ShowMessage("The slime all over me squirms and wriggles.")
ShowMessage("Pure ecstasy, with no escape, all around me.")
ShowMessageFace("",0,0,2,38)
ShowMessage("\\n<Luka>Unnngh... Ah, aaaah...!")
ShowMessageFace("slime_fc1",1,0,2,39)
ShowMessage("\\n<Lime>Ehehe, you look like you're feeling good.\nHmmm~ I wonder if you'll come again soon~?")
ShowMessageFace("",0,0,2,40)
ShowMessage("The stimulation forced into my penis is especially insistent.")
ShowMessage("Her slime body is wriggling and kneading my penis without rest.")
ShowMessageFace("",0,0,2,41)
ShowMessage("Some of it presses and strokes my glans.")
ShowMessage("While other slime swirls and flows around underneath the neck.")
ShowMessageFace("",0,0,2,42)
ShowMessage("\\n<Luka>Nnngh...")
ShowMessageFace("",0,0,2,43)
ShowMessage("I'm completely intoxicated by the feeling of her slime body.")
ShowMessage("Immersing myself in this ecstasy, I submit my body to the pleasure.")
RunCommonEvent(104)
PictureDisplay(5,"ev_slime_hb3",0,0,0,0,100,100,255,0)
RunCommonEvent(105)
ShowMessageFace("",0,0,2,44)
ShowMessage("I shoot even more semen into her body.")
ShowMessage("Every time my penis pulses in her, a numb pleasure fills me.")
ShowMessageFace("",0,0,2,45)
ShowMessage("\\n<Luka>Incredible... That feels so good...")
ShowMessageFace("",0,0,2,46)
ShowMessage("All I have the energy left to do is moan and cry out in pleasure.")
ShowMessage("Enveloping my body in her slime, Lime giggles.")
ShowMessageFace("slime_fc1",1,0,2,47)
ShowMessage("\\n<Lime>Your semen is super tasty♪\nHora, let me have some more♪")
ShowMessageFace("",0,0,2,48)
ShowMessage("\\n<Luka>Nnngh... Aaah...")
ShowMessageFace("",0,0,2,49)
ShowMessage("My body is captive to her slime.")
ShowMessage("Every inch of me is stroked and massaged by Lime.")
ShowMessageFace("",0,0,2,50)
ShowMessage("It's like I'm being melted away in bliss.")
ShowMessage("Immersed in heaven, I'm getting drunk on this pleasure.")
ShowMessageFace("",0,0,2,51)
ShowMessage("Even after coming twice, my penis is still erect inside her.")
ShowMessage("My shaft and tip are being toyed with by her slime as I watch.")
ShowMessageFace("",0,0,2,52)
ShowMessage("\\n<Luka>Aaah...I'm coming...")
ShowMessageFace("slime_fc1",1,0,2,53)
ShowMessage("\\n<Lime>Are you going to leak again?\nGive me more of that delicious semen♪")
ShowMessageFace("",0,0,2,54)
ShowMessage("Pestering me to come again, Lime's slime rubs against my penis.")
ShowMessage("Drunk on the feeling, I give everything over to her.")
RunCommonEvent(104)
PictureDisplay(5,"ev_slime_hb4",0,0,0,0,100,100,255,0)
RunCommonEvent(105)
ShowMessageFace("",0,0,2,55)
ShowMessage("\\n<Luka>Huaaa...")
ShowMessageFace("slime_fc1",1,0,2,56)
ShowMessage("\\n<Lime>Ehehe... So much delicious semen♪\nIt tastes so good♪")
ShowMessageFace("",0,0,2,57)
ShowMessage("Lime continues to squeeze and stroke my body.")
ShowMessage("She seems to be lusting after my semen more and more.")
ShowMessageFace("",0,0,2,58)
ShowMessage("Drowning in slime, and being played with...")
ShowMessage("Tasting the pleasure of being squeezed dry by a Slime...")
ShowMessageFace("",0,0,2,59)
ShowMessage("\\n<Luka>Ah, unnngh...")
ShowMessageFace("slime_fc1",1,0,2,60)
ShowMessage("\\n<Lime>Hora, come more for me♪")
RunCommonEvent(104)
RunCommonEvent(105)
ShowMessageFace("",0,0,2,61)
ShowMessage("\\n<Luka>Ah...ah...")
ShowMessageFace("slime_fc1",1,0,2,62)
ShowMessage("\\n<Lime>Come on, you can come more, can't you? Horahora...♪")
RunCommonEvent(104)
RunCommonEvent(105)
ShowMessageFace("",0,0,2,63)
ShowMessage("\\n<Luka>A...uh...")
ShowMessageFace("slime_fc1",1,0,2,64)
ShowMessage("\\n<Lime>That's not enough yet, I want more~♪")
RunCommonEvent(104)
RunCommonEvent(105)
221()
PictureClear(5)
246(2)
ShowMessageFace("",0,0,2,65)
ShowMessage("\\n<Luka>......")
ShowMessageFace("",0,0,2,66)
ShowMessage("Tasting this heaven of slime, I faint.")
ShowMessage("Even after I wake back up, I'm not sure I'll be able to walk for a while...")
ShowMessageFace("",0,0,2,67)
ShowMessage("......")
242(2)
Wait(120)
241(bytes(0x04,0x08,0x6f,0x3a,0x0d,0x52,0x50,0x47,0x3a,0x3a,0x42,0x47,0x4d,0x08,0x3a,0x0a,0x40,0x6e,0x61,0x6d,0x65,0x49,0x22,0x0c,0x63,0x61,0x73,0x74,0x6c,0x65,0x36,0x06,0x3a,0x06,0x45,0x54,0x3a,0x0c,0x40,0x76,0x6f,0x6c,0x75,0x6d,0x65,0x69,0x69,0x3a,0x0b,0x40,0x70,0x69,0x74,0x63,0x68,0x69,0x69))
0()
