﻿// EVENT 0547
Name "RC:エデン"

If(1,1099,0,1,0)
 ShowMessageFace("",0,0,2,1)
 ShowMessage("四人は休憩しているようだ……")
 ShowMessageFace("iriasu_fc4",0,0,2,2)
 ShowMessage("【イリアス】")
 ShowMessage("練習の合間のお茶は、至福の味ですね。")
 ShowMessage("ルカ、あなたも一服していきませんか？")
 If(1,1098,0,3,0)
  ShowMessageFace("",0,0,2,3)
  ShowMessage("まず、イリアス様にピザを渡そう。")
  EndEventProcessing()
  0()
 EndIf()
 If(1,1098,0,4,0)
  ShowMessageFace("",0,0,2,4)
  ShowMessage("今は先に、一階の食堂に昼ごはんを食べに行こう。")
  EndEventProcessing()
  0()
 EndIf()
 If(1,1098,0,7,0)
  ShowMessageFace("",0,0,2,5)
  ShowMessage("まず、イリアス様にピザを渡そう。")
  EndEventProcessing()
  0()
 EndIf()
 0()
EndIf()
If(1,1099,0,4,0)
 ShowMessageFace("eden_fc1",0,0,2,6)
 ShowMessage("【エデン】")
 ShowMessage("感情を表に出さない特訓のため……")
 ShowMessage("私は現在、ポーカーとやらを学んでいます。")
 ShowMessageFace("eden_fc1",0,0,2,7)
 ShowMessage("【エデン】")
 ShowMessage("さあ、対面に座りなさい。")
 ShowMessage("私と勝負しましょう！")
 If(0,2338,0)
  If(1,1098,0,6,0)
   ShowMessageFace("",0,0,2,8)
   ShowMessage("今は、荷物を運んでいる最中だ。")
   ShowMessage("大聖堂に向かうことを優先しよう。")
   EndEventProcessing()
   0()
  EndIf()
  ShowMessageFace("sonia_fc2",2,0,2,9)
  ShowMessage("【ソニア】")
  ShowMessage("今は、聖堂に荷物を……")
  ShowMessageFace("eden_fc1",0,0,2,10)
  ShowMessage("【エデン】")
  ShowMessage("それは私がやりましょう！")
  ShowMessage("さあ、勝負を！")
  0()
 EndIf()
 0()
EndIf()
DefineLabel("メイン")
If(1,1099,0,1,0)
 355("ex_choice_add(\"一服する（時間経過）\",1,")
 655("\"v[1098] >= 5\",0)")
 0()
EndIf()
If(1,1099,0,4,0)
 355("ex_choice_add(\"ポーカーに付き合う（時間経過）\",1,")
 655("\"v[1098] >= 5\",0)")
 0()
EndIf()
355("ex_choice_add(\"異変について相談する\",2,")
655("\"s[2341]\",0)")
655("ex_choice_add(\"後悔していることについて聞く\",3,")
655("\"s[2342]\",0)")
655("ex_choice_add(\"時を繰り返す道具について聞く\",4,")
655("\"s[2343]\",0)")
655("ex_choice_add(\"ピザを注文したか聞く\",5,")
655("\"s[2345]\",0)")
355("ex_choice_add(\"謎のマキナについて聞く\",6,")
655("\"s[2365]\",0)")
655("ex_choice_add(\"作戦に必要な品について聞く\",7,")
655("\"s[2364]\",0)")
655("ex_choice_add(\"お茶会に誘う\",8,")
655("\"s[2378]\",0)")
655("ex_choice_add(\"立ち去る\",10)")
355("ex_choice_show(0,11,[0,0])")
If(1,9,0,1,0)
 If(1,1099,0,1,0)
  221()
  205(53,bytes(0x04,0x08,0x6f,0x3a,0x13,0x52,0x50,0x47,0x3a,0x3a,0x4d,0x6f,0x76,0x65,0x52,0x6f,0x75,0x74,0x65,0x09,0x3a,0x0c,0x40,0x72,0x65,0x70,0x65,0x61,0x74,0x46,0x3a,0x0f,0x40,0x73,0x6b,0x69,0x70,0x70,0x61,0x62,0x6c,0x65,0x46,0x3a,0x0a,0x40,0x77,0x61,0x69,0x74,0x54,0x3a,0x0a,0x40,0x6c,0x69,0x73,0x74,0x5b,0x07,0x6f,0x3a,0x15,0x52,0x50,0x47,0x3a,0x3a,0x4d,0x6f,0x76,0x65,0x43,0x6f,0x6d,0x6d,0x61,0x6e,0x64,0x07,0x3a,0x0a,0x40,0x63,0x6f,0x64,0x65,0x69,0x15,0x3a,0x10,0x40,0x70,0x61,0x72,0x61,0x6d,0x65,0x74,0x65,0x72,0x73,0x5b,0x00,0x6f,0x3b,0x0a,0x07,0x3b,0x0b,0x69,0x00,0x3b,0x0c,0x5b,0x00))
  TeleportPlayer(0,83,28,49,6,2)
  222()
  ShowMessageFace("iriasu_fc4",0,0,2,11)
  ShowMessage("【イリアス】")
  ShowMessage("この休憩を終えたら、また全員で合わせますよ。")
  ShowMessage("これが、本番まで最後の練習となるでしょう。")
  ShowMessageFace("rucyfinac_fc1",0,0,2,12)
  ShowMessage("【ルシフィナちゃん】")
  ShowMessage("いよいよ本番、たのしみだね～♪")
  ShowMessageFace("micaelac_fc1",3,0,2,13)
  ShowMessage("【ミカエラちゃん】")
  ShowMessage("この一週間の研鑽……")
  ShowMessage("本番の舞台で、惜しみなく披露するわ。")
  ShowMessageFace("eden_fc1",0,0,2,14)
  ShowMessage("【エデン】")
  ShowMessage("皆の背は、この私が守ります。")
  ShowMessage("全力で戦い抜きましょう！")
  ShowMessageFace("",0,0,2,15)
  ShowMessage("四人とも、気合いは十分のようだ。")
  ShowMessage("だが、この時間ループを抜けなければ大会は始まらない……")
  RunCommonEvent(540)
  EndEventProcessing()
  0()
 EndIf()
 If(1,1099,0,4,0)
  221()
  205(86,bytes(0x04,0x08,0x6f,0x3a,0x13,0x52,0x50,0x47,0x3a,0x3a,0x4d,0x6f,0x76,0x65,0x52,0x6f,0x75,0x74,0x65,0x09,0x3a,0x0c,0x40,0x72,0x65,0x70,0x65,0x61,0x74,0x46,0x3a,0x0f,0x40,0x73,0x6b,0x69,0x70,0x70,0x61,0x62,0x6c,0x65,0x46,0x3a,0x0a,0x40,0x77,0x61,0x69,0x74,0x54,0x3a,0x0a,0x40,0x6c,0x69,0x73,0x74,0x5b,0x07,0x6f,0x3a,0x15,0x52,0x50,0x47,0x3a,0x3a,0x4d,0x6f,0x76,0x65,0x43,0x6f,0x6d,0x6d,0x61,0x6e,0x64,0x07,0x3a,0x0a,0x40,0x63,0x6f,0x64,0x65,0x69,0x16,0x3a,0x10,0x40,0x70,0x61,0x72,0x61,0x6d,0x65,0x74,0x65,0x72,0x73,0x5b,0x00,0x6f,0x3b,0x0a,0x07,0x3b,0x0b,0x69,0x00,0x3b,0x0c,0x5b,0x00))
  TeleportPlayer(0,83,20,49,6,2)
  222()
  ShowMessageFace("eden_fc1",2,0,2,16)
  ShowMessage("【エデン】")
  ShowMessage("……………………")
  ShowMessageFace("ruka_fc1",0,0,2,17)
  ShowMessage("【ルカ】")
  ShowMessage("手は良くないみたいだね……")
  ShowMessage("じゃあ、レイズで。")
  ShowMessageFace("eden_fc1",1,0,2,18)
  ShowMessage("【エデン】")
  ShowMessage("くっ、読まれましたか……ドロップです。")
  ShowMessage("3のワンペアでは、戦いにもならないでしょう。")
  ShowMessageFace("ruka_fc1",0,0,2,19)
  ShowMessage("【ルカ】")
  ShowMessage("はい、僕の勝ち。")
  ShowMessage("実はブタだったんだけどね。")
  ShowMessageFace("eden_fc1",2,0,2,20)
  ShowMessage("【エデン】")
  ShowMessage("ひ、卑怯な……！")
  ShowMessage("やはりルシフィナの子！　やり方が汚いです！")
  ShowMessageFace("",0,0,2,21)
  ShowMessage("エデンはとてもポーカーが弱いようだ……")
  ShowMessageFace("eden_fc1",0,0,2,22)
  ShowMessage("【エデン】")
  ShowMessage("とは言え、ギャンブルとは楽しいものですね。")
  ShowMessage("一攫千金のスリルが癖になりそうです。")
  ShowMessageFace("ruka_fc1",0,0,2,23)
  ShowMessage("【ルカ】")
  ShowMessage("弱いんだから、やめておいた方が……")
  ShowMessageFace("",0,0,2,24)
  ShowMessage("ポーカーで遊びながら時間を過ごした……")
  If(0,2338,1)
   RunCommonEvent(5845)
   0()
  EndIf()
  If(0,2338,0)
   RunCommonEvent(5846)
   0()
  EndIf()
  EndEventProcessing()
  0()
 EndIf()
 0()
EndIf()
If(1,9,0,2,0)
 ShowMessageFace("",0,0,2,25)
 ShowMessage("ルカは、異変について相談した……")
 ShowMessageFace("eden_fc1",0,0,2,26)
 ShowMessage("【エデン】")
 ShowMessage("同じ毎日を繰り返している……？")
 ShowMessage("配下の天使が、よくそんな症状を発症しましたね。")
 ShowMessageFace("eden_fc1",0,0,2,27)
 ShowMessage("【エデン】")
 ShowMessage("大丈夫、心が少し疲れているだけです。")
 ShowMessage("私が相談に乗りましょう……")
 ShowMessageFace("",0,0,2,28)
 ShowMessage("エデンは頼れそうにない……")
 JumpToLabel("メイン")
 0()
EndIf()
If(1,9,0,3,0)
 ShowMessageFace("eden_fc1",0,0,2,29)
 ShowMessage("【エデン】")
 ShowMessage("このエデンに、一切の後悔はありません。")
 ShowMessage("ただイリアス様のために、粉骨砕身尽くすのみです。")
 ShowMessageFace("",0,0,2,30)
 ShowMessage("有益な情報は得られなかった……")
 JumpToLabel("メイン")
 0()
EndIf()
If(1,9,0,4,0)
 ShowMessageFace("eden_fc1",1,0,2,31)
 ShowMessage("【エデン】")
 ShowMessage("かなり昔、イリアス様が取り組んでおられたような……")
 ShowMessage("私の口から、これ以上はご勘弁を。")
 ShowMessageFace("",0,0,2,32)
 ShowMessage("有益な情報は得られなかった……")
 JumpToLabel("メイン")
 0()
EndIf()
If(1,9,0,5,0)
 ShowMessageFace("eden_fc1",0,0,2,33)
 ShowMessage("【エデン】")
 ShowMessage("ピザの配達ですか、便利な世の中になりましたね。")
 ShowMessage("ともかく、私に心当たりはありませんよ。")
 ShowMessageFace("",0,0,2,34)
 ShowMessage("ピザを頼んだのはエデンではないようだ……")
 JumpToLabel("メイン")
 0()
EndIf()
If(1,9,0,6,0)
 ShowMessageFace("eden_fc1",0,0,2,35)
 ShowMessage("【エデン】")
 ShowMessage("これはずいぶんメカニックな手鏡ですね……")
 ShowMessage("……えっ、違うのですか？")
 ShowMessageFace("",0,0,2,36)
 ShowMessage("有益な情報は得られなかった……")
 JumpToLabel("メイン")
 0()
EndIf()
If(1,9,0,7,0)
 ShowMessageFace("eden_fc1",0,0,2,37)
 ShowMessage("【エデン】")
 ShowMessage("ご覧の通り、この身ひとつの姿……")
 ShowMessage("アイテムの持ち合わせはありませんね。")
 ShowMessageFace("",0,0,2,38)
 ShowMessage("有益なアイテムは得られなかった……")
 JumpToLabel("メイン")
 0()
EndIf()
If(1,9,0,8,0)
 If(1,1113,0,1,5)
  If(1,1114,0,1,5)
   ShowMessageFace("eden_fc1",0,0,2,39)
   ShowMessage("【エデン】")
   ShowMessage("……黒のアリスのお茶会ですか？")
   ShowMessage("これが挑戦というなら、受けて立ちましょう。")
   If(1,1116,0,2,0)
    ChangeVariable(1116,1116,0,0,3)
    ChangeVariable(1115,1115,0,0,1)
    ChangeSwitch(2378,2378,1)
    0()
   EndIf()
   If(1,1116,0,1,0)
    ChangeVariable(1116,1116,0,0,2)
    ChangeVariable(1114,1114,0,0,1)
    0()
   EndIf()
   If(1,1116,0,0,0)
    ChangeVariable(1116,1116,0,0,1)
    ChangeVariable(1113,1113,0,0,1)
    0()
   EndIf()
   249(bytes(0x04,0x08,0x6f,0x3a,0x0c,0x52,0x50,0x47,0x3a,0x3a,0x4d,0x45,0x08,0x3a,0x0a,0x40,0x6e,0x61,0x6d,0x65,0x49,0x22,0x10,0x6d,0x6f,0x6e,0x5f,0x66,0x61,0x6e,0x66,0x61,0x6c,0x65,0x06,0x3a,0x06,0x45,0x54,0x3a,0x0b,0x40,0x70,0x69,0x74,0x63,0x68,0x69,0x69,0x3a,0x0c,0x40,0x76,0x6f,0x6c,0x75,0x6d,0x65,0x69,0x69))
   ShowMessageFace("",0,0,2,40)
   ShowMessage("エデンはお茶会の誘いに乗った！")
   JumpToLabel("メイン")
   0()
  EndIf()
  0()
 EndIf()
 ShowMessageFace("",0,0,2,41)
 ShowMessage("すでにお茶会に招待している……")
 If(1,1116,0,1,0)
  ShowMessageFace("",0,0,2,42)
  ShowMessage("黒のアリスのお茶会に招待したのは、これで一人。")
  ShowMessage("あと二人、参加者を集めよう！")
  0()
 EndIf()
 If(1,1116,0,2,0)
  ShowMessageFace("",0,0,2,43)
  ShowMessage("黒のアリスのお茶会に招待したのは、これで二人。")
  ShowMessage("あと一人、参加者を集めよう！")
  0()
 EndIf()
 If(1,1116,0,3,0)
  ShowMessageFace("",0,0,2,44)
  ShowMessage("黒のアリスのお茶会に招待したのは、これで三人。")
  ShowMessage("四時になったら、黒のアリスの部屋に行こう！")
  0()
 EndIf()
 JumpToLabel("メイン")
 0()
EndIf()
EndEventProcessing()
0()
