// EVENT 4666
Name "Antlion Girl 1"

If(0,25,1)
 221()
 PictureClear(5)
 PictureClear(6)
 ShowMessageFace("",0,0,2,0)
 ShowMessage("......")
 242(2)
 Wait(120)
 241(bytes(0x04,0x08,0x6f,0x3a,0x0d,0x52,0x50,0x47,0x3a,0x3a,0x42,0x47,0x4d,0x08,0x3a,0x0a,0x40,0x6e,0x61,0x6d,0x65,0x49,0x22,0x0c,0x63,0x61,0x73,0x74,0x6c,0x65,0x36,0x06,0x3a,0x06,0x45,0x54,0x3a,0x0c,0x40,0x76,0x6f,0x6c,0x75,0x6d,0x65,0x69,0x69,0x3a,0x0b,0x40,0x70,0x69,0x74,0x63,0x68,0x69,0x69))
 EndEventProcessing()
 0()
EndIf()
PictureDisplay(5,"80_arizigoku_st01",0,0,0,0,100,100,255,0)
ShowMessageFace("arizigoku_fc1",0,0,2,1)
ShowMessage("\\n<Helen>Fufufu...You want me to suck on you?")
ShowMessageFace("",0,0,2,2)
ShowMessage("\\n<Luka>P-please...")
PictureDisplay(5,"80_arizigoku_st02",0,0,0,0,100,100,255,0)
ShowMessageFace("arizigoku_fc1",1,0,2,3)
ShowMessage("\\n<Helen>What a miserable man you are, wanting to be preyed on by me.\nNow, come to me...")
ShowMessageFace("",0,0,2,4)
ShowMessage("The sand beneath me starts moving and my body is drawn in.")
ShowMessage("Helen is waiting patiently at the bottom...")
ShowMessageFace("",0,0,2,5)
ShowMessage("\\n<Luka>W-Wait a moment...!\nI don't want to die...")
ShowMessageFace("arizigoku_fc1",1,0,2,6)
ShowMessage("\\n<Helen>You wanted this.\nIf you want to be sucked dry, you must not want to live anymore...")
ShowMessageFace("",0,0,2,7)
ShowMessage("\\n<Luka>St-stop...Uwaaa!!")
ShowMessageFace("",0,0,2,8)
ShowMessage("Whenever I struggle I'm just drawn in deeper.")
ShowMessage("Helpless, I'm drawn to Helen.")
ShowMessageFace("arizigoku_fc1",1,0,2,9)
ShowMessage("\\n<Helen>Now, I'm going to absorb all your bodily fluids.\nFrom your penis, I'll suck out a lot...")
ShowMessageFace("",0,0,2,10)
ShowMessage("\\n<Luka>S-St... Aaaah!!")
PictureDisplay(5,"ev_arizigoku_h1",0,0,0,0,100,100,0,0)
PictureMove(5,null,0,0,0,0,100,100,255,0,30,true)
241(bytes(0x04,0x08,0x6f,0x3a,0x0d,0x52,0x50,0x47,0x3a,0x3a,0x42,0x47,0x4d,0x08,0x3a,0x0a,0x40,0x6e,0x61,0x6d,0x65,0x49,0x22,0x09,0x65,0x72,0x6f,0x31,0x06,0x3a,0x06,0x45,0x54,0x3a,0x0c,0x40,0x76,0x6f,0x6c,0x75,0x6d,0x65,0x69,0x69,0x3a,0x0b,0x40,0x70,0x69,0x74,0x63,0x68,0x69,0x69))
245(bytes(0x04,0x08,0x6f,0x3a,0x0d,0x52,0x50,0x47,0x3a,0x3a,0x42,0x47,0x53,0x08,0x3a,0x0a,0x40,0x6e,0x61,0x6d,0x65,0x49,0x22,0x1e,0x6d,0x6f,0x6e,0x5f,0x68,0x73,0x65,0x61,0x6e,0x31,0x30,0x5f,0x69,0x6e,0x6e,0x65,0x72,0x77,0x6f,0x72,0x6b,0x73,0x5f,0x62,0x32,0x06,0x3a,0x06,0x45,0x54,0x3a,0x0c,0x40,0x76,0x6f,0x6c,0x75,0x6d,0x65,0x69,0x55,0x3a,0x0b,0x40,0x70,0x69,0x74,0x63,0x68,0x69,0x69))
ShowMessageFace("",0,0,2,11)
ShowMessage("Helen's scissors firmly grab my waist!")
ShowMessage("At the same time, my penis is inserted into her squeezing hole!")
ShowMessageFace("",0,0,2,12)
ShowMessage("\\n<Luka>Ah, aaaaaah!!")
ShowMessageFace("",0,0,2,13)
ShowMessage("Helen's squeezing hole is tight and squeezes me.")
ShowMessageFace("",0,0,2,14)
ShowMessage("On top of that, her inner walls are ribbed and soft folds rub against my glans.")
ShowMessage("The pleasure is enough to make my waist tremble.")
ShowMessageFace("arizigoku_fc1",1,0,2,15)
ShowMessage("\\n<Helen>This hole is specifically designed to make men ejaculate...\nOnce that happens, there's no escape for you anymore.")
ShowMessageFace("arizigoku_fc1",1,0,2,16)
ShowMessage("\\n<Helen>I'll make you come until you're all dried up...\nThat's the fate of all miserable prey like you.")
ShowMessageFace("",0,0,2,17)
ShowMessage("\\n<Luka>N-no...\nAh, aaaah...!!")
ShowMessageFace("",0,0,2,18)
ShowMessage("The inside of her squeezing hole skillfully stimulates the neck of my penis.")
ShowMessage("A moan escapes my mouth as her walls stimulate me.")
ShowMessageFace("",0,0,2,19)
ShowMessage("At the same time, my waist starts trembling.")
ShowMessage("The feeling of release takes over me all of a sudden...")
RunCommonEvent(104)
PictureDisplay(5,"ev_arizigoku_h2",0,0,0,0,100,100,255,0)
RunCommonEvent(105)
ShowMessageFace("",0,0,2,20)
ShowMessage("And in no time at all, I come.")
ShowMessage("The moment I was inserted in her squeezing hole, I couldn't even endure for a minute...")
ShowMessageFace("arizigoku_fc1",1,0,2,21)
ShowMessage("\\n<Helen>Fufu, I squeezed out your male fluids.\nI wonder, how does it feel to be sucked like this...?")
ShowMessageFace("",0,0,2,22)
ShowMessage("\\n<Luka>Aaaaah...")
ShowMessageFace("",0,0,2,23)
ShowMessage("My semen slowly pours out into Helen.")
ShowMessage("With her scissors firmly around my waist, I can't pull out of her.")
ShowMessageFace("arizigoku_fc1",1,0,2,24)
ShowMessage("\\n<Helen>More, more... Until you're completely dry, I won't stop...")
ShowMessageFace("",0,0,2,25)
ShowMessage("Helen smiles as she starts to slowly move.")
ShowMessageFace("",0,0,2,26)
ShowMessage("Her strange vagina narrows around me as she slowly starts to pump me.")
ShowMessageFace("",0,0,2,27)
ShowMessage("The strange angle I'm penetrating her at forces my tip to rub all along the fleshy walls of her vagina.")
ShowMessageFace("",0,0,2,28)
ShowMessage("\\n<Luka>Nnngh...That feels good...")
ShowMessageFace("arizigoku_fc1",1,0,2,29)
ShowMessage("\\n<Helen>Come as much as you like...\nMy lower mouth will gladly suck it all up.")
ShowMessageFace("",0,0,2,30)
ShowMessage("\\n<Luka>Aaah...")
ShowMessageFace("",0,0,2,31)
ShowMessage("Forced in and out of her, the strange angle slightly bends my penis as I'm forced all the way inside.")
ShowMessageFace("",0,0,2,32)
ShowMessage("Stuck in her tight hole, I feel myself bordering on another orgasm.")
ShowMessageFace("",0,0,2,33)
ShowMessage("\\n<Luka>Auu... I'm going to come...")
ShowMessageFace("arizigoku_fc1",1,0,2,34)
ShowMessage("\\n<Helen>Good... I'll eat it all.\nLet out a lot...")
ShowMessageFace("",0,0,2,35)
ShowMessage("Her hole closes around me as she uses her scissors to force my waist all the way into her.")
ShowMessageFace("",0,0,2,36)
ShowMessage("\\n<Luka>Aaaaaah!!")
RunCommonEvent(104)
RunCommonEvent(105)
ShowMessageFace("",0,0,2,37)
ShowMessage("My glans is thoroughly stimulated inside her squeezing hole and I come to a pathetic finish.")
ShowMessageFace("",0,0,2,38)
ShowMessage("I explode in her as she continues to use her scissors to force me to pump her.")
ShowMessageFace("",0,0,2,39)
ShowMessage("\\n<Luka>Unnngh...")
ShowMessageFace("arizigoku_fc1",1,0,2,40)
ShowMessage("\\n<Helen>There's no time to rest.\nI won't allow you to stop until there's nothing left.")
ShowMessageFace("",0,0,2,41)
ShowMessage("\\n<Luka>Ah, aaaah...!!")
ShowMessageFace("",0,0,2,42)
ShowMessage("She squeezes me tighter than before, causing a slight pain as I'm still sensitive after my ejaculation.")
ShowMessage("Tighter and tighter... It feels like she's crushing me inside of her.")
ShowMessageFace("",0,0,2,43)
ShowMessage("Just as I can't take it any longer, she stops.")
ShowMessage("Like that, she starts forcing me to move my waist again.")
ShowMessageFace("",0,0,2,44)
ShowMessage("Even though I just came, the overwhelming stimulation is already bringing me to another height.")
ShowMessageFace("",0,0,2,45)
ShowMessage("\\n<Luka>No... I'm going to come again...")
ShowMessageFace("arizigoku_fc1",1,0,2,46)
ShowMessage("\\n<Helen>That's to be expected...\nMy lower hole is designed to force men to come quickly, after all.")
ShowMessageFace("arizigoku_fc1",1,0,2,47)
ShowMessage("\\n<Helen>Once I forced you into me, your end was decided.")
ShowMessageFace("",0,0,2,48)
ShowMessage("\\n<Luka>No way... Ahhh!")
RunCommonEvent(104)
PictureDisplay(5,"ev_arizigoku_h3",0,0,0,0,100,100,255,0)
RunCommonEvent(105)
ShowMessageFace("",0,0,2,49)
ShowMessage("Surprisingly quick after my last orgasm, she forces me to another.")
ShowMessage("But this hell isn't even close to being over...")
ShowMessageFace("",0,0,2,50)
ShowMessage("Until nothing is left, she's going to continue raping me...")
ShowMessage("No, this isn't rape... This is predation.")
ShowMessageFace("",0,0,2,51)
ShowMessage("Caught by Helen, she's eating my semen at the cost of my life.")
ShowMessageFace("arizigoku_fc1",1,0,2,52)
ShowMessage("\\n<Helen>Horahorahora...\nYou still have more in you, don't you?")
ShowMessageFace("arizigoku_fc1",1,0,2,53)
ShowMessage("\\n<Helen>Give it all to my lower mouth...")
ShowMessageFace("",0,0,2,54)
ShowMessage("\\n<Luka>Ah, aaaah...!!")
ShowMessageFace("",0,0,2,55)
ShowMessage("Squeezed with no escape, I feel myself about to shoot more of the food she's killing me for into her...")
ShowMessageFace("",0,0,2,56)
ShowMessage("\\n<Luka>No more... I'm coming!")
RunCommonEvent(104)
RunCommonEvent(105)
ShowMessageFace("",0,0,2,57)
ShowMessage("My semen is squeezed out once more.")
ShowMessageFace("",0,0,2,58)
ShowMessage("Unable to hold on, I shoot more semen into her greedily squeezing hole.")
ShowMessageFace("",0,0,2,59)
ShowMessage("Stuck in this endless hell with no escape, all I can do is writhe and plead.")
ShowMessageFace("",0,0,2,60)
ShowMessage("\\n<Luka>Aieee! Stop! Any more and I'll die...")
ShowMessageFace("arizigoku_fc1",1,0,2,61)
ShowMessage("\\n<Helen>Hora... I caught you fair and square,\nnow you have to feed me...")
ShowMessageFace("",0,0,2,62)
ShowMessage("\\n<Luka>No! Help me... Ahh!!")
RunCommonEvent(104)
RunCommonEvent(105)
ShowMessageFace("",0,0,2,63)
ShowMessage("No matter how much I beg, she doesn't release me.")
ShowMessageFace("",0,0,2,64)
ShowMessage("Forcing me to pump her like a piston with her scissors around my waist, I can't even control my own movements.")
ShowMessageFace("",0,0,2,65)
ShowMessage("I cry out in misery as I feel another orgasm forced into me.")
ShowMessageFace("",0,0,2,66)
ShowMessage("\\n<Luka>Help me... No more... Ahhh!")
RunCommonEvent(104)
PictureDisplay(5,"ev_arizigoku_h4",0,0,0,0,100,100,255,0)
RunCommonEvent(105)
ShowMessageFace("",0,0,2,67)
ShowMessage("The last of my resistance shatters as she forces me to move even faster after my last orgasm.")
ShowMessageFace("",0,0,2,68)
ShowMessage("Out of breath and gasping, I can't even see straight anymore.")
ShowMessageFace("arizigoku_fc1",1,0,2,69)
ShowMessage("\\n<Helen>Hehe... You can put out quite a lot.\nAre you about to faint?")
ShowMessageFace("",0,0,2,70)
ShowMessage("\\n<Luka>Ah, aaah...")
ShowMessageFace("",0,0,2,71)
ShowMessage("The exhaustion starts to spread through my body as I lose all of my power.")
RunCommonEvent(104)
RunCommonEvent(105)
ShowMessageFace("",0,0,2,72)
ShowMessage("Now with absolutely nothing resisting her, she's able to force my waist to pump her even faster than before.")
ShowMessageFace("",0,0,2,73)
ShowMessage("\\n<Luka>Ah, unnngh...")
ShowMessageFace("arizigoku_fc1",1,0,2,74)
ShowMessage("\\n<Helen>Your eyes are hollow, and your body is twitching...\nIt seems the time of your death is approaching.")
ShowMessageFace("arizigoku_fc1",1,0,2,75)
ShowMessage("\\n<Helen>Allow me to make your final moments...comfortable.")
ShowMessageFace("",0,0,2,76)
ShowMessage("\\n<Luka>Aaah...")
RunCommonEvent(104)
RunCommonEvent(105)
ShowMessageFace("",0,0,2,77)
ShowMessage("As if my existence itself has been swallowed, I can't move even a finger.")
ShowMessage("A cold feeling spreads through my body.")
ShowMessageFace("",0,0,2,78)
ShowMessage("Raped without mercy, my mind and body are in complete disarray.")
ShowMessageFace("",0,0,2,79)
ShowMessage("\\n<Luka>Ahh...")
RunCommonEvent(104)
RunCommonEvent(105)
ShowMessageFace("",0,0,2,80)
ShowMessage("Feeling a final orgasm, I finally lose consciousness.")
ShowMessageFace("arizigoku_fc1",1,0,2,81)
ShowMessage("\\n<Helen>This will be the last one... I hope you enjoy your last moments.")
ShowMessageFace("",0,0,2,82)
ShowMessage("\\n<Luka>Aaaa...")
RunCommonEvent(104)
RunCommonEvent(105)
221()
PictureClear(5)
246(2)
ShowMessageFace("",0,0,2,83)
ShowMessage("With everything sucked from me, I become nothing but a dried up corpse in the desert.")
ShowMessageFace("",0,0,2,84)
ShowMessage("Another traveler in the desert meets his end at the hands of Helen.")
ShowMessageFace("",0,0,2,85)
ShowMessage("......")
242(2)
Wait(120)
ChangeVariable(1002,1002,0,0,0)
216(1)
355("forced_transfer(154,18,52)")
355("release_temp_actors")
355("$game_map.screen.clear")
0()
