﻿// EVENT 0554
Name "RC:かむろ"

If(1,1099,0,2,0)
 ShowMessageFace("kamuro_fc1",1,0,2,1)
 ShowMessage("【かむろ】")
 ShowMessage("五目ご飯がおいしいです……♪")
 ShowMessage("きつね先輩は、いつもオムライスですね。")
 ShowMessageFace("youko_fc1",0,0,2,2)
 ShowMessage("【きつね】")
 ShowMessage("この食堂のオムライス、大好きなの♪")
 ShowMessage("あっルカ、一緒に食べていかない？")
 0()
EndIf()
If(1,1099,0,3,0)
 ShowMessageFace("kamuro_fc1",0,0,2,3)
 ShowMessage("【かむろ】")
 ShowMessage("七尾様に、術を教わっています。")
 ShowMessage("いつもは教室で行うのですが、今日は廊下で……")
 ShowMessageFace("nanabi_fc1",0,0,2,4)
 ShowMessage("【七尾】")
 ShowMessage("せっかくですし、あなたもどうですか？")
 ShowMessage("勉強になるかもしれませんよ……")
 0()
EndIf()
DefineLabel("メイン")
If(1,1099,0,2,0)
 355("ex_choice_add(\"一緒に食事する（時間経過）\",1,")
 655("\"v[1098] >= 5\",0)")
 0()
EndIf()
If(1,1099,0,3,0)
 355("ex_choice_add(\"術を学ぶ（時間経過）\",1,")
 655("\"v[1098] >= 5\",0)")
 0()
EndIf()
355("ex_choice_add(\"異変について相談する\",2,")
655("\"s[2341]\",0)")
655("ex_choice_add(\"後悔していることについて聞く\",3,")
655("\"s[2342]\",0)")
655("ex_choice_add(\"時を繰り返す道具について聞く\",4,")
655("\"s[2343]\",0)")
655("ex_choice_add(\"ピザを注文したか聞く\",5,")
655("\"s[2345]\",0)")
355("ex_choice_add(\"謎のマキナについて聞く\",6,")
655("\"s[2365]\",0)")
655("ex_choice_add(\"作戦に必要な品について聞く\",7,")
655("\"s[2364]\",0)")
655("ex_choice_add(\"お茶会に誘う\",8,")
655("\"s[2378]\",0)")
655("ex_choice_add(\"立ち去る\",10)")
355("ex_choice_show(0,11,[0,0])")
If(1,9,0,1,0)
 If(1,1099,0,2,0)
  221()
  205(33,bytes(0x04,0x08,0x6f,0x3a,0x13,0x52,0x50,0x47,0x3a,0x3a,0x4d,0x6f,0x76,0x65,0x52,0x6f,0x75,0x74,0x65,0x09,0x3a,0x0c,0x40,0x72,0x65,0x70,0x65,0x61,0x74,0x46,0x3a,0x0f,0x40,0x73,0x6b,0x69,0x70,0x70,0x61,0x62,0x6c,0x65,0x46,0x3a,0x0a,0x40,0x77,0x61,0x69,0x74,0x54,0x3a,0x0a,0x40,0x6c,0x69,0x73,0x74,0x5b,0x07,0x6f,0x3a,0x15,0x52,0x50,0x47,0x3a,0x3a,0x4d,0x6f,0x76,0x65,0x43,0x6f,0x6d,0x6d,0x61,0x6e,0x64,0x07,0x3a,0x0a,0x40,0x63,0x6f,0x64,0x65,0x69,0x17,0x3a,0x10,0x40,0x70,0x61,0x72,0x61,0x6d,0x65,0x74,0x65,0x72,0x73,0x5b,0x00,0x6f,0x3b,0x0a,0x07,0x3b,0x0b,0x69,0x00,0x3b,0x0c,0x5b,0x00))
  TeleportPlayer(0,78,41,10,4,2)
  222()
  ShowMessageFace("kamuro_fc1",1,0,2,5)
  ShowMessage("【かむろ】")
  ShowMessage("食堂の五目ごはんは、おあげが多め。")
  ShowMessage("とっても嬉しいです……♪")
  ShowMessageFace("youko_fc1",0,0,2,6)
  ShowMessage("【きつね】")
  ShowMessage("あたしのお味噌汁も、おあげ多めだよ！")
  ShowMessageFace("kamuro_fc1",2,0,2,7)
  ShowMessage("【かむろ】")
  ShowMessage("うぇっ、オムライスにお味噌汁……！？")
  ShowMessage("きつね先輩、そういうの全然気にしませんね……")
  ShowMessageFace("youko_fc1",0,0,2,8)
  ShowMessage("【きつね】")
  ShowMessage("かむろちゃん、そういうのやたら気にするよね……")
  ShowMessageFace("",0,0,2,9)
  ShowMessage("かむろ達と一緒に食事をした……")
  RunCommonEvent(540)
  EndEventProcessing()
  0()
 EndIf()
 If(1,1099,0,3,0)
  221()
  205(56,bytes(0x04,0x08,0x6f,0x3a,0x13,0x52,0x50,0x47,0x3a,0x3a,0x4d,0x6f,0x76,0x65,0x52,0x6f,0x75,0x74,0x65,0x09,0x3a,0x0c,0x40,0x72,0x65,0x70,0x65,0x61,0x74,0x46,0x3a,0x0f,0x40,0x73,0x6b,0x69,0x70,0x70,0x61,0x62,0x6c,0x65,0x46,0x3a,0x0a,0x40,0x77,0x61,0x69,0x74,0x54,0x3a,0x0a,0x40,0x6c,0x69,0x73,0x74,0x5b,0x07,0x6f,0x3a,0x15,0x52,0x50,0x47,0x3a,0x3a,0x4d,0x6f,0x76,0x65,0x43,0x6f,0x6d,0x6d,0x61,0x6e,0x64,0x07,0x3a,0x0a,0x40,0x63,0x6f,0x64,0x65,0x69,0x16,0x3a,0x10,0x40,0x70,0x61,0x72,0x61,0x6d,0x65,0x74,0x65,0x72,0x73,0x5b,0x00,0x6f,0x3b,0x0a,0x07,0x3b,0x0b,0x69,0x00,0x3b,0x0c,0x5b,0x00))
  TeleportPlayer(0,78,32,24,8,2)
  222()
  ShowMessageFace("kamuro_fc1",0,0,2,10)
  ShowMessage("【かむろ】")
  ShowMessage("七尾様、きつね教典18巻まで暗記しました。")
  ShowMessage("詠唱は395編まで大丈夫です。")
  ShowMessageFace("nanabi_fc1",0,0,2,11)
  ShowMessage("【七尾】")
  ShowMessage("よく出来ましたね。")
  ShowMessage("かむろの字は綺麗なので、呪符の魔力も高いです。")
  ShowMessageFace("kamuro_fc1",0,0,2,12)
  ShowMessage("【かむろ】")
  ShowMessage("でも、実際に術を使うと失敗が多いんですよね……")
  ShowMessage("練習では上手くいくのに、本番はとても苦手で。")
  ShowMessageFace("youko_fc1",0,0,2,13)
  ShowMessage("【きつね】")
  ShowMessage("あたしは、かむろちゃんと逆だな。")
  ShowMessage("練習は失敗するけど、本番はだいたい外さないよ！")
  ShowMessageFace("kamuro_fc1",2,0,2,14)
  ShowMessage("【かむろ】")
  ShowMessage("なんですか、それ……うらやましい……")
  ShowMessageFace("",0,0,2,15)
  ShowMessage("かむろ達と術の勉強をして過ごした……")
  RunCommonEvent(540)
  EndEventProcessing()
  0()
 EndIf()
 0()
EndIf()
If(1,9,0,2,0)
 ShowMessageFace("",0,0,2,16)
 ShowMessage("ルカは、異変について相談した……")
 ShowMessageFace("kamuro_fc1",2,0,2,17)
 ShowMessage("【かむろ】")
 ShowMessage("えっ、そんなこと……")
 ShowMessage("私に相談されても……")
 ShowMessageFace("",0,0,2,18)
 ShowMessage("かむろは頼れそうにない……")
 JumpToLabel("メイン")
 0()
EndIf()
If(1,9,0,3,0)
 ShowMessageFace("kamuro_fc1",0,0,2,19)
 ShowMessage("【かむろ】")
 ShowMessage("ちまちました事で悩んだりしますけど……")
 ShowMessage("時間をねじ曲げるほどの後悔はないですね。")
 ShowMessageFace("",0,0,2,20)
 ShowMessage("有益な情報は得られなかった……")
 JumpToLabel("メイン")
 0()
EndIf()
If(1,9,0,4,0)
 ShowMessageFace("kamuro_fc1",0,0,2,21)
 ShowMessage("【かむろ】")
 ShowMessage("私は聞いたことがありません……")
 ShowMessage("たまも様なら詳しいでしょうが、ここにはおられませんね。")
 ShowMessageFace("",0,0,2,22)
 ShowMessage("有益な情報は得られなかった……")
 JumpToLabel("メイン")
 0()
EndIf()
If(1,9,0,5,0)
 ShowMessageFace("kamuro_fc1",0,0,2,23)
 ShowMessage("【かむろ】")
 ShowMessage("え……？　私ではありませんよ。")
 ShowMessageFace("",0,0,2,24)
 ShowMessage("ピザを頼んだのはかむろではないようだ……")
 JumpToLabel("メイン")
 0()
EndIf()
If(1,9,0,6,0)
 ShowMessageFace("kamuro_fc1",0,0,2,25)
 ShowMessage("【かむろ】")
 ShowMessage("分かりません……")
 ShowMessage("申し訳ないですが、機械は詳しくないので。")
 ShowMessageFace("",0,0,2,26)
 ShowMessage("有益な情報は得られなかった……")
 JumpToLabel("メイン")
 0()
EndIf()
If(1,9,0,7,0)
 ShowMessageFace("kamuro_fc1",0,0,2,27)
 ShowMessage("【かむろ】")
 ShowMessage("私の作った呪符程度では、どうにもならないかと……")
 ShowMessage("お力になれず、すみません。")
 ShowMessageFace("",0,0,2,28)
 ShowMessage("有益なアイテムは得られなかった……")
 JumpToLabel("メイン")
 0()
EndIf()
If(1,9,0,8,0)
 ShowMessageFace("kamuro_fc1",2,0,2,29)
 ShowMessage("【かむろ】")
 ShowMessage("わ、私が……！？")
 ShowMessage("怖いです！　ご遠慮させて頂きます！！")
 ShowMessageFace("",0,0,2,30)
 ShowMessage("かむろはお茶会の誘いを断った……")
 JumpToLabel("メイン")
 0()
EndIf()
EndEventProcessing()
0()
