// EVENT 2033
Name "Seduction: Roper Girl"

If(0,25,1)
 EndEventProcessing()
 0()
EndIf()
355("$game_troop.lose_event_id = 3033")
ChangeVariable(26,26,0,3,3,1,4)
ChangeVariable(26,26,4,0,10)
ShowMessageFace("ropa_fc1",0,0,2,1)
ShowMessage("\\n<Roper Girl>I'm losing...\nI don't want this...")
ShowMessageFace("ropa_fc1",0,0,2,2)
ShowMessage("\\n<Roper Girl>Hey, let me go...\nI'll give you pleasure with my tentacles.")
ShowMessageFace("",0,0,2,3)
ShowMessage("The Roper Girl's tentacles stretch toward Luka's penis!")
ChangeSwitch(98,98,0)
ChangeSwitch(96,96,0)
ShowChoices(strings("Ignore her","Give in to temptation"),1)
IfPlayerPicksChoice(0,"Ignore her")
 ShowMessageFace("",0,0,2,4)
 ShowMessage("Luka resists her temptation!")
 RunCommonEvent(1999)
 EndEventProcessing()
 0()
IfPlayerPicksChoice(1,"誘惑に乗る")
 0()
404()
ShowMessageFace("ropa_fc1",0,0,2,5)
ShowMessage("\\n<Roper Girl>Good, like that...\nI'll stimulate you like this...")
250(bytes(0x04,0x08,0x6f,0x3a,0x0c,0x52,0x50,0x47,0x3a,0x3a,0x53,0x45,0x08,0x3a,0x0a,0x40,0x6e,0x61,0x6d,0x65,0x49,0x22,0x16,0x6d,0x6f,0x6e,0x5f,0x65,0x72,0x6f,0x5f,0x6d,0x61,0x6b,0x69,0x74,0x75,0x6b,0x69,0x31,0x06,0x3a,0x06,0x45,0x54,0x3a,0x0b,0x40,0x70,0x69,0x74,0x63,0x68,0x69,0x69,0x3a,0x0c,0x40,0x76,0x6f,0x6c,0x75,0x6d,0x65,0x69,0x69))
311(0,1,1,1,26,true)
ShowMessageFace("",0,0,2,6)
ShowMessage("The tentacle wraps around Luka's penis!")
ShowMessage("His penis is surrounded by the slimy texture!\\D")
ShowMessage("Luka takes \\V[26] damage!")
ChangeVariable(27,27,0,3,3,1,2)
If(1,27,0,0,0)
 JumpToLabel("射精1")
 0()
EndIf()
ShowMessageFace("ropa_fc1",0,0,2,7)
ShowMessage("\\n<Roper Girl>Hora, I won't hurt you...\nI'll make you feel good.")
250(bytes(0x04,0x08,0x6f,0x3a,0x0c,0x52,0x50,0x47,0x3a,0x3a,0x53,0x45,0x08,0x3a,0x0a,0x40,0x6e,0x61,0x6d,0x65,0x49,0x22,0x12,0x6d,0x6f,0x6e,0x5f,0x65,0x72,0x6f,0x5f,0x6b,0x6f,0x6b,0x69,0x31,0x06,0x3a,0x06,0x45,0x54,0x3a,0x0b,0x40,0x70,0x69,0x74,0x63,0x68,0x69,0x69,0x3a,0x0c,0x40,0x76,0x6f,0x6c,0x75,0x6d,0x65,0x69,0x69))
311(0,1,1,1,26,true)
ShowMessageFace("",0,0,2,8)
ShowMessage("The Roper Girl strokes Luka's penis with her tentacle!")
ShowMessage("Her slimy tentacle rubs the tip of his penis!\\D")
ShowMessage("Luka takes \\V[26] damage!")
ChangeVariable(27,27,0,3,3,1,2)
If(1,27,0,0,0)
 JumpToLabel("射精1")
 0()
EndIf()
ShowMessageFace("",0,0,2,9)
ShowMessage("\\n<Luka>Ah, aaah...")
ShowMessageFace("",0,0,2,10)
ShowMessage("Her tentacle feels so good...")
ShowMessage("But should I let this continue...?")
ShowChoices(strings("Resist Temptation","Continue"),1)
IfPlayerPicksChoice(0,"誘惑を振り払う")
 ShowMessageFace("",0,0,2,11)
 ShowMessage("Luka resists her temptation!")
 RunCommonEvent(1999)
 EndEventProcessing()
 0()
IfPlayerPicksChoice(1,"触手の快楽を味わう")
 ShowMessageFace("",0,0,2,12)
 ShowMessage("Luka surrenders to the pleasure...")
 0()
404()
ShowMessageFace("ropa_fc1",1,0,2,13)
ShowMessage("\\n<Roper Girl>Fufu, your guard's down.")
ChangeVariable(26,26,3,0,2)
250(bytes(0x04,0x08,0x6f,0x3a,0x0c,0x52,0x50,0x47,0x3a,0x3a,0x53,0x45,0x08,0x3a,0x0a,0x40,0x6e,0x61,0x6d,0x65,0x49,0x22,0x16,0x6d,0x6f,0x6e,0x5f,0x65,0x72,0x6f,0x5f,0x6d,0x61,0x6b,0x69,0x74,0x75,0x6b,0x69,0x33,0x06,0x3a,0x06,0x45,0x54,0x3a,0x0b,0x40,0x70,0x69,0x74,0x63,0x68,0x69,0x69,0x3a,0x0c,0x40,0x76,0x6f,0x6c,0x75,0x6d,0x65,0x69,0x69))
355("battler_graphic_hide")
PictureDisplay(5,"ev_ropa_h1",0,0,0,0,100,100,255,0)
311(0,1,1,1,26,true)
ShowMessageFace("",0,0,2,14)
ShowMessage("Tentacles surround Luka's body!")
ShowMessage("He's quickly bound!\\D")
ShowMessage("Luka takes \\V[26] damage!")
ChangeVariable(27,27,0,3,3,1,2)
If(1,27,0,0,0)
 JumpToLabel("射精1")
 0()
EndIf()
ShowMessageFace("",0,0,2,15)
ShowMessage("\\n<Luka>Ah... C...Crap...!")
ShowMessageFace("ropa_fc1",1,0,2,16)
ShowMessage("\\n<Roper Girl>What clueless prey...\nJust toy with your penis a little bit, and you lose concentration.")
250(bytes(0x04,0x08,0x6f,0x3a,0x0c,0x52,0x50,0x47,0x3a,0x3a,0x53,0x45,0x08,0x3a,0x0a,0x40,0x6e,0x61,0x6d,0x65,0x49,0x22,0x12,0x6d,0x6f,0x6e,0x5f,0x65,0x72,0x6f,0x5f,0x6b,0x6f,0x6b,0x69,0x31,0x06,0x3a,0x06,0x45,0x54,0x3a,0x0b,0x40,0x70,0x69,0x74,0x63,0x68,0x69,0x69,0x3a,0x0c,0x40,0x76,0x6f,0x6c,0x75,0x6d,0x65,0x69,0x69))
311(0,1,1,1,26,true)
ShowMessageFace("",0,0,2,17)
ShowMessage("The Roper Girl's tentacles coil around Luka's penis!")
ShowMessage("Her intense massage weakens him with pleasure!\\D")
ShowMessage("Luka takes \\V[26] damage!")
ChangeVariable(27,27,0,3,3,1,2)
If(1,27,0,0,0)
 JumpToLabel("射精1")
 0()
EndIf()
ShowMessageFace("",0,0,2,18)
ShowMessage("\\n<Luka>Nnngh...")
ShowChoices(strings("Struggle","Submit to pleasure"),1)
IfPlayerPicksChoice(0,"もがく")
 ShowMessageFace("",0,0,2,19)
 ShowMessage("Luka starts to struggle!")
 ShowMessage("But he can't escape from her bind!")
 ShowMessageFace("ropa_fc1",1,0,2,20)
 ShowMessage("\\n<Roper Girl>Pointless...\nI'll weaken, and then devour you...")
 0()
IfPlayerPicksChoice(1,"快楽に身を任せる")
 ShowMessageFace("",0,0,2,21)
 ShowMessage("Luka surrenders to the pleasure...")
 ShowMessageFace("ropa_fc1",1,0,2,22)
 ShowMessage("\\n<Roper Girl>You're giving in to the pleasure?\nWhat pathetic prey...")
 0()
404()
250(bytes(0x04,0x08,0x6f,0x3a,0x0c,0x52,0x50,0x47,0x3a,0x3a,0x53,0x45,0x08,0x3a,0x0a,0x40,0x6e,0x61,0x6d,0x65,0x49,0x22,0x16,0x6d,0x6f,0x6e,0x5f,0x65,0x72,0x6f,0x5f,0x6d,0x61,0x6b,0x69,0x74,0x75,0x6b,0x69,0x33,0x06,0x3a,0x06,0x45,0x54,0x3a,0x0b,0x40,0x70,0x69,0x74,0x63,0x68,0x69,0x69,0x3a,0x0c,0x40,0x76,0x6f,0x6c,0x75,0x6d,0x65,0x69,0x69))
311(0,1,1,1,26,true)
ShowMessageFace("",0,0,2,23)
ShowMessage("Her slimy tentacles crawl all over Luka's body!")
ShowMessage("The slimy caress stimulates him!\\D")
ShowMessage("Luka takes \\V[26] damage!")
ChangeVariable(27,27,0,3,3,1,2)
If(1,27,0,0,0)
 JumpToLabel("射精1")
 0()
EndIf()
ShowMessageFace("ropa_fc1",1,0,2,24)
ShowMessage("\\n<Roper Girl>First I'll make you come...\nAfter, I'll digest you...")
250(bytes(0x04,0x08,0x6f,0x3a,0x0c,0x52,0x50,0x47,0x3a,0x3a,0x53,0x45,0x08,0x3a,0x0a,0x40,0x6e,0x61,0x6d,0x65,0x49,0x22,0x12,0x6d,0x6f,0x6e,0x5f,0x65,0x72,0x6f,0x5f,0x6b,0x6f,0x6b,0x69,0x31,0x06,0x3a,0x06,0x45,0x54,0x3a,0x0b,0x40,0x70,0x69,0x74,0x63,0x68,0x69,0x69,0x3a,0x0c,0x40,0x76,0x6f,0x6c,0x75,0x6d,0x65,0x69,0x69))
311(0,1,1,1,26,true)
ShowMessageFace("",0,0,2,25)
ShowMessage("The tentacle strokes Luka even harder!")
ShowMessage("Sweet pleasure overwhelms him!\\D")
ShowMessage("Luka takes \\V[26] damage!")
ChangeVariable(27,27,0,3,3,1,2)
If(1,27,0,0,0)
 JumpToLabel("射精1")
 0()
EndIf()
DefineLabel("射精1")
ShowMessageFace("",0,0,2,26)
ShowMessage("\\n<Luka>Aaah... That feels good...")
RunCommonEvent(104)
PictureDisplay(5,"ev_ropa_h2",0,0,0,0,100,100,255,0)
RunCommonEvent(105)
ShowMessageFace("",0,0,2,27)
ShowMessage("Stroked by the tentacles, Luka is forced to climax.")
ShowMessageFace("ropa_fc1",1,0,2,28)
ShowMessage("\\n<Roper Girl>Did my tentacles feel that good?\nFufufu...")
RunCommonEvent(2000)
EndEventProcessing()
0()
