// EVENT 3101
Name "Scorpion Girl"

If(0,25,1)
 JumpToLabel("反省会")
 0()
EndIf()
PictureDisplay(5,"80_sasori_st02",0,0,0,0,100,100,0,0)
PictureMove(5,null,0,0,0,0,100,100,255,0,30,true)
241(bytes(0x04,0x08,0x6f,0x3a,0x0d,0x52,0x50,0x47,0x3a,0x3a,0x42,0x47,0x4d,0x08,0x3a,0x0a,0x40,0x6e,0x61,0x6d,0x65,0x49,0x22,0x09,0x65,0x72,0x6f,0x31,0x06,0x3a,0x06,0x45,0x54,0x3a,0x0c,0x40,0x76,0x6f,0x6c,0x75,0x6d,0x65,0x69,0x69,0x3a,0x0b,0x40,0x70,0x69,0x74,0x63,0x68,0x69,0x69))
ShowMessageFace("",0,0,2,1)
ShowMessage("\\n<Luka>Urhhg...")
ShowMessageFace("sasori_fc1",1,0,2,2)
ShowMessage("\\n<Scorpion Girl>Well then, I'll give you pleasure...\n...with this tail.") 
250(bytes(0x04,0x08,0x6f,0x3a,0x0c,0x52,0x50,0x47,0x3a,0x3a,0x53,0x45,0x08,0x3a,0x0a,0x40,0x6e,0x61,0x6d,0x65,0x49,0x22,0x11,0x6d,0x6f,0x6e,0x5f,0x65,0x72,0x6f,0x5f,0x70,0x79,0x75,0x32,0x06,0x3a,0x06,0x45,0x54,0x3a,0x0b,0x40,0x70,0x69,0x74,0x63,0x68,0x69,0x69,0x3a,0x0c,0x40,0x76,0x6f,0x6c,0x75,0x6d,0x65,0x69,0x69))
PictureDisplay(5,"ev_sasori_hb1",0,0,0,0,100,100,255,0)
ShowMessageFace("",0,0,2,3)
ShowMessage("The tip of the Scorpion Girl's tail turns into another shape.")
ShowMessage("It doesn't look anything like the needle it did before...")
ShowMessageFace("",0,0,2,4)
ShowMessage("That shape... It's pretty obvious what she's going to do...")
ShowMessageFace("sasori_fc1",1,0,2,5)
ShowMessage("\\n<Scorpion Girl>Hora...\nI'm going to suck your penis into my tail...")
ShowMessageFace("sasori_fc1",1,0,2,6)
ShowMessage("\\n<Scorpion Girl>Doesn't it look like it will feel incredible?")
ShowMessageFace("sasori_fc1",1,0,2,7)
ShowMessage("\\n<Scorpion Girl>Don't you want it to suck out every drop of your extract?")
ShowMessageFace("",0,0,2,8)
ShowMessage("\\n<Luka>St...Stop...")
ShowMessageFace("",0,0,2,9)
ShowMessage("I tremble with horror as I see the flesh inside of her tail wriggle around.")
ShowMessageFace("",0,0,2,10)
ShowMessage("The fear and expectation of having my penis in there boils up in me.")
ShowMessageFace("sasori_fc1",1,0,2,11)
ShowMessage("\\n<Scorpion Girl>Hehe... Just give in to the pleasure as I suck you dry.\nCome inside my tail.")
ShowMessageFace("",0,0,2,12)
ShowMessage("While flashing a seductive smile at me, the Scorpion Girl's tail slowly moves closer to me.")
ShowMessage("Finally, her wriggling tail-hole is right next to my penis.")
ShowMessageFace("",0,0,2,13)
ShowMessage("\\n<Luka>N-no... Stop...!!")
245(bytes(0x04,0x08,0x6f,0x3a,0x0d,0x52,0x50,0x47,0x3a,0x3a,0x42,0x47,0x53,0x08,0x3a,0x0a,0x40,0x6e,0x61,0x6d,0x65,0x49,0x22,0x1a,0x6d,0x6f,0x6e,0x5f,0x68,0x73,0x65,0x61,0x6e,0x32,0x31,0x5f,0x74,0x65,0x6e,0x74,0x61,0x63,0x6c,0x65,0x32,0x06,0x3a,0x06,0x45,0x54,0x3a,0x0c,0x40,0x76,0x6f,0x6c,0x75,0x6d,0x65,0x69,0x55,0x3a,0x0b,0x40,0x70,0x69,0x74,0x63,0x68,0x69,0x69))
PictureDisplay(5,"ev_sasori_hb2",0,0,0,0,100,100,255,0)
PictureDisplay(6,"ev_sasori_ct01",0,0,0,0,100,100,255,0)
ShowMessageFace("",0,0,2,14)
ShowMessage("In an instant, her tail sucks in my penis!")
ShowMessage("Encased in her soft flesh, my penis is sucked all the way into her tail.")
ShowMessageFace("",0,0,2,15)
ShowMessage("\\n<Luka>Aaaaaah!!")
ShowMessageFace("sasori_fc1",1,0,2,16)
ShowMessage("\\n<Scorpion Girl>Haha... Incredible, isn't it?\nI'll force you to put all of your extract in here...")
ShowMessageFace("",0,0,2,17)
ShowMessage("Her warm flesh wriggles around my penis.")
ShowMessage("Sucked all the way inside of her tail, the sucking pleasure attacks every inch of my penis.")
ShowMessageFace("",0,0,2,18)
ShowMessage("Something that felt like tongues start to rub and lick the tip of my penis.")
ShowMessage("The amazing stimulation inside of her quickly forces me to the edge of another orgasm.")
ShowMessageFace("",0,0,2,19)
ShowMessage("\\n<Luka>Incredible... Inside... Too good...\nAh, aaaah...!")
ShowMessageFace("",0,0,2,20)
ShowMessage("When the tongues inside of her tail gently lick the tip, I let out a yell.")
ShowMessageFace("",0,0,2,21)
ShowMessage("Sucked, licked, and squeezed inside of her tail, I feel myself quickly giving in to the desire to release.")
ShowMessageFace("sasori_fc1",1,0,2,22)
ShowMessage("\\n<Scorpion Girl>Shoot out a lot...\nPour all of your male extract into me...")
ShowMessageFace("",0,0,2,23)
ShowMessage("Her tail starts to tighten up around me.")
ShowMessage("As the pressure increases, I can feel the details of her tail even clearer.")
ShowMessageFace("",0,0,2,24)
ShowMessage("The feel of her insect shell through her soft flesh rubs and massages against my penis with every movement.")
ShowMessage("Unable to hold on, I quickly give in to the overpowering stimulation.")
ShowMessageFace("",0,0,2,25)
ShowMessage("\\n<Luka>Ah, aaaaaah!!")
RunCommonEvent(104)
PictureDisplay(5,"ev_sasori_hb3",0,0,0,0,100,100,255,0)
PictureDisplay(6,"ev_sasori_ct02",0,0,0,0,100,100,255,0)
RunCommonEvent(105)
ShowMessageFace("",0,0,2,26)
ShowMessage("Forced to orgasm, I explode inside of her, filling the Scorpion Girl's tail with my semen.")
ShowMessageFace("",0,0,2,27)
ShowMessage("As if urged on by that, a powerful suction attacks me inside her tail, forcing out every drop still inside my urethra.")
ShowMessageFace("",0,0,2,28)
ShowMessage("\\n<Luka>Faaa...")
ShowMessageFace("sasori_fc1",1,0,2,29)
ShowMessage("\\n<Scorpion Girl>Giving me so much... Was it that good?\nI'll squeeze more, until I'm satisfied...")
ShowMessageFace("",0,0,2,30)
ShowMessage("The flesh inside of her tail keeps wriggling around me.")
ShowMessageFace("",0,0,2,31)
ShowMessage("The tail tightens up around me, then slowly loosens.")
ShowMessageFace("",0,0,2,32)
ShowMessage("From the base to the tip, the rhythmic stimulation attacks me.")
ShowMessage("At the same time, the tongues inside of her continue to lick the tip of my penis.")
ShowMessageFace("",0,0,2,33)
ShowMessage("\\n<Luka>Unnngh...That feels good...")
ShowMessageFace("",0,0,2,34)
ShowMessage("This tail must have evolved to suck out a man's semen...")
ShowMessage("Once I was forced inside, there was no way to fight against it.")
ShowMessageFace("",0,0,2,35)
ShowMessage("Caught by the Scorpion Girl, I can't do anything but be slowly sucked dry...")
ShowMessageFace("sasori_fc1",1,0,2,36)
ShowMessage("\\n<Scorpion Girl>Hehe... I'll make it even better.")
ShowMessageFace("sasori_fc1",1,0,2,37)
ShowMessage("\\n<Scorpion Girl>This is what you men desire, isn't it?\nSticking your penis into something, and being sucked dry...")
ShowMessageFace("",0,0,2,38)
ShowMessage("Her tail tightens up around me, with her soft flesh squeezing tightly around me.")
ShowMessage("There's no resistance in the face of this tight, wriggling tail...")
ShowMessageFace("",0,0,2,39)
ShowMessage("In that state, with the soft feeling of the protrusions, I can't bear it.") 
ShowMessageFace("",0,0,2,40)
ShowMessage("As if rejoicing at the pleasure from her tail, my dick starts to twitch.")
RunCommonEvent(104)
PictureDisplay(5,"ev_sasori_hb4",0,0,0,0,100,100,255,0)
PictureDisplay(6,"ev_sasori_ct03",0,0,0,0,100,100,255,0)
RunCommonEvent(105)
ShowMessageFace("",0,0,2,41)
ShowMessage("\\n<Luka>Unnngh...")
ShowMessageFace("",0,0,2,42)
ShowMessage("While laying here helpless, more semen is sucked out of me.")
ShowMessageFace("",0,0,2,43)
ShowMessage("Powerless to stop her, an overwhelming sense of defeat comes over me as she sucks out my semen for food.")
ShowMessageFace("",0,0,2,44)
ShowMessage("But this one-sided feeding isn't about to end...")
ShowMessage("Right after my last ejaculation finished, she's already working towards the next.")
ShowMessageFace("",0,0,2,45)
ShowMessage("\\n<Luka>Aaa... Stop... Please...!")
ShowMessageFace("sasori_fc1",1,0,2,46)
ShowMessage("\\n<Scorpion Girl>I won't stop... Not until there's nothing left.")
ShowMessageFace("",0,0,2,47)
ShowMessage("\\n<Luka>No way... Ahhh!")
ShowMessageFace("",0,0,2,48)
ShowMessage("The entrance to her tail narrows as she tightens around me again.")
ShowMessage("With her soft wriggling flesh tightly wrapped around me, I'm forced to another height.")
ShowMessageFace("",0,0,2,49)
ShowMessage("\\n<Luka>Aaah...")
RunCommonEvent(104)
PictureDisplay(6,"ev_sasori_ct04",0,0,0,0,100,100,255,0)
RunCommonEvent(105)
ShowMessageFace("",0,0,2,50)
ShowMessage("Before I can voice another word of protest, she had already forced me to another orgasm.")
ShowMessage("Filled with mixing feelings of pleasure and disgrace, my body shakes.")
ShowMessageFace("sasori_fc1",1,0,2,51)
ShowMessage("\\n<Scorpion Girl>Fufufu... It's too good for you, isn't it?")
ShowMessageFace("sasori_fc1",1,0,2,52)
ShowMessage("\\n<Scorpion Girl>But there's no escape from my tail.\nAll that's left of your short life is to be sucked dry by me...")
ShowMessageFace("",0,0,2,53)
ShowMessage("\\n<Luka>Auu... No... Help me...")
ShowMessageFace("",0,0,2,54)
ShowMessage("But no matter how much I plead, her tail doesn't stop.")
ShowMessageFace("",0,0,2,55)
ShowMessage("This hateful tail is going to suck the life out of me...")
ShowMessageFace("",0,0,2,56)
ShowMessage("\\n<Luka>Help... Stop...")
ShowMessageFace("sasori_fc1",1,0,2,57)
ShowMessage("\\n<Scorpion Girl>Hehe... Pitiful prey.\nNo matter how much you cry, I'm going to suck everything up.")
ShowMessageFace("sasori_fc1",1,0,2,58)
ShowMessage("\\n<Scorpion Girl>Why don't you just give in to the pleasure, so you can at least die happy?")
ShowMessageFace("",0,0,2,59)
ShowMessage("\\n<Luka>Aaah...")
RunCommonEvent(104)
RunCommonEvent(105)
ShowMessageFace("",0,0,2,60)
ShowMessage("I ejaculate again from the pleasure being forced into me.")
ShowMessage("Exhausted from my orgasms, I'm too weak to even attempt to move my body.")
ShowMessageFace("sasori_fc1",1,0,2,61)
ShowMessage("\\n<Scorpion Girl>Shoot out more...\nI'll send you to heaven while my tail sucks everything from you...")
ShowMessageFace("",0,0,2,62)
ShowMessage("\\n<Luka>A...aa...")
RunCommonEvent(104)
RunCommonEvent(105)
ShowMessageFace("",0,0,2,63)
ShowMessage("Each orgasm causes my thoughts to become even more muddled.")
ShowMessage("Unable to think clearly, I finally give in to the pleasure.")
ShowMessageFace("sasori_fc1",1,0,2,64)
ShowMessage("\\n<Scorpion Girl>It's about time to end this...\nYou were very delicious, fufufu...")
ShowMessageFace("",0,0,2,65)
ShowMessage("\\n<Luka>Aaa...")
RunCommonEvent(104)
RunCommonEvent(105)
ShowMessageFace("",0,0,2,66)
ShowMessage("With a final orgasm, I finally lose consciousness.")
ShowMessage("Sucked dry, I fall into an endless sleep.")
221()
PictureClear(5)
PictureClear(6)
246(2)
ShowMessageFace("",0,0,2,67)
ShowMessage("Thus, I was sucked dry by the Scorpion Girl.")
ShowMessageFace("",0,0,2,68)
ShowMessage("The only proof of my existence is another dried up corpse in the desert.")
DefineLabel("反省会")
ShowMessageFace("",0,0,2,69)
ShowMessage("......")
221()
242(1)
Wait(120)
355("memory_interruption")
ShowMessageFace("",0,0,2,70)
ShowMessage("You hear Ilias' voice calling out to you...")
ShowMessage("Receive her evaluation?")
ShowChoices(strings("Receive Evaluation","Change Difficulty","Reincarnate"),3)
IfPlayerPicksChoice(0,null)
 241(bytes(0x04,0x08,0x6f,0x3a,0x0d,0x52,0x50,0x47,0x3a,0x3a,0x42,0x47,0x4d,0x08,0x3a,0x0a,0x40,0x6e,0x61,0x6d,0x65,0x49,0x22,0x0a,0x69,0x72,0x69,0x61,0x73,0x06,0x3a,0x06,0x45,0x54,0x3a,0x0c,0x40,0x76,0x6f,0x6c,0x75,0x6d,0x65,0x69,0x5f,0x3a,0x0b,0x40,0x70,0x69,0x74,0x63,0x68,0x69,0x6e))
 PictureDisplay(1,"bg001",0,0,0,0,100,100,255,0)
 222()
 PictureDisplay(5,"80_iriasu_st04",0,0,0,0,100,100,0,0)
 PictureMove(5,null,0,0,0,0,100,100,255,0,30,true)
 ShowMessageFace("iriasu_fc1",3,0,2,71)
 ShowMessage("\\n<Ilias>")
 ShowMessage("You were made into the Scorpion Girl's food?")
 ShowMessage("How miserable... Did you enjoy being sucked dry?")
 PictureDisplay(5,"80_iriasu_st01",0,0,0,0,100,100,255,0)
 ShowMessageFace("iriasu_fc1",0,0,2,72)
 ShowMessage("\\n<Ilias>")
 ShowMessage("The Scorpion Girl is a troublesome enemy with high attack power and a poisonous needle.")
 ShowMessage("Her high defense is also noteworthy.")
 ShowMessageFace("iriasu_fc1",0,0,2,73)
 ShowMessage("\\n<Ilias>")
 ShowMessage("She has normal elemental resistances except for Water which is its weakness.")
 ShowMessage("Like all desert dwellers, she is weak to Water.")
 ShowMessageFace("iriasu_fc1",0,0,2,74)
 ShowMessage("\\n<Ilias>")
 ShowMessage("Most status ailments also work on her.")
 ShowMessage("She's really strong but surprisingly easy to beat.")
 PictureDisplay(5,"80_iriasu_st02",0,0,0,0,100,100,255,0)
 ShowMessageFace("iriasu_fc1",1,0,2,75)
 ShowMessage("\\n<Ilias>")
 ShowMessage("Now go, oh Brave Luka.")
 ShowMessage("Don't be defeated by the heat, or an insect...")
 242(1)
 221()
 PictureClear(5)
 PictureClear(1)
 Wait(60)
 0()
IfPlayerPicksChoice(1,null)
 ShowMessageFace("",0,0,2,76)
 ShowMessage("Please choose a difficulty level.")
 RunCommonEvent(110)
 0()
IfPlayerPicksChoice(2,null)
 0()
404()
RunCommonEvent(3000)
0()
