// EVENT 5636
Name "S-2_1"

PictureDisplay(5,"80_c_s2_st02",0,0,0,0,100,100,0,0)
PictureMove(5,null,0,0,0,0,100,100,255,0,30,true)
ShowMessageFace("",0,0,2,1)
ShowMessage("\\n<Luka>")
ShowMessage("P-please...")
ShowMessageFace("c_s2_fc1",0,0,2,2)
ShowMessage("\\n<Awawa>")
ShowMessage("You want me to make you feel good? Well then I'll slurp slurp slurp...")
241(bytes(0x04,0x08,0x6f,0x3a,0x0d,0x52,0x50,0x47,0x3a,0x3a,0x42,0x47,0x4d,0x08,0x3a,0x0a,0x40,0x6e,0x61,0x6d,0x65,0x49,0x22,0x09,0x65,0x72,0x6f,0x31,0x06,0x3a,0x06,0x45,0x54,0x3a,0x0c,0x40,0x76,0x6f,0x6c,0x75,0x6d,0x65,0x69,0x69,0x3a,0x0b,0x40,0x70,0x69,0x74,0x63,0x68,0x69,0x69))
245(bytes(0x04,0x08,0x6f,0x3a,0x0d,0x52,0x50,0x47,0x3a,0x3a,0x42,0x47,0x53,0x08,0x3a,0x0a,0x40,0x6e,0x61,0x6d,0x65,0x49,0x22,0x17,0x6d,0x6f,0x6e,0x5f,0x68,0x73,0x65,0x61,0x6e,0x31,0x38,0x5f,0x73,0x6c,0x69,0x6d,0x65,0x31,0x06,0x3a,0x06,0x45,0x54,0x3a,0x0c,0x40,0x76,0x6f,0x6c,0x75,0x6d,0x65,0x69,0x55,0x3a,0x0b,0x40,0x70,0x69,0x74,0x63,0x68,0x69,0x69))
PictureDisplay(5,"ev_c_s2_hb1",0,0,0,0,100,100,255,0)
ShowMessageFace("",0,0,2,3)
ShowMessage("Her mucus winds around my legs, forcing me to the floor. She leans over me, covering me in her mucus.")
ShowMessageFace("",0,0,2,4)
ShowMessage("\\n<Luka>")
ShowMessage("Ah, auuu...!")
PictureDisplay(6,"ev_c_s2_ct01",0,0,0,0,100,100,255,0)
ShowMessageFace("",0,0,2,5)
ShowMessage("My whole body is covered in her bubbly foam, including my already erect penis.")
ShowMessageFace("",0,0,2,6)
ShowMessage("The slimy sensation encases both my glans and my shaft, making my body tremble from the sticky slime clinging to my entire body.")
ShowMessageFace("c_s2_fc1",0,0,2,7)
ShowMessage("\\n<Awawa>")
ShowMessage("I wrapped your penis in my bubbles and I won't let it go until you come...")
ShowMessageFace("",0,0,2,8)
ShowMessage("\\n<Luka>")
ShowMessage("Hau... Aaaaaau!!")
ShowMessageFace("",0,0,2,9)
ShowMessage("Stimulated by the bubbly foam, my penis throbs as the sticky substance clings and flows around my glans.")
ShowMessageFace("",0,0,2,10)
ShowMessage("The stimulation of having my crotch drowned in her bubbles puts me into a trance of ecstasy...")
ShowMessageFace("",0,0,2,11)
ShowMessage("\\n<Luka>")
ShowMessage("Hau... Ah, aaah...")
ShowMessageFace("c_s2_fc1",0,0,2,12)
ShowMessage("\\n<Awawa>")
ShowMessage("Ehehe, my bubbles feel good...")
ShowMessageFace("",0,0,2,13)
ShowMessage("I don't even try to resist anymore, I just enjoy the flow of Awawa's bubbles around my crotch.")
ShowMessageFace("",0,0,2,14)
ShowMessage("All of a sudden, I feel a sweet tingling and the feeling of release rises up in me...")
ShowMessageFace("",0,0,2,15)
ShowMessage("\\n<Luka>")
ShowMessage("Aaah... Coming...")
ShowMessageFace("c_s2_fc1",0,0,2,16)
ShowMessage("\\n<Awawa>")
ShowMessage("Your penis, covered in my bubbles... Hurry up and release your semen in it....")
ShowMessageFace("",0,0,2,17)
ShowMessage("Feeling that I'm about to come, Awawa intensifies her stimulation, making me surrender to the feeling of release...")
ShowMessageFace("",0,0,2,18)
ShowMessage("\\n<Luka>")
ShowMessage("Ah... Fuaaaah...")
RunCommonEvent(104)
PictureDisplay(5,"ev_c_s2_hb2",0,0,0,0,100,100,255,0)
PictureDisplay(6,"ev_c_s2_ct02",0,0,0,0,100,100,255,0)
RunCommonEvent(105)
ShowMessageFace("",0,0,2,19)
ShowMessage("I come to a finish from having my penis rubbed by the bubbly mucus, shooting my semen inside it...")
ShowMessageFace("",0,0,2,20)
ShowMessage("\\n<Luka>")
ShowMessage("Auuuu...")
ShowMessageFace("c_s2_fc1",0,0,2,21)
ShowMessage("\\n<Awawa>")
ShowMessage("You let out so much semen in my bubbles... It's so tasty...")
ShowMessageFace("c_s2_fc1",0,0,2,22)
ShowMessage("\\n<Awawa>")
ShowMessage("Hey, please give me more... Will you give me more if I make you feel even better...?")
ShowMessageFace("",0,0,2,23)
ShowMessage("Awawa stimulates my penis even more just after ejaculating. The bubbly foam flows smoothly around my entire penis.")
ShowMessageFace("",0,0,2,24)
ShowMessage("\\n<Luka>")
ShowMessage("Hyaa... S-stop it already...!")
ShowMessageFace("c_s2_fc1",0,0,2,25)
ShowMessage("\\n<Awawa>")
ShowMessage("The tip as well, awawawa...")
ShowMessageFace("",0,0,2,26)
ShowMessage("Her mucus wraps around my glans, squeezing it, flowing around the neck of my penis...")
ShowMessageFace("",0,0,2,27)
ShowMessage("\\n<Luka>")
ShowMessage("Stop... Coming...!")
ShowMessageFace("",0,0,2,28)
ShowMessage("Before I realize it, I'm about to come for a second time as her frothy mucus makes it feel like my penis is about to melt...")
ShowMessageFace("c_s2_fc1",0,0,2,29)
ShowMessage("\\n<Awawa>")
ShowMessage("Does your tip feel good inside my bubbles...?")
ShowMessage("Well then, come...♪")
ShowMessageFace("",0,0,2,30)
ShowMessage("Her viscous bubbles cover my glans, crush it, rub it as if thoroughly washing it...")
ShowMessageFace("",0,0,2,31)
ShowMessage("\\n<Luka>")
ShowMessage("Don't... Coming... Ah, aaaaah...!")
RunCommonEvent(104)
PictureDisplay(5,"ev_c_s2_hb3",0,0,0,0,100,100,255,0)
PictureDisplay(6,"ev_c_s2_ct03",0,0,0,0,100,100,255,0)
RunCommonEvent(105)
ShowMessageFace("",0,0,2,32)
ShowMessage("I shoot my semen inside her viscous mucus, the ejaculation drowning me in ecstasy...")
ShowMessageFace("c_s2_fc1",0,0,2,33)
ShowMessage("\\n<Awawa>")
ShowMessage("Ehehe, you shot out so much delicious juice... More awawa, please give me more...")
ShowMessageFace("",0,0,2,34)
ShowMessage("\\n<Luka>")
ShowMessage("Hyaaa... Stop, stop it...!")
ShowMessageFace("",0,0,2,35)
ShowMessage("Her frothy mucus clings to my penis and starts stroking it.")
ShowMessageFace("",0,0,2,36)
ShowMessage("With my lower body buried in her mucus, she keeps stroking me even as I ejaculate, making my whole body tremble.")
ShowMessageFace("",0,0,2,37)
ShowMessage("\\n<Luka>")
ShowMessage("Ah, au... Hyaaaa...!!")
ShowMessageFace("c_s2_fc1",0,0,2,38)
ShowMessage("\\n<Awawa>")
ShowMessage("Squeeze, squeeze... Awawa massage till pew-pew-pew...♪")
ShowMessageFace("",0,0,2,39)
ShowMessage("Countless bubbles flow over the surface of my penis from the mucus covering it...")
ShowMessageFace("",0,0,2,40)
ShowMessage("\\n<Luka>")
ShowMessage("Ah, stop...! I'm coming again...!")
ShowMessageFace("c_s2_fc1",0,0,2,41)
ShowMessage("\\n<Awawa>")
ShowMessage("Your baby juice, pew-pew a lot of it...♪")
ShowMessageFace("",0,0,2,42)
ShowMessage("The foamy mucus clings tightly to my penis, stroking it, making me feel intense pleasure.")
ShowMessageFace("",0,0,2,43)
ShowMessage("Trapped inside it, the pleasure makes my head go pure white...")
ShowMessageFace("",0,0,2,44)
ShowMessage("\\n<Luka>")
ShowMessage("Ah, aaaah...!")
RunCommonEvent(104)
PictureDisplay(5,"ev_c_s2_hb4",0,0,0,0,100,100,255,0)
PictureDisplay(6,"ev_c_s2_ct04",0,0,0,0,100,100,255,0)
RunCommonEvent(105)
246(2)
ShowMessageFace("",0,0,2,45)
ShowMessage("I'm forced to ejaculate again, covered in the bubble filled mucus, painting it with my semen...")
ShowMessageFace("c_s2_fc1",0,0,2,46)
ShowMessage("\\n<Awawa>")
ShowMessage("Your baby juice... So delicious. Let me eat it again...♪")
ShowMessageFace("",0,0,2,47)
ShowMessage("Wrapped in her mucus, I feel totally weak as Awawa happily squeezes the semen from my penis until the last drop...")
221()
PictureClear(5)
PictureClear(6)
ShowMessageFace("",0,0,2,48)
ShowMessage("......")
RunCommonEvent(3998)
0()
