// EVENT 4467
Name "Chrome 2"

If(0,25,1)
 221()
 PictureClear(5)
 PictureClear(6)
 ShowMessageFace("",0,0,2,0)
 ShowMessage("......")
 242(2)
 Wait(120)
 241(bytes(0x04,0x08,0x6f,0x3a,0x0d,0x52,0x50,0x47,0x3a,0x3a,0x42,0x47,0x4d,0x08,0x3a,0x0a,0x40,0x6e,0x61,0x6d,0x65,0x49,0x22,0x0c,0x63,0x61,0x73,0x74,0x6c,0x65,0x36,0x06,0x3a,0x06,0x45,0x54,0x3a,0x0c,0x40,0x76,0x6f,0x6c,0x75,0x6d,0x65,0x69,0x69,0x3a,0x0b,0x40,0x70,0x69,0x74,0x63,0x68,0x69,0x69))
 EndEventProcessing()
 0()
EndIf()
PictureDisplay(5,"80_chrom_st01",0,0,0,0,100,100,255,0)
ShowMessageFace("chrom_fc2",0,0,2,1)
ShowMessage("\\n<Chrome>Luka, I need your help for a moment.\nThe Haunted Mansion I live in is in disarray.")
ShowMessageFace("",0,0,2,2)
ShowMessage("\\n<Luka>Are you going to clean it up?\nOk, I'll help you.")
PictureDisplay(5,"80_chrom_st03",0,0,0,0,100,100,255,0)
ShowMessageFace("chrom_fc2",2,0,2,3)
ShowMessage("\\n<Chrome>Kukuku...")
ShowMessageFace("",0,0,2,4)
ShowMessage("I head off with Chrome to the haunted mansion...")
PictureDisplay(5,"ev_chrom_he01",0,0,0,0,100,100,0,0)
PictureMove(5,null,0,0,0,0,100,100,255,0,30,true)
241(bytes(0x04,0x08,0x6f,0x3a,0x0d,0x52,0x50,0x47,0x3a,0x3a,0x42,0x47,0x4d,0x08,0x3a,0x0a,0x40,0x6e,0x61,0x6d,0x65,0x49,0x22,0x09,0x65,0x72,0x6f,0x31,0x06,0x3a,0x06,0x45,0x54,0x3a,0x0c,0x40,0x76,0x6f,0x6c,0x75,0x6d,0x65,0x69,0x69,0x3a,0x0b,0x40,0x70,0x69,0x74,0x63,0x68,0x69,0x69))
ShowMessageFace("",0,0,2,5)
ShowMessage("\\n<Luka>...Uwa! What are you doing!?")
ShowMessageFace("",0,0,2,6)
ShowMessage("I'm suddenly bound by bandages coming from everywhere.")
ShowMessage("As I struggle, a giggling Chrome walks up to me.")
ShowMessageFace("chrom_fc2",2,0,2,7)
ShowMessage("\\n<Chrome>Kukuku, I managed to bind you.\nCalm down, I'm not going to eat you or anything.")
ShowMessageFace("chrom_fc2",2,0,2,8)
ShowMessage("\\n<Chrome>I just wanted to take a little bit of your semen.\nI need some fresh, high quality semen for my experiments.")
ShowMessageFace("",0,0,2,9)
ShowMessage("\\n<Luka>No, you can't do that...!")
PictureDisplay(5,"ev_chrom_he02",0,0,0,0,100,100,255,0)
ShowMessageFace("",0,0,2,10)
ShowMessage("Chrome sits on me with her small body, ignoring my words.")
ShowMessageFace("chrom_fc2",2,0,2,11)
ShowMessage("\\n<Chrome>Come on, get it big.\nJust for you, I'll collect your semen with my pussy.")
ShowMessageFace("",0,0,2,12)
ShowMessage("\\n<Luka>N...no way...")
PictureDisplay(5,"ev_chrom_he03",0,0,0,0,100,100,255,0)
ShowMessageFace("",0,0,2,13)
ShowMessage("Feeling her ass press into my lower body...")
ShowMessage("In response to that sexy touch, my penis gets hard.")
ShowMessageFace("chrom_fc2",2,0,2,14)
ShowMessage("\\n<Chrome>Kuku, it looks like the preparations are finished.\nNow, let me violate you...")
ShowMessageFace("chrom_fc2",2,0,2,15)
ShowMessage("\\n<Chrome>There's nothing to be afraid of. It feels amazing.\nAll you need to do is drown in pleasure for a while...")
ShowMessageFace("",0,0,2,16)
ShowMessage("\\n<Luka>D-don't...")
ShowMessageFace("",0,0,2,17)
ShowMessage("Holding my penis, Chrome guides me inside her...")
245(bytes(0x04,0x08,0x6f,0x3a,0x0d,0x52,0x50,0x47,0x3a,0x3a,0x42,0x47,0x53,0x08,0x3a,0x0a,0x40,0x6e,0x61,0x6d,0x65,0x49,0x22,0x1e,0x6d,0x6f,0x6e,0x5f,0x68,0x73,0x65,0x61,0x6e,0x30,0x32,0x5f,0x69,0x6e,0x6e,0x65,0x72,0x77,0x6f,0x72,0x6b,0x73,0x5f,0x61,0x32,0x06,0x3a,0x06,0x45,0x54,0x3a,0x0c,0x40,0x76,0x6f,0x6c,0x75,0x6d,0x65,0x69,0x55,0x3a,0x0b,0x40,0x70,0x69,0x74,0x63,0x68,0x69,0x69))
PictureDisplay(5,"ev_chrom_he06",0,0,0,0,100,100,255,0)
ShowMessageFace("",0,0,2,18)
ShowMessage("She brings my penis inside her tight vagina!")
ShowMessageFace("",0,0,2,19)
ShowMessage("\\n<Luka>Ah, unnngh...!")
ShowMessageFace("",0,0,2,20)
ShowMessage("Feeling too good from insertion, I can't stop myself from moaning.")
ShowMessage("Chrome's vagina squeezes me as soon as I'm inside her.")
PictureDisplay(5,"ev_chrom_he07",0,0,0,0,100,100,255,0)
ShowMessageFace("chrom_fc2",2,0,2,21)
ShowMessage("\\n<Chrome>Kuku, isn't my pussy incredible?\nEven I am a Succubus, you know...")
ShowMessageFace("chrom_fc2",2,0,2,22)
ShowMessage("\\n<Chrome>Hore, I'll make it tighter...\nKukuku, I wonder how long you can endure?")
ShowMessageFace("",0,0,2,23)
ShowMessage("\\n<Luka>Hyaa... Aaah...!!")
ShowMessageFace("",0,0,2,24)
ShowMessage("Wrapped in her soft flesh, I feel her vaginal muscles pressing against me.")
ShowMessage("Her already narrow vagina gets even tighter.")
ShowMessageFace("chrom_fc2",2,0,2,25)
ShowMessage("\\n<Chrome>Or should I move my waist a bit?\nHore, hore, hore...")
ShowMessageFace("",0,0,2,26)
ShowMessage("Chrome starts to slowly bounce her body up and down.")
ShowMessage("My penis is tossed around, controlled by her tiny vagina.")
ShowMessageFace("",0,0,2,27)
ShowMessage("\\n<Luka>Ah, aaaah...!!")
ShowMessageFace("",0,0,2,28)
ShowMessage("My glans pushes and pulls against her flesh as she bounces up and down.")
ShowMessage("Every time she sits back down on me, I feel my tip pierce into her small body.")
ShowMessageFace("",0,0,2,29)
ShowMessage("\\n<Luka>S...Stop...Unnngh...")
ShowMessageFace("chrom_fc2",2,0,2,30)
ShowMessage("\\n<Chrome>Hore, I'll make it tighter again.\nKukuku, let me see more of your moans...")
ShowMessageFace("",0,0,2,31)
ShowMessage("Chrome stops bouncing, and starts to squeeze me again.")
ShowMessage("Her narrow vagina presses down sweetly on me.")
ShowMessageFace("",0,0,2,32)
ShowMessage("\\n<Luka>Hya... Aaaah...!!")
ShowMessageFace("",0,0,2,33)
ShowMessage("Chrome is toying with me...")
ShowMessage("She wants to force me to come as she laughs and taunts me.")
ShowMessageFace("chrom_fc2",2,0,2,34)
ShowMessage("\\n<Chrome>Hore, hore... I'll move my body again.\nKuku, I'm excited to see how long you can last.")
ShowMessageFace("",0,0,2,35)
ShowMessage("Her up and down movements start again.")
ShowMessage("My penis, slipping in and out of her, is easily being controlled by her.")
ShowMessageFace("",0,0,2,36)
ShowMessage("\\n<Luka>Hau... Ahh...")
ShowMessageFace("chrom_fc2",2,0,2,37)
ShowMessage("\\n<Chrome>Kuku, are you at your limit?\nI'll give you the finishing blow soon, then.")
ShowMessageFace("chrom_fc2",2,0,2,38)
ShowMessage("\\n<Chrome>Hmmm... How should I make you come, though?\nWith squeezing? Moving? ...Or both at the same time?")
ShowMessageFace("",0,0,2,39)
ShowMessage("\\n<Luka>......")
ShowMessageFace("chrom_fc2",2,0,2,40)
ShowMessage("\\n<Chrome>All right. Both at once!\nShaking my hips as I squeeze you... Horehore...")
ShowMessageFace("",0,0,2,41)
ShowMessage("\\n<Luka>W-wait... Ahhh!!")
ShowMessageFace("",0,0,2,42)
ShowMessage("Chrome squeezes down on me tighter than ever.")
ShowMessage("At the same time, her small body bounces up and down in my lap.")
ShowMessageFace("",0,0,2,43)
ShowMessage("My penis is forced in and out of her tight body.")
ShowMessage("If she forces such pleasure into me, then...")
ShowMessageFace("",0,0,2,44)
ShowMessage("\\n<Luka>N-noooo... Aaaah...!!")
RunCommonEvent(104)
PictureDisplay(5,"ev_chrom_he08",0,0,0,0,100,100,255,0)
RunCommonEvent(105)
ShowMessageFace("",0,0,2,45)
ShowMessage("My head goes pure white as my penis pulses in her.")
ShowMessage("My semen gushes into Chrome's vagina.")
PictureDisplay(5,"ev_chrom_he09",0,0,0,0,100,100,255,0)
ShowMessageFace("chrom_fc2",2,0,2,46)
ShowMessage("\\n<Chrome>Kuku, you came.\nSuch high quality semen is spurting out...")
ShowMessageFace("",0,0,2,47)
ShowMessage("Chrome smiles at me as she feels my penis pulse in her.")
ShowMessage("Feeling her heavenly tightness, I shoot every last drop into her.")
246(2)
ShowMessageFace("",0,0,2,48)
ShowMessage("\\n<Luka>Nnngh...")
ShowMessageFace("chrom_fc2",2,0,2,49)
ShowMessage("\\n<Chrome>I can do my experiment with this.\nIf I run out again, I'll come back to you for help.")
ShowMessageFace("",0,0,2,50)
ShowMessage("\\n<Luka>......")
ShowMessageFace("",0,0,2,51)
ShowMessage("Every drop of my semen was shot into Chrome.")
ShowMessage("I sigh in weakness at the humiliating pleasure.")
221()
PictureClear(5)
PictureClear(6)
ShowMessageFace("",0,0,2,52)
ShowMessage("......")
242(2)
Wait(120)
241(bytes(0x04,0x08,0x6f,0x3a,0x0d,0x52,0x50,0x47,0x3a,0x3a,0x42,0x47,0x4d,0x08,0x3a,0x0a,0x40,0x6e,0x61,0x6d,0x65,0x49,0x22,0x0c,0x63,0x61,0x73,0x74,0x6c,0x65,0x36,0x06,0x3a,0x06,0x45,0x54,0x3a,0x0c,0x40,0x76,0x6f,0x6c,0x75,0x6d,0x65,0x69,0x69,0x3a,0x0b,0x40,0x70,0x69,0x74,0x63,0x68,0x69,0x69))
0()
