﻿// EVENT 0070
Name "Skill: Play 301-310"

ChangeVariable(11,11,0,2,1,5)
If(1,100,0,301,0)
 If(1,11,0,1,0)
  ShowMessageFace("tora_fc1",0,0,2,1)
  ShowMessage("\\n<Konan>Wahaha!!")
  355("interrupt_skill(3292)")
  EndEventProcessing()
  0()
 EndIf()
 If(1,11,0,2,0)
  ShowMessageFace("tora_fc1",0,0,2,2)
  ShowMessage("\\n<Konan>Ohhhh!!")
  355("interrupt_skill(2698)")
  EndEventProcessing()
  0()
 EndIf()
 If(1,11,0,3,0)
  ShowMessageFace("tora_fc1",1,0,2,3)
  ShowMessage("\\n<Konan>I'm getting drowsy...")
  313(0,301,0,11)
  ShowMessageFace("",0,0,2,4)
  ShowMessage("Konan fell asleep...")
  EndEventProcessing()
  0()
 EndIf()
 If(1,11,0,4,0)
  ShowMessageFace("tora_fc1",1,0,2,5)
  ShowMessage("\\n<Konan>Let me give you this.\nI'm not a cat...")
  ShowMessageFace("",0,0,2,6)
  ShowMessage("Konan presents a gift!")
  250(bytes(0x04,0x08,0x6f,0x3a,0x0c,0x52,0x50,0x47,0x3a,0x3a,0x53,0x45,0x08,0x3a,0x0a,0x40,0x6e,0x61,0x6d,0x65,0x49,0x22,0x0a,0x49,0x74,0x65,0x6d,0x31,0x06,0x3a,0x06,0x45,0x54,0x3a,0x0b,0x40,0x70,0x69,0x74,0x63,0x68,0x69,0x69,0x3a,0x0c,0x40,0x76,0x6f,0x6c,0x75,0x6d,0x65,0x69,0x55))
  ChangeInventory_Item(334,0,0,1)
  ShowMessageFace("",0,0,2,7)
  ShowMessage("You obtain some \\ii[334]!")
  EndEventProcessing()
  0()
 EndIf()
 If(1,11,0,5,0)
  ShowMessageFace("tora_fc1",0,0,2,8)
  ShowMessage("\\n<Konan>Hmph!")
  355("interrupt_skill(3294)")
  EndEventProcessing()
  0()
 EndIf()
 0()
EndIf()
If(1,100,0,302,0)
 If(1,11,0,1,0)
  ShowMessageFace("vampire_fc1",1,0,2,9)
  ShowMessage("\\n<Wilhemina>Kukuku...")
  ShowMessageFace("",0,0,2,10)
  ShowMessage("Wilhemina is giggling...")
  EndEventProcessing()
  0()
 EndIf()
 If(1,11,0,2,0)
  ShowMessageFace("vampire_fc1",0,0,2,11)
  ShowMessage("\\n<Wilhemina>I'll show you the dance of the night...")
  ShowMessageFace("",0,0,2,12)
  ShowMessage("Wilhemina is dancing a cheerful dance!\n...But nothing happened.")
  EndEventProcessing()
  0()
 EndIf()
 If(1,11,0,3,0)
  ShowMessageFace("vampire_fc1",0,0,2,13)
  ShowMessage("\\n<Wilhemina>I shall begin my eternal slumber...")
  313(0,302,0,11)
  ShowMessageFace("",0,0,2,14)
  ShowMessage("Wilhemina fell asleep...")
  EndEventProcessing()
  0()
 EndIf()
 If(1,11,0,4,0)
  ShowMessageFace("vampire_fc1",0,0,2,15)
  ShowMessage("\\n<Wilhemina>I'll give you this...")
  ShowMessageFace("",0,0,2,16)
  ShowMessage("Wilhemina presents a gift!")
  250(bytes(0x04,0x08,0x6f,0x3a,0x0c,0x52,0x50,0x47,0x3a,0x3a,0x53,0x45,0x08,0x3a,0x0a,0x40,0x6e,0x61,0x6d,0x65,0x49,0x22,0x0a,0x49,0x74,0x65,0x6d,0x31,0x06,0x3a,0x06,0x45,0x54,0x3a,0x0b,0x40,0x70,0x69,0x74,0x63,0x68,0x69,0x69,0x3a,0x0c,0x40,0x76,0x6f,0x6c,0x75,0x6d,0x65,0x69,0x55))
  ChangeInventory_Item(313,0,0,1)
  ShowMessageFace("",0,0,2,17)
  ShowMessage("You obtain a \\ii[313]!")
  EndEventProcessing()
  0()
 EndIf()
 If(1,11,0,5,0)
  ShowMessageFace("vampire_fc1",0,0,2,18)
  ShowMessage("\\n<Wilhemina>I shall have a meal...")
  355("interrupt_skill(2537)")
  EndEventProcessing()
  0()
 EndIf()
 0()
EndIf()
If(1,100,0,303,0)
 If(1,11,0,1,0)
  ShowMessageFace("jeraira_fc1",0,0,2,19)
  ShowMessage("\\n<Jellaila>Ufufu...")
  355("interrupt_skill(3288)")
  EndEventProcessing()
  0()
 EndIf()
 If(1,11,0,2,0)
  ShowMessageFace("jeraira_fc1",0,0,2,20)
  ShowMessage("\\n<Jellaila>I pray for everyone's victory...")
  355("interrupt_skill(3288)")
  EndEventProcessing()
  0()
 EndIf()
 If(1,11,0,3,0)
  ShowMessageFace("jeraira_fc1",1,0,2,21)
  ShowMessage("\\n<Jellaila>Someday, I will also be a star...")
  ShowMessageFace("",0,0,2,22)
  ShowMessage("Jellaila is practicing her signature...")
  EndEventProcessing()
  0()
 EndIf()
 If(1,11,0,4,0)
  ShowMessageFace("jeraira_fc1",0,0,2,23)
  ShowMessage("\\n<Jellaila>Please have this...")
  ShowMessageFace("",0,0,2,24)
  ShowMessage("Jellaila presents a gift!")
  250(bytes(0x04,0x08,0x6f,0x3a,0x0c,0x52,0x50,0x47,0x3a,0x3a,0x53,0x45,0x08,0x3a,0x0a,0x40,0x6e,0x61,0x6d,0x65,0x49,0x22,0x0a,0x49,0x74,0x65,0x6d,0x31,0x06,0x3a,0x06,0x45,0x54,0x3a,0x0b,0x40,0x70,0x69,0x74,0x63,0x68,0x69,0x69,0x3a,0x0c,0x40,0x76,0x6f,0x6c,0x75,0x6d,0x65,0x69,0x55))
  ChangeInventory_Item(365,0,0,1)
  ShowMessageFace("",0,0,2,25)
  ShowMessage("You obtain some \\ii[365]!")
  EndEventProcessing()
  0()
 EndIf()
 If(1,11,0,5,0)
  ShowMessageFace("jeraira_fc1",0,0,2,26)
  ShowMessage("\\n<Jellaila>I'll play an enticing tune...")
  355("interrupt_skill(2079)")
  EndEventProcessing()
  0()
 EndIf()
 0()
EndIf()
If(1,100,0,304,0)
 If(1,11,0,1,0)
  ShowMessageFace("libolibo_fc1",0,0,2,27)
  ShowMessage("\\n<Ribo-Ribo>Carrying out evacuation...")
  ShowMessageFace("",0,0,2,28)
  ShowMessage("Ribo-Ribo ran away!\n...But she didn't know the way, and soon came back.")
  EndEventProcessing()
  0()
 EndIf()
 If(1,11,0,2,0)
  ShowMessageFace("libolibo_fc1",0,0,2,29)
  ShowMessage("\\n<Ribo-Ribo>............")
  ShowMessageFace("",0,0,2,30)
  ShowMessage("Ribo-Ribo makes a sidelong glance...\nHowever, it appeared to be more like a glare!")
  EndEventProcessing()
  0()
 EndIf()
 If(1,11,0,3,0)
  ShowMessageFace("libolibo_fc1",0,0,2,31)
  ShowMessage("\\n<Ribo-Ribo>System error, searching for solutions...")
  313(0,304,0,15)
  ShowMessageFace("",0,0,2,32)
  ShowMessage("Ribo-Ribo has become paralyzed!")
  EndEventProcessing()
  0()
 EndIf()
 If(1,11,0,4,0)
  ShowMessageFace("libolibo_fc1",0,0,2,33)
  ShowMessage("\\n<Ribo-Ribo>System error, initiating reboot...")
  355("interrupt_skill(3306)")
  EndEventProcessing()
  0()
 EndIf()
 If(1,11,0,5,0)
  ShowMessageFace("libolibo_fc1",0,0,2,34)
  ShowMessage("\\n<Ribo-Ribo>Slaughter mode, executing...")
  355("interrupt_skill(3311)")
  EndEventProcessing()
  0()
 EndIf()
 0()
EndIf()
If(1,100,0,305,0)
 If(1,11,0,1,0)
  ShowMessageFace("anfill_fc1",0,0,2,35)
  ShowMessage("\\n<Amphil>Fufu, ufufu...")
  ShowMessageFace("",0,0,2,36)
  ShowMessage("Amphil is giggling...")
  EndEventProcessing()
  0()
 EndIf()
 If(1,11,0,2,0)
  ShowMessageFace("anfill_fc1",2,0,2,37)
  ShowMessage("\\n<Amphil>My body got tangled...")
  ShowMessageFace("",0,0,2,38)
  ShowMessage("Amphil's tentacles got tangled up, and she is unable to move...")
  EndEventProcessing()
  0()
 EndIf()
 If(1,11,0,3,0)
  ShowMessageFace("anfill_fc1",0,0,2,39)
  ShowMessage("\\n<Amphil>You're a nuisance...!")
  355("interrupt_skill(2776)")
  EndEventProcessing()
  0()
 EndIf()
 If(1,11,0,4,0)
  ShowMessageFace("anfill_fc1",0,0,2,40)
  ShowMessage("\\n<Amphil>I want to parasitize...")
  ShowMessageFace("",0,0,2,41)
  ShowMessage("Amphil is muttering to herself...")
  EndEventProcessing()
  0()
 EndIf()
 If(1,11,0,5,0)
  ShowMessageFace("anfill_fc1",0,0,2,42)
  ShowMessage("\\n<Amphil>Eii!")
  355("interrupt_skill(3307)")
  EndEventProcessing()
  0()
 EndIf()
 0()
EndIf()
If(1,100,0,306,0)
 If(1,11,0,1,0)
  ShowMessageFace("twinkel_fc2",4,0,2,43)
  ShowMessage("\\n<Twinkell>What?!")
  ShowMessageFace("twinkel_fc3",4,0,2,44)
  ShowMessage("\\n<Twinkell>What are you...!")
  ShowMessageFace("",0,0,2,45)
  ShowMessage("Twinkell's heads are arguing...")
  EndEventProcessing()
  0()
 EndIf()
 If(1,11,0,2,0)
  ShowMessageFace("twinkel_fc1",0,0,2,46)
  ShowMessage("\\n<Twinkell>Here, do your best...")
  ShowMessageFace("",0,0,2,47)
  ShowMessage("Twinkell is cheering for everyone!\n...But nobody heard her.")
  EndEventProcessing()
  0()
 EndIf()
 If(1,11,0,3,0)
  ShowMessageFace("twinkel_fc2",4,0,2,48)
  ShowMessage("\\n<Twinkell>Beat down the girl next to me...")
  ShowMessageFace("twinkel_fc3",4,0,2,49)
  ShowMessage("\\n<Twinkell>Tear off the girl next to me...")
  ShowMessageFace("",0,0,2,50)
  ShowMessage("Twinkell is thinking evil thoughts...")
  EndEventProcessing()
  0()
 EndIf()
 If(1,11,0,4,0)
  ShowMessageFace("twinkel_fc1",0,0,2,51)
  ShowMessage("I'll give you this...")
  ShowMessageFace("",0,0,2,52)
  ShowMessage("Twinkell presents a gift!")
  250(bytes(0x04,0x08,0x6f,0x3a,0x0c,0x52,0x50,0x47,0x3a,0x3a,0x53,0x45,0x08,0x3a,0x0a,0x40,0x6e,0x61,0x6d,0x65,0x49,0x22,0x0a,0x49,0x74,0x65,0x6d,0x31,0x06,0x3a,0x06,0x45,0x54,0x3a,0x0b,0x40,0x70,0x69,0x74,0x63,0x68,0x69,0x69,0x3a,0x0c,0x40,0x76,0x6f,0x6c,0x75,0x6d,0x65,0x69,0x55))
  ChangeInventory_Item(394,0,0,1)
  ShowMessageFace("",0,0,2,53)
  ShowMessage("You obtain some \\ii[394]!")
  EndEventProcessing()
  0()
 EndIf()
 If(1,11,0,5,0)
  ShowMessageFace("twinkel_fc1",0,0,2,54)
  ShowMessage("\\n<Twinkell>A present of poison gas...")
  355("interrupt_skill(3304)")
  EndEventProcessing()
  0()
 EndIf()
 0()
EndIf()
If(1,100,0,307,0)
 If(1,11,0,1,0)
  ShowMessageFace("seaanemone_fc1",0,0,2,55)
  ShowMessage("\\n<Anemo>Ufufufu...")
  ShowMessageFace("",0,0,2,56)
  ShowMessage("Anemo is giggling...")
  EndEventProcessing()
  0()
 EndIf()
 If(1,11,0,2,0)
  ShowMessageFace("seaanemone_fc1",0,0,2,57)
  ShowMessage("\\n<Anemo>I'll show you my dance...♪")
  ShowMessageFace("",0,0,2,58)
  ShowMessage("Anemo is dancing a cheerful dance!\n...But nothing happened.")
  EndEventProcessing()
  0()
 EndIf()
 If(1,11,0,3,0)
  ShowMessageFace("seaanemone_fc1",0,0,2,59)
  ShowMessage("\\n<Anemo>I love playing with fire...")
  355("interrupt_skill(3295)")
  EndEventProcessing()
  0()
 EndIf()
 If(1,11,0,4,0)
  ShowMessageFace("seaanemone_fc1",0,0,2,60)
  ShowMessage("\\n<Anemo>Here, please eat this.")
  ShowMessageFace("",0,0,2,61)
  ShowMessage("Anemo presents a gift!")
  250(bytes(0x04,0x08,0x6f,0x3a,0x0c,0x52,0x50,0x47,0x3a,0x3a,0x53,0x45,0x08,0x3a,0x0a,0x40,0x6e,0x61,0x6d,0x65,0x49,0x22,0x0a,0x49,0x74,0x65,0x6d,0x31,0x06,0x3a,0x06,0x45,0x54,0x3a,0x0b,0x40,0x70,0x69,0x74,0x63,0x68,0x69,0x69,0x3a,0x0c,0x40,0x76,0x6f,0x6c,0x75,0x6d,0x65,0x69,0x55))
  ChangeInventory_Item(327,0,0,1)
  ShowMessageFace("",0,0,2,62)
  ShowMessage("You obtain a \\ii[327]!")
  EndEventProcessing()
  0()
 EndIf()
 If(1,11,0,5,0)
  ShowMessageFace("seaanemone_fc1",0,0,2,63)
  ShowMessage("\\n<Anemo>Go somewhere else...")
  355("interrupt_skill(2776)")
  EndEventProcessing()
  0()
 EndIf()
 0()
EndIf()
If(1,100,0,308,0)
 If(1,11,0,1,0)
  ShowMessageFace("suiryu_fc1",0,0,2,64)
  ShowMessage("\\n<Mio>I call upon the waves!")
  355("interrupt_skill(2603)")
  EndEventProcessing()
  0()
 EndIf()
 If(1,11,0,2,0)
  ShowMessageFace("suiryu_fc1",0,0,2,65)
  ShowMessage("\\n<Mio>Ununu...")
  ShowMessageFace("",0,0,2,66)
  ShowMessage("Mio looks confused...")
  EndEventProcessing()
  0()
 EndIf()
 If(1,11,0,3,0)
  ShowMessageFace("suiryu_fc1",1,0,2,67)
  ShowMessage("\\n<Mio>I am a noble dragon of the sea!")
  ShowMessageFace("",0,0,2,68)
  ShowMessage("Mio is practicing her catchphrase...")
  EndEventProcessing()
  0()
 EndIf()
 If(1,11,0,4,0)
  ShowMessageFace("suiryu_fc1",0,0,2,69)
  ShowMessage("\\n<Mio>I shall give you this...")
  ShowMessageFace("",0,0,2,70)
  ShowMessage("Mio presents a gift!")
  250(bytes(0x04,0x08,0x6f,0x3a,0x0c,0x52,0x50,0x47,0x3a,0x3a,0x53,0x45,0x08,0x3a,0x0a,0x40,0x6e,0x61,0x6d,0x65,0x49,0x22,0x0a,0x49,0x74,0x65,0x6d,0x31,0x06,0x3a,0x06,0x45,0x54,0x3a,0x0b,0x40,0x70,0x69,0x74,0x63,0x68,0x69,0x69,0x3a,0x0c,0x40,0x76,0x6f,0x6c,0x75,0x6d,0x65,0x69,0x55))
  ChangeInventory_Item(403,0,0,1)
  ShowMessageFace("",0,0,2,71)
  ShowMessage("You obtain some \\ii[403]!")
  EndEventProcessing()
  0()
 EndIf()
 If(1,11,0,5,0)
  ShowMessageFace("suiryu_fc1",0,0,2,72)
  ShowMessage("\\n<Mio>Fwah! It's shocking!")
  355("interrupt_skill(3308)")
  EndEventProcessing()
  0()
 EndIf()
 0()
EndIf()
If(1,100,0,309,0)
 If(1,11,0,1,0)
  ShowMessageFace("manta_fc1",0,0,2,73)
  ShowMessage("\\n<Ocean>The king of the sea shall now mediate this field!")
  ShowMessageFace("",0,0,2,74)
  ShowMessage("Ocean tries to stop the fight!\nBut no one is listening...")
  EndEventProcessing()
  0()
 EndIf()
 If(1,11,0,2,0)
  ShowMessageFace("manta_fc1",1,0,2,75)
  ShowMessage("\\n<Ocean>............")
  ShowMessageFace("",0,0,2,76)
  ShowMessage("Ocean makes a sidelong glance...\nHowever, it appeared to be more like a glare!")
  EndEventProcessing()
  0()
 EndIf()
 If(1,11,0,3,0)
  ShowMessageFace("manta_fc1",0,0,2,77)
  ShowMessage("\\n<Ocean>Men these days are truly frail...")
  ShowMessageFace("",0,0,2,78)
  ShowMessage("Ocean began preaching!\n...But nobody was listening.")
  EndEventProcessing()
  0()
 EndIf()
 If(1,11,0,4,0)
  ShowMessageFace("manta_fc1",1,0,2,79)
  ShowMessage("\\n<Ocean>Eat this so you can get bigger.")
  ShowMessageFace("",0,0,2,80)
  ShowMessage("Ocean presents a gift!")
  250(bytes(0x04,0x08,0x6f,0x3a,0x0c,0x52,0x50,0x47,0x3a,0x3a,0x53,0x45,0x08,0x3a,0x0a,0x40,0x6e,0x61,0x6d,0x65,0x49,0x22,0x0a,0x49,0x74,0x65,0x6d,0x31,0x06,0x3a,0x06,0x45,0x54,0x3a,0x0b,0x40,0x70,0x69,0x74,0x63,0x68,0x69,0x69,0x3a,0x0c,0x40,0x76,0x6f,0x6c,0x75,0x6d,0x65,0x69,0x55))
  ChangeInventory_Item(405,0,0,1)
  ShowMessageFace("",0,0,2,81)
  ShowMessage("You obtain a \\ii[405]!")
  EndEventProcessing()
  0()
 EndIf()
 If(1,11,0,5,0)
  ShowMessageFace("manta_fc1",0,0,2,82)
  ShowMessage("\\n<Ocean>Ohhhh!!")
  355("interrupt_skill(3294)")
  EndEventProcessing()
  0()
 EndIf()
 0()
EndIf()
If(1,100,0,310,0)
 If(1,11,0,1,0)
  ShowMessageFace("ikkaku_fc1",0,0,2,83)
  ShowMessage("\\n<Horn>............")
  ShowMessageFace("",0,0,2,84)
  ShowMessage("Horn is staring blankly...")
  EndEventProcessing()
  0()
 EndIf()
 If(1,11,0,2,0)
  ShowMessageFace("ikkaku_fc1",0,0,2,85)
  ShowMessage("\\n<Horn>I'll call forth a tsunami...!")
  355("interrupt_skill(2603)")
  EndEventProcessing()
  0()
 EndIf()
 If(1,11,0,3,0)
  ShowMessageFace("ikkaku_fc1",1,0,2,86)
  ShowMessage("\\n<Horn>I'm going to rest a little...")
  313(0,310,0,11)
  ShowMessageFace("",0,0,2,87)
  ShowMessage("Horn fell asleep...")
  EndEventProcessing()
  0()
 EndIf()
 If(1,11,0,4,0)
  ShowMessageFace("ikkaku_fc1",0,0,2,88)
  ShowMessage("\\n<Horn>I'll give you this.\nIt has nothing to do with me...")
  ShowMessageFace("",0,0,2,89)
  ShowMessage("Horn presents a gift!")
  250(bytes(0x04,0x08,0x6f,0x3a,0x0c,0x52,0x50,0x47,0x3a,0x3a,0x53,0x45,0x08,0x3a,0x0a,0x40,0x6e,0x61,0x6d,0x65,0x49,0x22,0x0a,0x49,0x74,0x65,0x6d,0x31,0x06,0x3a,0x06,0x45,0x54,0x3a,0x0b,0x40,0x70,0x69,0x74,0x63,0x68,0x69,0x69,0x3a,0x0c,0x40,0x76,0x6f,0x6c,0x75,0x6d,0x65,0x69,0x55))
  ChangeInventory_Item(328,0,0,1)
  ShowMessageFace("",0,0,2,90)
  ShowMessage("You obtain an \\ii[328]!")
  EndEventProcessing()
  0()
 EndIf()
 If(1,11,0,5,0)
  ShowMessageFace("ikkaku_fc1",0,0,2,91)
  ShowMessage("\\n<Horn>All right, let's do this!")
  355("interrupt_skill(3294)")
  EndEventProcessing()
  0()
 EndIf()
 0()
EndIf()
0()
