﻿// EVENT 5827
Name "R半夢魔"

If(0,443,0)
 PictureDisplay(5,"80_succubusj_st01",0,0,0,0,100,100,255,0)
 0()
EndIf()
242(1)
250(bytes(0x04,0x08,0x6f,0x3a,0x0c,0x52,0x50,0x47,0x3a,0x3a,0x53,0x45,0x08,0x3a,0x0a,0x40,0x6e,0x61,0x6d,0x65,0x49,0x22,0x0a,0x7a,0x69,0x68,0x6f,0x75,0x06,0x3a,0x06,0x45,0x54,0x3a,0x0b,0x40,0x70,0x69,0x74,0x63,0x68,0x69,0x69,0x3a,0x0c,0x40,0x76,0x6f,0x6c,0x75,0x6d,0x65,0x69,0x55))
Wait(60)
ShowMessageFace("",0,0,2,1)
ShowMessage("その時――城内に、五時の鐘が鳴り響いた。")
241(bytes(0x04,0x08,0x6f,0x3a,0x0d,0x52,0x50,0x47,0x3a,0x3a,0x42,0x47,0x4d,0x08,0x3a,0x0a,0x40,0x6e,0x61,0x6d,0x65,0x49,0x22,0x09,0x65,0x72,0x6f,0x31,0x06,0x3a,0x06,0x45,0x54,0x3a,0x0c,0x40,0x76,0x6f,0x6c,0x75,0x6d,0x65,0x69,0x69,0x3a,0x0b,0x40,0x70,0x69,0x74,0x63,0x68,0x69,0x69))
ShowMessageFace("succubusj_fc1",0,0,2,2)
ShowMessage("【アヤネ】")
ShowMessage("ねぇねぇ……あたしのおっぱい、見てるだけでいいの？")
ShowMessage("もっとイイ事、したくない？")
ShowMessageFace("succubusj_fc1",0,0,2,3)
ShowMessage("【アヤネ】")
ShowMessage("おちんちん、大きくなっちゃってるんでしょ？")
ShowMessage("見せてくれたら、挟んであげてもいいんだけどな～♪")
ShowMessageFace("",0,0,2,4)
ShowMessage("【ルカ】")
ShowMessage("あ、あぁぁ……")
ShowMessageFace("",0,0,2,5)
ShowMessage("アヤネにずっとおっぱいを見せつけられ――")
ShowMessage("僕の我慢も、もはや限界に達していた。")
ShowMessageFace("",0,0,2,6)
ShowMessage("言われるがまま下着を下ろし、大きくなったペニスを差し出す――")
ShowMessage("すると、アヤネはにんまりと笑った。")
ShowMessageFace("succubusj_fc1",0,0,2,7)
ShowMessage("【アヤネ】")
ShowMessage("あはっ、そんなに挟んでほしいんだ～♪")
ShowMessage("それじゃあ、お望み通り……")
PictureDisplay(5,"ev_succubusj_hb1",0,0,0,0,100,100,255,0)
ShowMessageFace("succubusj_fc1",0,0,2,8)
ShowMessage("【アヤネ】")
ShowMessage("……むぎゅっ♪")
ShowMessageFace("",0,0,2,9)
ShowMessage("アヤネの豊満なおっぱいに、僕のモノが挟み込まれる。")
ShowMessage("とろけそうな温もりと、艶めかしい柔らかさに包まれた――")
ShowMessageFace("succubusj_fc1",0,0,2,10)
ShowMessage("【アヤネ】")
ShowMessage("あははっ、ずっとこうされたかったんでしょ？")
ShowMessage("あたしのおっぱい、柔らかいね～♪")
ShowMessageFace("",0,0,2,11)
ShowMessage("【ルカ】")
ShowMessage("あ……うぅぅっ……")
ShowMessageFace("",0,0,2,12)
ShowMessage("ペニスが見えなくなるほど、おっぱいの谷間に埋もれてしまっている。")
ShowMessage("弾力と柔らかさが、みっちりと肉棒をとろけさせ――")
ShowMessageFace("",0,0,2,13)
ShowMessage("【ルカ】")
ShowMessage("出ちゃう……あ、あぁぁっ！！")
ShowMessageFace("succubusj_fc1",0,0,2,14)
ShowMessage("【アヤネ】")
ShowMessage("あははっ、早いよ～♪")
ShowMessageFace("",0,0,2,15)
ShowMessage("さっきまで散々に焦らされ、我慢する事はできなかった。")
ShowMessage("おっぱいに囚われたペニスが、ひくひくと脈動し――")
RunCommonEvent(104)
RunCommonEvent(105)
ShowMessageFace("",0,0,2,16)
ShowMessage("そして、胸の谷間へと大量の精液を発射する。")
ShowMessage("白濁液は谷間から溢れ、ねっとりとおっぱいを汚してしまった――")
ShowMessageFace("succubusj_fc1",0,0,2,17)
ShowMessage("【アヤネ】")
ShowMessage("ふふ……もう漏らしちゃったんだ。")
ShowMessage("キミのおちんちん、よわ～い♪")
ShowMessageFace("succubusj_fc1",0,0,2,18)
ShowMessage("【アヤネ】")
ShowMessage("そんなよわよわおちんちんはぁ……")
ShowMessage("おっぱいで、もっといじめちゃいま～す♪")
ShowMessageFace("",0,0,2,19)
ShowMessage("【ルカ】")
ShowMessage("あ……はぅぅぅぅっ！！")
245(bytes(0x04,0x08,0x6f,0x3a,0x0d,0x52,0x50,0x47,0x3a,0x3a,0x42,0x47,0x53,0x08,0x3a,0x0a,0x40,0x6e,0x61,0x6d,0x65,0x49,0x22,0x17,0x6d,0x6f,0x6e,0x5f,0x68,0x73,0x65,0x61,0x6e,0x31,0x37,0x5f,0x73,0x69,0x67,0x6f,0x6b,0x69,0x06,0x3a,0x06,0x45,0x54,0x3a,0x0c,0x40,0x76,0x6f,0x6c,0x75,0x6d,0x65,0x69,0x55,0x3a,0x0b,0x40,0x70,0x69,0x74,0x63,0x68,0x69,0x69))
ShowMessageFace("",0,0,2,20)
ShowMessage("アヤネは、左右からおっぱいでぎゅっとペニスを押し潰してきた。")
ShowMessage("柔らかな乳肉での圧迫は、甘い締め付け刺激を生み出す。")
ShowMessageFace("",0,0,2,21)
ShowMessage("そのまま、左右の乳房を交互に上下させれば――")
ShowMessage("ペニスを揉み潰すような、極上の快感が与えられた。")
ShowMessageFace("",0,0,2,22)
ShowMessage("【ルカ】")
ShowMessage("はぅ……！　あぁぁ……うぅっ……！")
ShowMessageFace("succubusj_fc1",0,0,2,23)
ShowMessage("【アヤネ】")
ShowMessage("あははっ、おっぱい気持ちいいよね～？")
ShowMessage("またイっちゃえ～♪")
ShowMessageFace("",0,0,2,24)
ShowMessage("柔らかく締め付け、上下にこね回し――")
ShowMessage("たぷたぷ、ずりずりとペニスが乳内で弄ばれ――")
ShowMessageFace("",0,0,2,25)
ShowMessage("【ルカ】")
ShowMessage("あ……はぅぅぅっ！！")
RunCommonEvent(104)
RunCommonEvent(105)
ShowMessageFace("",0,0,2,26)
ShowMessage("あっという間に、二度目の射精へと追い込まれてしまった。")
ShowMessage("大量の精液が、どぷどぷと谷間から溢れてくる――")
ShowMessageFace("succubusj_fc1",0,0,2,27)
ShowMessage("【アヤネ】")
ShowMessage("あはっ、いっぱい出しちゃったね～♪")
ShowMessage("もっともっと、おっぱいに精液出しちゃおうか……")
ShowMessageFace("",0,0,2,28)
ShowMessage("【ルカ】")
ShowMessage("そんな……あぁぁぁ……")
ShowMessageFace("succubusj_fc1",0,0,2,29)
ShowMessage("【アヤネ】")
ShowMessage("ほ～ら、ずりずりずり～♪")
ShowMessageFace("",0,0,2,30)
ShowMessage("【ルカ】")
ShowMessage("はぅぅぅぅぅ～～！！")
RunCommonEvent(104)
RunCommonEvent(105)
ShowMessageFace("",0,0,2,31)
ShowMessage("こうして僕は、アヤネのおっぱいでひたすらに嫐り尽くされた。")
ShowMessage("パイズリ地獄の果てに、数え切れないくらい射精させられ――")
ShowMessageFace("",0,0,2,32)
ShowMessage("そして、アヤネのおっぱいが大量の精液でドロドロになる頃には――")
ShowMessage("僕は精を出し尽くし、意識を失ってしまったのである。")
221()
PictureClear(5)
242(1)
246(1)
ShowMessageFace("",0,0,2,33)
ShowMessage("・・・・・・・・")
221()
Wait(120)
If(0,443,0)
 EndEventProcessing()
 0()
EndIf()
RunCommonEvent(541)
0()
