﻿// EVENT 5815
Name "Rリリスリリム"

If(0,443,0)
 PictureDisplay(5,"80_lilith_st01",0,0,0,0,100,100,255,0)
 0()
EndIf()
242(1)
250(bytes(0x04,0x08,0x6f,0x3a,0x0c,0x52,0x50,0x47,0x3a,0x3a,0x53,0x45,0x08,0x3a,0x0a,0x40,0x6e,0x61,0x6d,0x65,0x49,0x22,0x0a,0x7a,0x69,0x68,0x6f,0x75,0x06,0x3a,0x06,0x45,0x54,0x3a,0x0b,0x40,0x70,0x69,0x74,0x63,0x68,0x69,0x69,0x3a,0x0c,0x40,0x76,0x6f,0x6c,0x75,0x6d,0x65,0x69,0x55))
Wait(60)
ShowMessageFace("",0,0,2,1)
ShowMessage("その時――城内に、五時の鐘が鳴り響いた。")
241(bytes(0x04,0x08,0x6f,0x3a,0x0d,0x52,0x50,0x47,0x3a,0x3a,0x42,0x47,0x4d,0x08,0x3a,0x0a,0x40,0x6e,0x61,0x6d,0x65,0x49,0x22,0x09,0x65,0x72,0x6f,0x31,0x06,0x3a,0x06,0x45,0x54,0x3a,0x0c,0x40,0x76,0x6f,0x6c,0x75,0x6d,0x65,0x69,0x69,0x3a,0x0b,0x40,0x70,0x69,0x74,0x63,0x68,0x69,0x69))
ShowMessageFace("lilith_fc1",0,0,2,2)
ShowMessage("【リリス】")
ShowMessage("それじゃあ、負けたあなたには罰ゲームよ……")
ShowMessageFace("lilith_fc1",0,0,2,3)
ShowMessage("【リリス】")
ShowMessage("うふふっ、ヌルヌルになりなさい……")
ShowMessageFace("",0,0,2,4)
ShowMessage("【ルカ】")
ShowMessage("や、やめ――あぁぁぁ……")
ShowMessageFace("",0,0,2,5)
ShowMessage("僕の体に、二人の裸身が妖しく絡み付いてきて――")
245(bytes(0x04,0x08,0x6f,0x3a,0x0d,0x52,0x50,0x47,0x3a,0x3a,0x42,0x47,0x53,0x08,0x3a,0x0a,0x40,0x6e,0x61,0x6d,0x65,0x49,0x22,0x1e,0x6d,0x6f,0x6e,0x5f,0x68,0x73,0x65,0x61,0x6e,0x30,0x33,0x5f,0x69,0x6e,0x6e,0x65,0x72,0x77,0x6f,0x72,0x6b,0x73,0x5f,0x61,0x33,0x06,0x3a,0x06,0x45,0x54,0x3a,0x0c,0x40,0x76,0x6f,0x6c,0x75,0x6d,0x65,0x69,0x55,0x3a,0x0b,0x40,0x70,0x69,0x74,0x63,0x68,0x69,0x69))
PictureDisplay(5,"ev_lilith_hc1",0,0,0,0,100,100,255,0)
ShowMessageFace("",0,0,2,6)
ShowMessage("たちまち、ぬめった女体に密着されてしまった。")
ShowMessage("ヌルヌルで温かな感触が、僕を極楽に誘ってくる――")
ShowMessageFace("",0,0,2,7)
ShowMessage("【ルカ】")
ShowMessage("ふぁ……あぁぁ……")
ShowMessageFace("lilith_fc1",0,0,2,8)
ShowMessage("【リリス】")
ShowMessage("うふふっ……もう天国にイっちゃったようね……")
ShowMessageFace("lilith_fc1",0,0,2,9)
ShowMessage("【リリム】")
ShowMessage("私達の汗にまみれたら、こうなるのも仕方ないわ……")
ShowMessage("さあ、たっぷりと可愛がってあげる……")
ShowMessageFace("",0,0,2,10)
ShowMessage("リリスの太股が、ペニスをぎゅっと挟み込んだ。")
ShowMessage("そのまま、みっちりと締め付けられてしまう――")
ShowMessageFace("",0,0,2,11)
ShowMessage("【ルカ】")
ShowMessage("あぁぁ……きもちいい……")
ShowMessageFace("",0,0,2,12)
ShowMessage("ペニスだけではなく、全身に与えられるヌルヌルの愛撫。")
ShowMessage("温かくぬめった女体に埋もれ、僕は恍惚に浸り――")
RunCommonEvent(104)
RunCommonEvent(105)
ShowMessageFace("",0,0,2,13)
ShowMessage("【ルカ】")
ShowMessage("ふぁぁぁ……")
ShowMessageFace("",0,0,2,14)
ShowMessage("そして、あっけなく漏らしてしまった。")
ShowMessage("あまりの気持ち良さに、頭の中までとろけてしまいそうだ――")
ShowMessageFace("lilith_fc1",0,0,2,15)
ShowMessage("【リリス】")
ShowMessage("うふふっ、イっちゃった……")
ShowMessageFace("lilith_fc1",0,0,2,16)
ShowMessage("【リリム】")
ShowMessage("もっともっと、出しなさい……")
ShowMessage("私達のヌルヌルに溺れて……ね。")
ShowMessageFace("",0,0,2,17)
ShowMessage("【ルカ】")
ShowMessage("はぅ……あぅぅぅ……")
RunCommonEvent(104)
RunCommonEvent(105)
ShowMessageFace("",0,0,2,18)
ShowMessage("こうして僕は、リリスとリリムに絡み付かれ――")
ShowMessage("何度も何度も、意識を失うまで絶頂した。")
ShowMessageFace("",0,0,2,19)
ShowMessage("ぬるぬるの感触の中で、最後の一滴まで出し尽くし――")
ShowMessage("うっとりとした心地のまま、昇天してしまったのである――")
221()
PictureClear(5)
242(1)
246(1)
ShowMessageFace("",0,0,2,20)
ShowMessage("・・・・・・・・")
221()
Wait(120)
If(0,443,0)
 EndEventProcessing()
 0()
EndIf()
RunCommonEvent(541)
0()
