// EVENT 1133
Name "Talk: Gnome"

If(1,20,0,1,0)
 JumpToLabel("情報")
 0()
EndIf()
If(1,20,0,2,0)
 JumpToLabel("質問")
 0()
EndIf()
If(1,20,0,3,0)
 JumpToLabel("要求")
 0()
EndIf()
If(1,20,0,4,0)
 JumpToLabel("贈与")
 0()
EndIf()
DefineLabel("情報")
ChangeVariable(13,13,0,2,1,50)
If(1,13,0,10,2)
 ShowMessageFace("gnome_fc1",0,0,2,1)
 ShowMessage("\\n<Gnome>......")
 EndEventProcessing()
 0()
EndIf()
If(1,13,0,20,2)
 ShowMessageFace("gnome_fc1",0,0,2,2)
 ShowMessage("\\n<Gnome>......!?")
 EndEventProcessing()
 0()
EndIf()
If(1,13,0,30,2)
 ShowMessageFace("gnome_fc1",0,0,2,3)
 ShowMessage("\\n<Gnome>......!!")
 EndEventProcessing()
 0()
EndIf()
If(1,13,0,40,2)
 ShowMessageFace("gnome_fc1",0,0,2,4)
 ShowMessage("\\n<Gnome>......?")
 EndEventProcessing()
 0()
EndIf()
If(1,13,0,50,2)
 ShowMessageFace("gnome_fc1",0,0,2,5)
 ShowMessage("\\n<Gnome>......")
 ShowMessageFace("",0,0,2,6)
 ShowMessage("Gnome is swinging her arms around!")
 EndEventProcessing()
 0()
EndIf()
DefineLabel("質問")
ChangeVariable(13,13,0,2,1,30)
If(1,13,0,10,2)
 ShowMessageFace("gnome_fc1",0,0,2,7)
 ShowMessage("\\n<Gnome>......")
 ShowMessageFace("",0,0,2,8)
 ShowMessage("Gnome is staring...")
 ShowChoices(strings("Respond with a gentle look","Threaten her with your eyes","Look away"),0)
 IfPlayerPicksChoice(0,"優しい目で応じる")
  ShowMessageFace("gnome_fc1",0,0,2,9)
  ShowMessage("\\n<Gnome>......")
  ShowMessageFace("",0,0,2,10)
  ShowMessage("It seems like your hearts spoke to each other.")
  355("change_friend(10)")
  0()
 IfPlayerPicksChoice(1,"目で威嚇する")
  ShowMessageFace("gnome_fc1",1,0,2,11)
  ShowMessage("\\n<Gnome>......")
  ShowMessageFace("",0,0,2,12)
  ShowMessage("Gnome looked away...")
  355("change_friend(-5)")
  0()
 IfPlayerPicksChoice(2,"目を逸らす")
  ShowMessageFace("gnome_fc1",0,0,2,13)
  ShowMessage("\\n<Gnome>......")
  ShowMessageFace("",0,0,2,14)
  ShowMessage("Gnome is staring...")
  0()
 404()
 EndEventProcessing()
 0()
EndIf()
If(1,13,0,20,2)
 ShowMessageFace("gnome_fc1",0,0,2,15)
 ShowMessage("\\n<Gnome>......")
 ShowMessageFace("",0,0,2,16)
 ShowMessage("It seems Gnome wants to be praised.")
 ShowChoices(strings("Compliment her hat","Compliment her eyes","Compliment her breasts","Don't compliment her"),0)
 IfPlayerPicksChoice(0,"帽子をほめる")
  ShowMessageFace("ruka_fc1",0,0,2,17)
  ShowMessage("\\n<Luka>That hat's cute.")
  ShowMessageFace("gnome_fc1",0,0,2,18)
  ShowMessage("\\n<Gnome>......")
  ShowMessageFace("",0,0,2,19)
  ShowMessage("Gnome looks happy!")
  355("change_friend(10)")
  0()
 IfPlayerPicksChoice(1,"瞳をほめる")
  ShowMessageFace("ruka_fc1",0,0,2,20)
  ShowMessage("\\n<Luka>The color of your eyes is beautiful.")
  ShowMessageFace("gnome_fc1",0,0,2,21)
  ShowMessage("\\n<Gnome>......")
  ShowMessageFace("",0,0,2,22)
  ShowMessage("Gnome looks happy!")
  355("change_friend(10)")
  0()
 IfPlayerPicksChoice(2,"おっぱいをほめる")
  ShowMessageFace("ruka_fc1",0,0,2,23)
  ShowMessage("\\n<Luka>Your breasts are so small.")
  ShowMessageFace("gnome_fc1",0,0,2,24)
  ShowMessage("\\n<Gnome>......")
  ShowMessageFace("",0,0,2,25)
  ShowMessage("Gnome got angry!")
  355("change_friend(-5)")
  0()
 IfPlayerPicksChoice(3,"ほめない")
  ShowMessageFace("gnome_fc1",0,0,2,26)
  ShowMessage("\\n<Gnome>......")
  ShowMessageFace("",0,0,2,27)
  ShowMessage("It seems Gnome wants to be praised.")
  0()
 404()
 EndEventProcessing()
 0()
EndIf()
If(1,13,0,30,2)
 ShowMessageFace("gnome_fc1",0,0,2,28)
 ShowMessage("\\n<Gnome>......")
 ShowMessageFace("",0,0,2,29)
 ShowMessage("Gnome is slapping the air...")
 ShowChoices(strings("Watch her closely","Imitate her","Hold out your head","Hold out Sylph"),0)
 IfPlayerPicksChoice(0,"様子を見る")
  ShowMessageFace("gnome_fc1",0,0,2,30)
  ShowMessage("\\n<Gnome>......")
  ShowMessageFace("",0,0,2,31)
  ShowMessage("Gnome is slapping the air...")
  0()
 IfPlayerPicksChoice(1,"真似をしてみる")
  ShowMessageFace("gnome_fc1",0,0,2,32)
  ShowMessage("\\n<Gnome>......!!")
  ShowMessageFace("",0,0,2,33)
  ShowMessage("As if competing, Gnome swung with greater intensity!")
  ShowMessageFace("gnome_fc1",1,0,2,34)
  ShowMessage("\\n<Gnome>......")
  ShowMessageFace("",0,0,2,35)
  ShowMessage("She looks tired...")
  0()
 IfPlayerPicksChoice(2,"頭を差し出してみる")
  ShowMessageFace("ruka_fc1",0,0,2,36)
  ShowMessage("\\n<Luka>Gah!")
  ChangeVariable(26,26,0,3,3,1,4)
  ChangeVariable(26,26,4,0,10)
  311(0,1,1,1,26,true)
  ShowMessageFace("",0,0,2,37)
  ShowMessage("Luka was slapped!\\D")
  ShowMessage("Luka takes \\V[26] damage!")
  355("change_friend(10)")
  0()
 IfPlayerPicksChoice(3,"シルフを差し出してみる")
  ShowMessageFace("sylph_fc1",7,0,2,38)
  ShowMessage("\\n<Sylph>Gyah!")
  ChangeVariable(26,26,0,3,3,12,4)
  ChangeVariable(26,26,4,0,10)
  311(0,12,1,1,26,true)
  ShowMessageFace("",0,0,2,39)
  ShowMessage("Sylph was slapped!\\D")
  ShowMessage("Sylph takes \\V[26] damage!")
  355("change_friend(10)")
  0()
 404()
 EndEventProcessing()
 0()
EndIf()
DefineLabel("要求")
ChangeVariable(13,13,0,2,1,30)
If(1,13,0,10,2)
 If(8,449)
  ShowMessageFace("gnome_fc1",0,0,2,40)
  ShowMessage("\\n<Gnome>......")
  ShowMessageFace("",0,0,2,41)
  ShowMessage("Gnome seems interested in your rock...")
  ChangeVariable(24,24,0,3,0,449,0)
  ShowMessageFace("",0,0,2,42)
  ShowMessage("Do you want to give a \\ii[449]? (Have:\\V[24])")
  ShowChoices(strings("Yes","No"),2)
  IfPlayerPicksChoice(0,"Yes")
   ShowMessageFace("gnome_fc1",0,0,2,43)
   ShowMessage("\\n<Gnome>......")
   ShowMessageFace("",0,0,2,44)
   ShowMessage("Gnome seems happy.")
   ChangeInventory_Item(449,1,0,1)
   355("change_friend(20)")
   EndEventProcessing()
   0()
  IfPlayerPicksChoice(1,"No")
   ShowMessageFace("gnome_fc1",1,0,2,45)
   ShowMessage("\\n<Gnome>......")
   ShowMessageFace("",0,0,2,46)
   ShowMessage("Gnome seems disappointed...")
   EndEventProcessing()
   0()
  404()
  0()
 Else()
  ChangeVariable(13,13,0,0,20)
  0()
 EndIf()
 0()
EndIf()
If(1,13,0,20,2)
 If(8,361)
  ShowMessageFace("gnome_fc1",0,0,2,47)
  ShowMessage("\\n<Gnome>......")
  ShowMessageFace("",0,0,2,48)
  ShowMessage("Gnome seems interested in your rice ball...")
  ChangeVariable(24,24,0,3,0,361,0)
  ShowMessageFace("",0,0,2,49)
  ShowMessage("Do you want to give a \\ii[361]? (Have:\\V[24])")
  ShowChoices(strings("Yes","No"),2)
  IfPlayerPicksChoice(0,"Yes")
   ShowMessageFace("gnome_fc1",0,0,2,50)
   ShowMessage("\\n<Gnome>......")
   ShowMessageFace("",0,0,2,51)
   ShowMessage("Gnome seems happy.")
   ChangeInventory_Item(361,1,0,1)
   355("change_friend(30)")
   EndEventProcessing()
   0()
  IfPlayerPicksChoice(1,"No")
   ShowMessageFace("gnome_fc1",1,0,2,52)
   ShowMessage("\\n<Gnome>......")
   ShowMessageFace("",0,0,2,53)
   ShowMessage("Gnome seems disappointed...")
   EndEventProcessing()
   0()
  404()
  0()
 Else()
  ChangeVariable(13,13,0,0,30)
  0()
 EndIf()
 0()
EndIf()
If(1,13,0,30,2)
 ShowMessageFace("gnome_fc1",0,0,2,54)
 ShowMessage("\\n<Gnome>......")
 ShowMessageFace("",0,0,2,55)
 ShowMessage("Gnome seems interested in money...")
 If(7,1500,0)
  ChangeVariable(24,24,0,3,7,2,0)
  ShowMessageFace("",0,0,2,56)
  ShowMessage("Do you want to give 1500G? (Remaining: \\V[24])")
  ShowChoices(strings("Yes","No"),2)
  IfPlayerPicksChoice(0,"Yes")
   ShowMessageFace("gnome_fc1",0,0,2,57)
   ShowMessage("\\n<Gnome>......")
   ShowMessageFace("",0,0,2,58)
   ShowMessage("Gnome seems happy.")
   125(1,0,1500)
   355("change_friend(25)")
   EndEventProcessing()
   0()
  IfPlayerPicksChoice(1,"No")
   ShowMessageFace("gnome_fc1",1,0,2,59)
   ShowMessage("\\n<Gnome>......")
   ShowMessageFace("",0,0,2,60)
   ShowMessage("Gnome seems disappointed...")
   EndEventProcessing()
   0()
  404()
  0()
 Else()
  ShowMessageFace("",0,0,2,61)
  ShowMessage("But you don't have enough money to give to Gnome!")
  EndEventProcessing()
  0()
 EndIf()
 0()
EndIf()
DefineLabel("贈与")
ChangeVariable(13,13,0,2,1,30)
If(1,25,0,1,0)
 ChangeVariable(13,13,0,0,30)
 ChangeVariable(25,25,0,0,0)
 0()
EndIf()
If(1,25,0,2,0)
 ChangeVariable(13,13,0,2,1,20)
 ChangeVariable(25,25,0,0,0)
 0()
EndIf()
If(1,13,0,10,2)
 ShowMessageFace("gnome_fc1",0,0,2,62)
 ShowMessage("\\n<Gnome>......")
 ShowMessageFace("",0,0,2,63)
 ShowMessage("Gnome offers you a magic stone.")
 250(bytes(0x04,0x08,0x6f,0x3a,0x0c,0x52,0x50,0x47,0x3a,0x3a,0x53,0x45,0x08,0x3a,0x0a,0x40,0x6e,0x61,0x6d,0x65,0x49,0x22,0x0a,0x49,0x74,0x65,0x6d,0x31,0x06,0x3a,0x06,0x45,0x54,0x3a,0x0b,0x40,0x70,0x69,0x74,0x63,0x68,0x69,0x69,0x3a,0x0c,0x40,0x76,0x6f,0x6c,0x75,0x6d,0x65,0x69,0x55))
 ChangeInventory_Item(68,0,0,1)
 ShowMessageFace("",0,0,2,64)
 ShowMessage("Gnome gave you an \\ii[68]!")
 EndEventProcessing()
 0()
EndIf()
If(1,13,0,20,2)
 ShowMessageFace("gnome_fc1",0,0,2,65)
 ShowMessage("\\n<Gnome>......")
 ShowMessageFace("",0,0,2,66)
 ShowMessage("Gnome offers you an axe that was buried in the sand.")
 250(bytes(0x04,0x08,0x6f,0x3a,0x0c,0x52,0x50,0x47,0x3a,0x3a,0x53,0x45,0x08,0x3a,0x0a,0x40,0x6e,0x61,0x6d,0x65,0x49,0x22,0x0a,0x49,0x74,0x65,0x6d,0x31,0x06,0x3a,0x06,0x45,0x54,0x3a,0x0b,0x40,0x70,0x69,0x74,0x63,0x68,0x69,0x69,0x3a,0x0c,0x40,0x76,0x6f,0x6c,0x75,0x6d,0x65,0x69,0x55))
 ChangeInventoryWeapon(378,0,0,1,false)
 ShowMessageFace("",0,0,2,67)
 ShowMessage("Gnome gave you a \\iw[378]!")
 EndEventProcessing()
 0()
EndIf()
If(1,13,0,30,2)
 ShowMessageFace("gnome_fc1",0,0,2,68)
 ShowMessage("\\n<Gnome>......")
 ShowMessageFace("",0,0,2,69)
 ShowMessage("Gnome offers you some coins.")
 250(bytes(0x04,0x08,0x6f,0x3a,0x0c,0x52,0x50,0x47,0x3a,0x3a,0x53,0x45,0x08,0x3a,0x0a,0x40,0x6e,0x61,0x6d,0x65,0x49,0x22,0x0a,0x49,0x74,0x65,0x6d,0x31,0x06,0x3a,0x06,0x45,0x54,0x3a,0x0b,0x40,0x70,0x69,0x74,0x63,0x68,0x69,0x69,0x3a,0x0c,0x40,0x76,0x6f,0x6c,0x75,0x6d,0x65,0x69,0x55))
 125(0,0,2500)
 ShowMessageFace("",0,0,2,70)
 ShowMessage("Gnome gave you 2500G!")
 EndEventProcessing()
 0()
EndIf()
0()
