﻿
DisplayName "Pocket Castle Front Gate"



EVENT   1
 PAGE   1
  250(bytes(0x04,0x08,0x6f,0x3a,0x0c,0x52,0x50,0x47,0x3a,0x3a,0x53,0x45,0x08,0x3a,0x0a,0x40,0x6e,0x61,0x6d,0x65,0x49,0x22,0x0b,0x45,0x61,0x72,0x74,0x68,0x34,0x06,0x3a,0x06,0x45,0x54,0x3a,0x0b,0x40,0x70,0x69,0x74,0x63,0x68,0x69,0x69,0x3a,0x0c,0x40,0x76,0x6f,0x6c,0x75,0x6d,0x65,0x69,0x55))
  205(0,bytes(0x04,0x08,0x6f,0x3a,0x13,0x52,0x50,0x47,0x3a,0x3a,0x4d,0x6f,0x76,0x65,0x52,0x6f,0x75,0x74,0x65,0x09,0x3a,0x0c,0x40,0x72,0x65,0x70,0x65,0x61,0x74,0x46,0x3a,0x0f,0x40,0x73,0x6b,0x69,0x70,0x70,0x61,0x62,0x6c,0x65,0x46,0x3a,0x0a,0x40,0x77,0x61,0x69,0x74,0x54,0x3a,0x0a,0x40,0x6c,0x69,0x73,0x74,0x5b,0x0c,0x6f,0x3a,0x15,0x52,0x50,0x47,0x3a,0x3a,0x4d,0x6f,0x76,0x65,0x43,0x6f,0x6d,0x6d,0x61,0x6e,0x64,0x07,0x3a,0x0a,0x40,0x63,0x6f,0x64,0x65,0x69,0x16,0x3a,0x10,0x40,0x70,0x61,0x72,0x61,0x6d,0x65,0x74,0x65,0x72,0x73,0x5b,0x00,0x6f,0x3b,0x0a,0x07,0x3b,0x0b,0x69,0x14,0x3b,0x0c,0x5b,0x06,0x69,0x08,0x6f,0x3b,0x0a,0x07,0x3b,0x0b,0x69,0x17,0x3b,0x0c,0x5b,0x00,0x6f,0x3b,0x0a,0x07,0x3b,0x0b,0x69,0x14,0x3b,0x0c,0x5b,0x06,0x69,0x08,0x6f,0x3b,0x0a,0x07,0x3b,0x0b,0x69,0x18,0x3b,0x0c,0x5b,0x00,0x6f,0x3b,0x0a,0x07,0x3b,0x0b,0x69,0x2a,0x3b,0x0c,0x5b,0x00,0x6f,0x3b,0x0a,0x07,0x3b,0x0b,0x69,0x00,0x3b,0x0c,0x5b,0x00))
  205(-1,bytes(0x04,0x08,0x6f,0x3a,0x13,0x52,0x50,0x47,0x3a,0x3a,0x4d,0x6f,0x76,0x65,0x52,0x6f,0x75,0x74,0x65,0x09,0x3a,0x0c,0x40,0x72,0x65,0x70,0x65,0x61,0x74,0x46,0x3a,0x0f,0x40,0x73,0x6b,0x69,0x70,0x70,0x61,0x62,0x6c,0x65,0x54,0x3a,0x0a,0x40,0x77,0x61,0x69,0x74,0x54,0x3a,0x0a,0x40,0x6c,0x69,0x73,0x74,0x5b,0x07,0x6f,0x3a,0x15,0x52,0x50,0x47,0x3a,0x3a,0x4d,0x6f,0x76,0x65,0x43,0x6f,0x6d,0x6d,0x61,0x6e,0x64,0x07,0x3a,0x0a,0x40,0x63,0x6f,0x64,0x65,0x69,0x11,0x3a,0x10,0x40,0x70,0x61,0x72,0x61,0x6d,0x65,0x74,0x65,0x72,0x73,0x5b,0x00,0x6f,0x3b,0x0a,0x07,0x3b,0x0b,0x69,0x00,0x3b,0x0c,0x5b,0x00))
  281(0)
  250(bytes(0x04,0x08,0x6f,0x3a,0x0c,0x52,0x50,0x47,0x3a,0x3a,0x53,0x45,0x08,0x3a,0x0a,0x40,0x6e,0x61,0x6d,0x65,0x49,0x22,0x09,0x4d,0x6f,0x76,0x65,0x06,0x3a,0x06,0x45,0x54,0x3a,0x0b,0x40,0x70,0x69,0x74,0x63,0x68,0x69,0x69,0x3a,0x0c,0x40,0x76,0x6f,0x6c,0x75,0x6d,0x65,0x69,0x55))
  TeleportPlayer(0,228,24,36,0,0)
  0()
 PAGE   2
  // condition: switch 4 is ON
  // condition: switch 2013 is ON
  250(bytes(0x04,0x08,0x6f,0x3a,0x0c,0x52,0x50,0x47,0x3a,0x3a,0x53,0x45,0x08,0x3a,0x0a,0x40,0x6e,0x61,0x6d,0x65,0x49,0x22,0x0b,0x45,0x61,0x72,0x74,0x68,0x34,0x06,0x3a,0x06,0x45,0x54,0x3a,0x0b,0x40,0x70,0x69,0x74,0x63,0x68,0x69,0x69,0x3a,0x0c,0x40,0x76,0x6f,0x6c,0x75,0x6d,0x65,0x69,0x55))
  205(0,bytes(0x04,0x08,0x6f,0x3a,0x13,0x52,0x50,0x47,0x3a,0x3a,0x4d,0x6f,0x76,0x65,0x52,0x6f,0x75,0x74,0x65,0x09,0x3a,0x0c,0x40,0x72,0x65,0x70,0x65,0x61,0x74,0x46,0x3a,0x0f,0x40,0x73,0x6b,0x69,0x70,0x70,0x61,0x62,0x6c,0x65,0x46,0x3a,0x0a,0x40,0x77,0x61,0x69,0x74,0x54,0x3a,0x0a,0x40,0x6c,0x69,0x73,0x74,0x5b,0x0c,0x6f,0x3a,0x15,0x52,0x50,0x47,0x3a,0x3a,0x4d,0x6f,0x76,0x65,0x43,0x6f,0x6d,0x6d,0x61,0x6e,0x64,0x07,0x3a,0x0a,0x40,0x63,0x6f,0x64,0x65,0x69,0x16,0x3a,0x10,0x40,0x70,0x61,0x72,0x61,0x6d,0x65,0x74,0x65,0x72,0x73,0x5b,0x00,0x6f,0x3b,0x0a,0x07,0x3b,0x0b,0x69,0x14,0x3b,0x0c,0x5b,0x06,0x69,0x08,0x6f,0x3b,0x0a,0x07,0x3b,0x0b,0x69,0x17,0x3b,0x0c,0x5b,0x00,0x6f,0x3b,0x0a,0x07,0x3b,0x0b,0x69,0x14,0x3b,0x0c,0x5b,0x06,0x69,0x08,0x6f,0x3b,0x0a,0x07,0x3b,0x0b,0x69,0x18,0x3b,0x0c,0x5b,0x00,0x6f,0x3b,0x0a,0x07,0x3b,0x0b,0x69,0x2a,0x3b,0x0c,0x5b,0x00,0x6f,0x3b,0x0a,0x07,0x3b,0x0b,0x69,0x00,0x3b,0x0c,0x5b,0x00))
  205(-1,bytes(0x04,0x08,0x6f,0x3a,0x13,0x52,0x50,0x47,0x3a,0x3a,0x4d,0x6f,0x76,0x65,0x52,0x6f,0x75,0x74,0x65,0x09,0x3a,0x0c,0x40,0x72,0x65,0x70,0x65,0x61,0x74,0x46,0x3a,0x0f,0x40,0x73,0x6b,0x69,0x70,0x70,0x61,0x62,0x6c,0x65,0x54,0x3a,0x0a,0x40,0x77,0x61,0x69,0x74,0x54,0x3a,0x0a,0x40,0x6c,0x69,0x73,0x74,0x5b,0x07,0x6f,0x3a,0x15,0x52,0x50,0x47,0x3a,0x3a,0x4d,0x6f,0x76,0x65,0x43,0x6f,0x6d,0x6d,0x61,0x6e,0x64,0x07,0x3a,0x0a,0x40,0x63,0x6f,0x64,0x65,0x69,0x11,0x3a,0x10,0x40,0x70,0x61,0x72,0x61,0x6d,0x65,0x74,0x65,0x72,0x73,0x5b,0x00,0x6f,0x3b,0x0a,0x07,0x3b,0x0b,0x69,0x00,0x3b,0x0c,0x5b,0x00))
  250(bytes(0x04,0x08,0x6f,0x3a,0x0c,0x52,0x50,0x47,0x3a,0x3a,0x53,0x45,0x08,0x3a,0x0a,0x40,0x6e,0x61,0x6d,0x65,0x49,0x22,0x09,0x4d,0x6f,0x76,0x65,0x06,0x3a,0x06,0x45,0x54,0x3a,0x0b,0x40,0x70,0x69,0x74,0x63,0x68,0x69,0x69,0x3a,0x0c,0x40,0x76,0x6f,0x6c,0x75,0x6d,0x65,0x69,0x55))
  TeleportPlayer(0,228,24,36,0,0)
  205(-1,bytes(0x04,0x08,0x6f,0x3a,0x13,0x52,0x50,0x47,0x3a,0x3a,0x4d,0x6f,0x76,0x65,0x52,0x6f,0x75,0x74,0x65,0x09,0x3a,0x0c,0x40,0x72,0x65,0x70,0x65,0x61,0x74,0x46,0x3a,0x0f,0x40,0x73,0x6b,0x69,0x70,0x70,0x61,0x62,0x6c,0x65,0x46,0x3a,0x0a,0x40,0x77,0x61,0x69,0x74,0x54,0x3a,0x0a,0x40,0x6c,0x69,0x73,0x74,0x5b,0x08,0x6f,0x3a,0x15,0x52,0x50,0x47,0x3a,0x3a,0x4d,0x6f,0x76,0x65,0x43,0x6f,0x6d,0x6d,0x61,0x6e,0x64,0x07,0x3a,0x0a,0x40,0x63,0x6f,0x64,0x65,0x69,0x09,0x3a,0x10,0x40,0x70,0x61,0x72,0x61,0x6d,0x65,0x74,0x65,0x72,0x73,0x5b,0x00,0x6f,0x3b,0x0a,0x07,0x3b,0x0b,0x69,0x09,0x3b,0x0c,0x5b,0x00,0x6f,0x3b,0x0a,0x07,0x3b,0x0b,0x69,0x00,0x3b,0x0c,0x5b,0x00))
  ShowMessageFace("sonia_fc3",6,0,2,1)
  ShowMessage("\\n<Sonya>Wow, it's huge!")
  ShowMessageFace("alice_fc5",1,0,2,2)
  ShowMessage("\\n<Alice>As you do battle, you'll probably gain more monster companions. However, you can't just walk around with an army in tow.")
  ShowMessageFace("ruka_fc1",0,0,2,3)
  ShowMessage("\\n<Luka>Four people in battle and four in reserve seems like our limit. Traveling with more than that isn't going to work.")
  ShowMessageFace("alice_fc5",1,0,2,4)
  ShowMessage("\\n<Alice>You can leave the excess members here to wait. When you want to reorganize your party, ask the maid standing over there.")
  205(-1,bytes(0x04,0x08,0x6f,0x3a,0x13,0x52,0x50,0x47,0x3a,0x3a,0x4d,0x6f,0x76,0x65,0x52,0x6f,0x75,0x74,0x65,0x09,0x3a,0x0c,0x40,0x72,0x65,0x70,0x65,0x61,0x74,0x46,0x3a,0x0f,0x40,0x73,0x6b,0x69,0x70,0x70,0x61,0x62,0x6c,0x65,0x46,0x3a,0x0a,0x40,0x77,0x61,0x69,0x74,0x54,0x3a,0x0a,0x40,0x6c,0x69,0x73,0x74,0x5b,0x07,0x6f,0x3a,0x15,0x52,0x50,0x47,0x3a,0x3a,0x4d,0x6f,0x76,0x65,0x43,0x6f,0x6d,0x6d,0x61,0x6e,0x64,0x07,0x3a,0x0a,0x40,0x63,0x6f,0x64,0x65,0x69,0x16,0x3a,0x10,0x40,0x70,0x61,0x72,0x61,0x6d,0x65,0x74,0x65,0x72,0x73,0x5b,0x00,0x6f,0x3b,0x0a,0x07,0x3b,0x0b,0x69,0x00,0x3b,0x0c,0x5b,0x00))
  ShowMessageFace("People3",5,0,2,5)
  ShowMessage("\\n<Maid>I look forward to serving you.")
  ShowMessageFace("ruka_fc1",0,0,2,6)
  ShowMessage("\\n<Luka>Umm, who's that maid...?")
  ShowMessageFace("alice_fc5",0,0,2,7)
  ShowMessage("\\n<Alice>She's just a magical projection, not a real person. Anyway, talk to her to add or replace party members.")
  ShowMessageFace("alice_fc5",0,0,2,8)
  ShowMessage("\\n<Alice>When members aren't in your party, they'll be hanging out somewhere in the castle. If you speak with them, you can give them presents.")
  ShowMessageFace("alice_fc5",0,0,2,9)
  ShowMessage("\\n<Alice>Try it out with the slime you just recruited. Use Button 1 (Shift on the keyboard) in the organization screen to remove her from the party.")
  ShowMessageFace("slime_fc1",2,0,2,10)
  ShowMessage("\\n<Lime>You're going to remove me? But I just joined...")
  ShowMessageFace("sonia_fc1",0,0,2,11)
  ShowMessage("\\n<Sonya>It looks like there are a ton of shops in here.")
  ShowMessageFace("alice_fc5",0,0,2,12)
  ShowMessage("\\n<Alice>Monsters you recruit can open up shops inside the castle, but you haven't recruited any shopkeepers yet.")
  ShowMessageFace("ruka_fc1",0,0,2,13)
  ShowMessage("\\n<Luka>So... How do we get out of here?")
  ShowMessageFace("alice_fc5",0,0,2,14)
  ShowMessage("\\n<Alice>If we walk out through the main gate, we'll be back where we were originally.")
  ShowMessageFace("alice_fc5",0,0,2,15)
  ShowMessage("\\n<Alice>When you want to return here, use the castle from the item menu. It can be found under [Key Items].")
  ShowMessageFace("alice_fc5",0,0,2,16)
  ShowMessage("\\n<Alice>Keep in mind that it can only be used outside. That means you can't go to the castle while in a town, village, or dungeon.")
  ShowMessageFace("alice_fc5",1,0,2,17)
  ShowMessage("\\n<Alice>I think that's about it. Please take advantage of this castle as much as you'd like.")
  ShowMessageFace("ruka_fc1",0,0,2,18)
  ShowMessage("\\n<Luka>Wow, thanks Alice. I'm looking forward to filling this place to capacity with new friends.")
  ShowMessageFace("alice_fc5",1,0,2,19)
  ShowMessage("\\n<Alice>Heheh, I like the sound of that too. Go ahead and give the maid a try.")
  ShowMessageFace("alice_fc5",1,0,2,20)
  ShowMessage("\\n<Alice>Once you've gotten a feel for the place, let's head back.")
  ChangeSwitch(2013,2013,1)
  ChangeSwitch(2015,2015,0)
  0()
 PAGE   3
  // condition: switch 5 is ON
  // condition: switch 2013 is ON
  250(bytes(0x04,0x08,0x6f,0x3a,0x0c,0x52,0x50,0x47,0x3a,0x3a,0x53,0x45,0x08,0x3a,0x0a,0x40,0x6e,0x61,0x6d,0x65,0x49,0x22,0x0b,0x45,0x61,0x72,0x74,0x68,0x34,0x06,0x3a,0x06,0x45,0x54,0x3a,0x0b,0x40,0x70,0x69,0x74,0x63,0x68,0x69,0x69,0x3a,0x0c,0x40,0x76,0x6f,0x6c,0x75,0x6d,0x65,0x69,0x55))
  205(0,bytes(0x04,0x08,0x6f,0x3a,0x13,0x52,0x50,0x47,0x3a,0x3a,0x4d,0x6f,0x76,0x65,0x52,0x6f,0x75,0x74,0x65,0x09,0x3a,0x0c,0x40,0x72,0x65,0x70,0x65,0x61,0x74,0x46,0x3a,0x0f,0x40,0x73,0x6b,0x69,0x70,0x70,0x61,0x62,0x6c,0x65,0x46,0x3a,0x0a,0x40,0x77,0x61,0x69,0x74,0x54,0x3a,0x0a,0x40,0x6c,0x69,0x73,0x74,0x5b,0x0c,0x6f,0x3a,0x15,0x52,0x50,0x47,0x3a,0x3a,0x4d,0x6f,0x76,0x65,0x43,0x6f,0x6d,0x6d,0x61,0x6e,0x64,0x07,0x3a,0x0a,0x40,0x63,0x6f,0x64,0x65,0x69,0x16,0x3a,0x10,0x40,0x70,0x61,0x72,0x61,0x6d,0x65,0x74,0x65,0x72,0x73,0x5b,0x00,0x6f,0x3b,0x0a,0x07,0x3b,0x0b,0x69,0x14,0x3b,0x0c,0x5b,0x06,0x69,0x08,0x6f,0x3b,0x0a,0x07,0x3b,0x0b,0x69,0x17,0x3b,0x0c,0x5b,0x00,0x6f,0x3b,0x0a,0x07,0x3b,0x0b,0x69,0x14,0x3b,0x0c,0x5b,0x06,0x69,0x08,0x6f,0x3b,0x0a,0x07,0x3b,0x0b,0x69,0x18,0x3b,0x0c,0x5b,0x00,0x6f,0x3b,0x0a,0x07,0x3b,0x0b,0x69,0x2a,0x3b,0x0c,0x5b,0x00,0x6f,0x3b,0x0a,0x07,0x3b,0x0b,0x69,0x00,0x3b,0x0c,0x5b,0x00))
  205(-1,bytes(0x04,0x08,0x6f,0x3a,0x13,0x52,0x50,0x47,0x3a,0x3a,0x4d,0x6f,0x76,0x65,0x52,0x6f,0x75,0x74,0x65,0x09,0x3a,0x0c,0x40,0x72,0x65,0x70,0x65,0x61,0x74,0x46,0x3a,0x0f,0x40,0x73,0x6b,0x69,0x70,0x70,0x61,0x62,0x6c,0x65,0x54,0x3a,0x0a,0x40,0x77,0x61,0x69,0x74,0x54,0x3a,0x0a,0x40,0x6c,0x69,0x73,0x74,0x5b,0x07,0x6f,0x3a,0x15,0x52,0x50,0x47,0x3a,0x3a,0x4d,0x6f,0x76,0x65,0x43,0x6f,0x6d,0x6d,0x61,0x6e,0x64,0x07,0x3a,0x0a,0x40,0x63,0x6f,0x64,0x65,0x69,0x11,0x3a,0x10,0x40,0x70,0x61,0x72,0x61,0x6d,0x65,0x74,0x65,0x72,0x73,0x5b,0x00,0x6f,0x3b,0x0a,0x07,0x3b,0x0b,0x69,0x00,0x3b,0x0c,0x5b,0x00))
  250(bytes(0x04,0x08,0x6f,0x3a,0x0c,0x52,0x50,0x47,0x3a,0x3a,0x53,0x45,0x08,0x3a,0x0a,0x40,0x6e,0x61,0x6d,0x65,0x49,0x22,0x09,0x4d,0x6f,0x76,0x65,0x06,0x3a,0x06,0x45,0x54,0x3a,0x0b,0x40,0x70,0x69,0x74,0x63,0x68,0x69,0x69,0x3a,0x0c,0x40,0x76,0x6f,0x6c,0x75,0x6d,0x65,0x69,0x55))
  TeleportPlayer(0,228,24,36,0,0)
  205(-1,bytes(0x04,0x08,0x6f,0x3a,0x13,0x52,0x50,0x47,0x3a,0x3a,0x4d,0x6f,0x76,0x65,0x52,0x6f,0x75,0x74,0x65,0x09,0x3a,0x0c,0x40,0x72,0x65,0x70,0x65,0x61,0x74,0x46,0x3a,0x0f,0x40,0x73,0x6b,0x69,0x70,0x70,0x61,0x62,0x6c,0x65,0x46,0x3a,0x0a,0x40,0x77,0x61,0x69,0x74,0x54,0x3a,0x0a,0x40,0x6c,0x69,0x73,0x74,0x5b,0x08,0x6f,0x3a,0x15,0x52,0x50,0x47,0x3a,0x3a,0x4d,0x6f,0x76,0x65,0x43,0x6f,0x6d,0x6d,0x61,0x6e,0x64,0x07,0x3a,0x0a,0x40,0x63,0x6f,0x64,0x65,0x69,0x09,0x3a,0x10,0x40,0x70,0x61,0x72,0x61,0x6d,0x65,0x74,0x65,0x72,0x73,0x5b,0x00,0x6f,0x3b,0x0a,0x07,0x3b,0x0b,0x69,0x09,0x3b,0x0c,0x5b,0x00,0x6f,0x3b,0x0a,0x07,0x3b,0x0b,0x69,0x00,0x3b,0x0c,0x5b,0x00))
  ShowMessageFace("sonia_fc3",6,0,2,1)
  ShowMessage("\\n<Sonya>Wow, it's huge!")
  ShowMessageFace("iriasu_fc4",0,0,2,2)
  ShowMessage("\\n<Ilias>I see. This could certainly come in handy. I don't know how I feel about using the Monster Lord's castle, though...")
  ShowMessageFace("iriasu_fc4",1,0,2,3)
  ShowMessage("\\n<Ilias>Hmm... However, it's fun if we think of it as territory conquered from the Monster Lord...")
  ShowMessageFace("iriasu_fc4",0,0,2,4)
  ShowMessage("\\n<Ilias>...All right, I give you my approval to use it.")
  ShowMessageFace("ruka_fc1",0,0,2,5)
  ShowMessage("\\n<Luka>Uhh... Thanks?")
  ShowMessageFace("iriasu_fc4",0,0,2,6)
  ShowMessage("\\n<Ilias>I imagine you're going to gather more companions as your adventure goes on. I plan to rally my angels around me as well.")
  ShowMessageFace("iriasu_fc4",0,0,2,7)
  ShowMessage("\\n<Ilias>However, it would be inadvisable to travel in a large group. Too many of us could attract a lot of attention, among other things.")
  ShowMessageFace("ruka_fc1",0,0,2,8)
  ShowMessage("\\n<Luka>Four people in battle and four in reserve seems like our limit. Traveling with more than that isn't going to work.")
  ShowMessageFace("iriasu_fc4",0,0,2,9)
  ShowMessage("\\n<Ilias>You can leave the excess members here to wait. When you want to reorganize your party, use the maid standing over there.")
  205(-1,bytes(0x04,0x08,0x6f,0x3a,0x13,0x52,0x50,0x47,0x3a,0x3a,0x4d,0x6f,0x76,0x65,0x52,0x6f,0x75,0x74,0x65,0x09,0x3a,0x0c,0x40,0x72,0x65,0x70,0x65,0x61,0x74,0x46,0x3a,0x0f,0x40,0x73,0x6b,0x69,0x70,0x70,0x61,0x62,0x6c,0x65,0x46,0x3a,0x0a,0x40,0x77,0x61,0x69,0x74,0x54,0x3a,0x0a,0x40,0x6c,0x69,0x73,0x74,0x5b,0x07,0x6f,0x3a,0x15,0x52,0x50,0x47,0x3a,0x3a,0x4d,0x6f,0x76,0x65,0x43,0x6f,0x6d,0x6d,0x61,0x6e,0x64,0x07,0x3a,0x0a,0x40,0x63,0x6f,0x64,0x65,0x69,0x16,0x3a,0x10,0x40,0x70,0x61,0x72,0x61,0x6d,0x65,0x74,0x65,0x72,0x73,0x5b,0x00,0x6f,0x3b,0x0a,0x07,0x3b,0x0b,0x69,0x00,0x3b,0x0c,0x5b,0x00))
  ShowMessageFace("People3",5,0,2,10)
  ShowMessage("\\n<Maid>I look forward to serving you.")
  ShowMessageFace("ruka_fc1",0,0,2,11)
  ShowMessage("\\n<Luka>Umm, who's that maid...?")
  ShowMessageFace("iriasu_fc4",0,0,2,12)
  ShowMessage("\\n<Ilias>She's just a magical projection, not a real person. If she isn't to your liking, I think we can dispose of her and get a new one.")
  ShowMessageFace("ruka_fc1",0,0,2,13)
  ShowMessage("\\n<Luka>No, she's fine...")
  ShowMessageFace("iriasu_fc4",0,0,2,14)
  ShowMessage("\\n<Ilias>Then let's make use of her. When you want to replace party members, she's the one to talk to.")
  ShowMessageFace("iriasu_fc4",0,0,2,15)
  ShowMessage("\\n<Ilias>Also, companions not in your party should be roaming around the castle. You can talk to them and feed them scraps if you'd like.")
  ShowMessageFace("iriasu_fc4",0,0,2,16)
  ShowMessage("\\n<Ilias>Try it out with the slime you just recruited. Use Button 1 (Shift on the keyboard) in the organization screen to remove her from the party.")
  ShowMessageFace("slime_fc1",2,0,2,17)
  ShowMessage("\\n<Lime>You're going to remove me? But I just joined...")
  ShowMessageFace("sonia_fc1",0,0,2,18)
  ShowMessage("\\n<Sonya>It looks like there are a ton of shops in here.")
  ShowMessageFace("iriasu_fc4",0,0,2,19)
  ShowMessage("\\n<Ilias>Capturing monsters and forcing them into labor here sounds interesting. Use them up, then throw them out.")
  ShowMessageFace("ruka_fc1",0,0,2,20)
  ShowMessage("\\n<Luka>Umm... How do we get out of here?")
  ShowMessageFace("iriasu_fc4",0,0,2,21)
  ShowMessage("\\n<Ilias>Leaving through the main gate should put us back where we came from.")
  ShowMessageFace("iriasu_fc4",0,0,2,22)
  ShowMessage("\\n<Ilias>When you want to return here, use the castle from the item menu. It can be found under [Key Items].")
  ShowMessageFace("iriasu_fc4",0,0,2,23)
  ShowMessage("\\n<Ilias>Keep in mind that it apparently can only be used outdoors. That means you probably can't go to the castle while in a town, village, or dungeon.")
  ShowMessageFace("iriasu_fc4",3,0,2,24)
  ShowMessage("\\n<Ilias>...I figured all that out just from using it once. I'm awesome, aren't I?")
  ShowMessageFace("ruka_fc1",0,0,2,25)
  ShowMessage("\\n<Luka>Y-yeah... Anyway, I think I get the idea. I'm looking forward to filling this place up.")
  ShowMessageFace("iriasu_fc4",0,0,2,26)
  ShowMessage("\\n<Ilias>I'm looking forward to turning it into rubble once we're done with it. All right, I think that's all there is to say.")
  ShowMessageFace("iriasu_fc4",0,0,2,27)
  ShowMessage("\\n<Ilias>First off, why don't you talk to the maid and see what she can do? After you've gotten the hang of it, we can leave.")
  ChangeSwitch(2013,2013,1)
  ChangeSwitch(2015,2015,0)
  0()
 PAGE   4
  // condition: variable 1001 >= 33
  250(bytes(0x04,0x08,0x6f,0x3a,0x0c,0x52,0x50,0x47,0x3a,0x3a,0x53,0x45,0x08,0x3a,0x0a,0x40,0x6e,0x61,0x6d,0x65,0x49,0x22,0x0b,0x45,0x61,0x72,0x74,0x68,0x34,0x06,0x3a,0x06,0x45,0x54,0x3a,0x0b,0x40,0x70,0x69,0x74,0x63,0x68,0x69,0x69,0x3a,0x0c,0x40,0x76,0x6f,0x6c,0x75,0x6d,0x65,0x69,0x55))
  205(0,bytes(0x04,0x08,0x6f,0x3a,0x13,0x52,0x50,0x47,0x3a,0x3a,0x4d,0x6f,0x76,0x65,0x52,0x6f,0x75,0x74,0x65,0x09,0x3a,0x0c,0x40,0x72,0x65,0x70,0x65,0x61,0x74,0x46,0x3a,0x0f,0x40,0x73,0x6b,0x69,0x70,0x70,0x61,0x62,0x6c,0x65,0x46,0x3a,0x0a,0x40,0x77,0x61,0x69,0x74,0x54,0x3a,0x0a,0x40,0x6c,0x69,0x73,0x74,0x5b,0x0c,0x6f,0x3a,0x15,0x52,0x50,0x47,0x3a,0x3a,0x4d,0x6f,0x76,0x65,0x43,0x6f,0x6d,0x6d,0x61,0x6e,0x64,0x07,0x3a,0x0a,0x40,0x63,0x6f,0x64,0x65,0x69,0x16,0x3a,0x10,0x40,0x70,0x61,0x72,0x61,0x6d,0x65,0x74,0x65,0x72,0x73,0x5b,0x00,0x6f,0x3b,0x0a,0x07,0x3b,0x0b,0x69,0x14,0x3b,0x0c,0x5b,0x06,0x69,0x08,0x6f,0x3b,0x0a,0x07,0x3b,0x0b,0x69,0x17,0x3b,0x0c,0x5b,0x00,0x6f,0x3b,0x0a,0x07,0x3b,0x0b,0x69,0x14,0x3b,0x0c,0x5b,0x06,0x69,0x08,0x6f,0x3b,0x0a,0x07,0x3b,0x0b,0x69,0x18,0x3b,0x0c,0x5b,0x00,0x6f,0x3b,0x0a,0x07,0x3b,0x0b,0x69,0x2a,0x3b,0x0c,0x5b,0x00,0x6f,0x3b,0x0a,0x07,0x3b,0x0b,0x69,0x00,0x3b,0x0c,0x5b,0x00))
  205(-1,bytes(0x04,0x08,0x6f,0x3a,0x13,0x52,0x50,0x47,0x3a,0x3a,0x4d,0x6f,0x76,0x65,0x52,0x6f,0x75,0x74,0x65,0x09,0x3a,0x0c,0x40,0x72,0x65,0x70,0x65,0x61,0x74,0x46,0x3a,0x0f,0x40,0x73,0x6b,0x69,0x70,0x70,0x61,0x62,0x6c,0x65,0x54,0x3a,0x0a,0x40,0x77,0x61,0x69,0x74,0x54,0x3a,0x0a,0x40,0x6c,0x69,0x73,0x74,0x5b,0x07,0x6f,0x3a,0x15,0x52,0x50,0x47,0x3a,0x3a,0x4d,0x6f,0x76,0x65,0x43,0x6f,0x6d,0x6d,0x61,0x6e,0x64,0x07,0x3a,0x0a,0x40,0x63,0x6f,0x64,0x65,0x69,0x11,0x3a,0x10,0x40,0x70,0x61,0x72,0x61,0x6d,0x65,0x74,0x65,0x72,0x73,0x5b,0x00,0x6f,0x3b,0x0a,0x07,0x3b,0x0b,0x69,0x00,0x3b,0x0c,0x5b,0x00))
  281(0)
  250(bytes(0x04,0x08,0x6f,0x3a,0x0c,0x52,0x50,0x47,0x3a,0x3a,0x53,0x45,0x08,0x3a,0x0a,0x40,0x6e,0x61,0x6d,0x65,0x49,0x22,0x09,0x4d,0x6f,0x76,0x65,0x06,0x3a,0x06,0x45,0x54,0x3a,0x0b,0x40,0x70,0x69,0x74,0x63,0x68,0x69,0x69,0x3a,0x0c,0x40,0x76,0x6f,0x6c,0x75,0x6d,0x65,0x69,0x55))
  TeleportPlayer(0,228,24,36,0,0)
  0()



EVENT   2
 PAGE   1
  If(0,2013,0)
   If(0,4,0)
    ShowMessageFace("alice_fc5",0,0,2,1)
    ShowMessage("\\n<Alice>Come on, let's take a look inside first.")
    0()
   EndIf()
   If(0,5,0)
    ShowMessageFace("iriasu_fc4",0,0,2,2)
    ShowMessage("\\n<Ilias>Where are you going? Let's take a look inside first.")
    0()
   EndIf()
   205(-1,bytes(0x04,0x08,0x6f,0x3a,0x13,0x52,0x50,0x47,0x3a,0x3a,0x4d,0x6f,0x76,0x65,0x52,0x6f,0x75,0x74,0x65,0x09,0x3a,0x0c,0x40,0x72,0x65,0x70,0x65,0x61,0x74,0x46,0x3a,0x0f,0x40,0x73,0x6b,0x69,0x70,0x70,0x61,0x62,0x6c,0x65,0x46,0x3a,0x0a,0x40,0x77,0x61,0x69,0x74,0x54,0x3a,0x0a,0x40,0x6c,0x69,0x73,0x74,0x5b,0x07,0x6f,0x3a,0x15,0x52,0x50,0x47,0x3a,0x3a,0x4d,0x6f,0x76,0x65,0x43,0x6f,0x6d,0x6d,0x61,0x6e,0x64,0x07,0x3a,0x0a,0x40,0x63,0x6f,0x64,0x65,0x69,0x06,0x3a,0x10,0x40,0x70,0x61,0x72,0x61,0x6d,0x65,0x74,0x65,0x72,0x73,0x5b,0x00,0x6f,0x3b,0x0a,0x07,0x3b,0x0b,0x69,0x00,0x3b,0x0c,0x5b,0x00))
   EndEventProcessing()
   0()
  EndIf()
  281(0)
  250(bytes(0x04,0x08,0x6f,0x3a,0x0c,0x52,0x50,0x47,0x3a,0x3a,0x53,0x45,0x08,0x3a,0x0a,0x40,0x6e,0x61,0x6d,0x65,0x49,0x22,0x0b,0x45,0x61,0x72,0x74,0x68,0x34,0x06,0x3a,0x06,0x45,0x54,0x3a,0x0b,0x40,0x70,0x69,0x74,0x63,0x68,0x69,0x69,0x3a,0x0c,0x40,0x76,0x6f,0x6c,0x75,0x6d,0x65,0x69,0x55))
  205(0,bytes(0x04,0x08,0x6f,0x3a,0x13,0x52,0x50,0x47,0x3a,0x3a,0x4d,0x6f,0x76,0x65,0x52,0x6f,0x75,0x74,0x65,0x09,0x3a,0x0c,0x40,0x72,0x65,0x70,0x65,0x61,0x74,0x46,0x3a,0x0f,0x40,0x73,0x6b,0x69,0x70,0x70,0x61,0x62,0x6c,0x65,0x46,0x3a,0x0a,0x40,0x77,0x61,0x69,0x74,0x54,0x3a,0x0a,0x40,0x6c,0x69,0x73,0x74,0x5b,0x0c,0x6f,0x3a,0x15,0x52,0x50,0x47,0x3a,0x3a,0x4d,0x6f,0x76,0x65,0x43,0x6f,0x6d,0x6d,0x61,0x6e,0x64,0x07,0x3a,0x0a,0x40,0x63,0x6f,0x64,0x65,0x69,0x16,0x3a,0x10,0x40,0x70,0x61,0x72,0x61,0x6d,0x65,0x74,0x65,0x72,0x73,0x5b,0x00,0x6f,0x3b,0x0a,0x07,0x3b,0x0b,0x69,0x14,0x3b,0x0c,0x5b,0x06,0x69,0x08,0x6f,0x3b,0x0a,0x07,0x3b,0x0b,0x69,0x17,0x3b,0x0c,0x5b,0x00,0x6f,0x3b,0x0a,0x07,0x3b,0x0b,0x69,0x14,0x3b,0x0c,0x5b,0x06,0x69,0x08,0x6f,0x3b,0x0a,0x07,0x3b,0x0b,0x69,0x18,0x3b,0x0c,0x5b,0x00,0x6f,0x3b,0x0a,0x07,0x3b,0x0b,0x69,0x2a,0x3b,0x0c,0x5b,0x00,0x6f,0x3b,0x0a,0x07,0x3b,0x0b,0x69,0x00,0x3b,0x0c,0x5b,0x00))
  205(-1,bytes(0x04,0x08,0x6f,0x3a,0x13,0x52,0x50,0x47,0x3a,0x3a,0x4d,0x6f,0x76,0x65,0x52,0x6f,0x75,0x74,0x65,0x09,0x3a,0x0c,0x40,0x72,0x65,0x70,0x65,0x61,0x74,0x46,0x3a,0x0f,0x40,0x73,0x6b,0x69,0x70,0x70,0x61,0x62,0x6c,0x65,0x54,0x3a,0x0a,0x40,0x77,0x61,0x69,0x74,0x54,0x3a,0x0a,0x40,0x6c,0x69,0x73,0x74,0x5b,0x07,0x6f,0x3a,0x15,0x52,0x50,0x47,0x3a,0x3a,0x4d,0x6f,0x76,0x65,0x43,0x6f,0x6d,0x6d,0x61,0x6e,0x64,0x07,0x3a,0x0a,0x40,0x63,0x6f,0x64,0x65,0x69,0x11,0x3a,0x10,0x40,0x70,0x61,0x72,0x61,0x6d,0x65,0x74,0x65,0x72,0x73,0x5b,0x00,0x6f,0x3b,0x0a,0x07,0x3b,0x0b,0x69,0x00,0x3b,0x0c,0x5b,0x00))
  250(bytes(0x04,0x08,0x6f,0x3a,0x0c,0x52,0x50,0x47,0x3a,0x3a,0x53,0x45,0x08,0x3a,0x0a,0x40,0x6e,0x61,0x6d,0x65,0x49,0x22,0x09,0x4d,0x6f,0x76,0x65,0x06,0x3a,0x06,0x45,0x54,0x3a,0x0b,0x40,0x70,0x69,0x74,0x63,0x68,0x69,0x69,0x3a,0x0c,0x40,0x76,0x6f,0x6c,0x75,0x6d,0x65,0x69,0x55))
  TeleportPlayer(0,273,12,57,8,0)
  0()



EVENT   3
 PAGE   1
  If(0,2013,0)
   If(0,4,0)
    ShowMessageFace("alice_fc5",0,0,2,1)
    ShowMessage("\\n<Alice>Come on, let's take a look inside first.")
    0()
   EndIf()
   If(0,5,0)
    ShowMessageFace("iriasu_fc4",0,0,2,2)
    ShowMessage("\\n<Ilias>Where are you going? Let's take a look inside first.")
    0()
   EndIf()
   205(-1,bytes(0x04,0x08,0x6f,0x3a,0x13,0x52,0x50,0x47,0x3a,0x3a,0x4d,0x6f,0x76,0x65,0x52,0x6f,0x75,0x74,0x65,0x09,0x3a,0x0c,0x40,0x72,0x65,0x70,0x65,0x61,0x74,0x46,0x3a,0x0f,0x40,0x73,0x6b,0x69,0x70,0x70,0x61,0x62,0x6c,0x65,0x46,0x3a,0x0a,0x40,0x77,0x61,0x69,0x74,0x54,0x3a,0x0a,0x40,0x6c,0x69,0x73,0x74,0x5b,0x07,0x6f,0x3a,0x15,0x52,0x50,0x47,0x3a,0x3a,0x4d,0x6f,0x76,0x65,0x43,0x6f,0x6d,0x6d,0x61,0x6e,0x64,0x07,0x3a,0x0a,0x40,0x63,0x6f,0x64,0x65,0x69,0x08,0x3a,0x10,0x40,0x70,0x61,0x72,0x61,0x6d,0x65,0x74,0x65,0x72,0x73,0x5b,0x00,0x6f,0x3b,0x0a,0x07,0x3b,0x0b,0x69,0x00,0x3b,0x0c,0x5b,0x00))
   EndEventProcessing()
   0()
  EndIf()
  281(0)
  250(bytes(0x04,0x08,0x6f,0x3a,0x0c,0x52,0x50,0x47,0x3a,0x3a,0x53,0x45,0x08,0x3a,0x0a,0x40,0x6e,0x61,0x6d,0x65,0x49,0x22,0x09,0x4d,0x6f,0x76,0x65,0x06,0x3a,0x06,0x45,0x54,0x3a,0x0b,0x40,0x70,0x69,0x74,0x63,0x68,0x69,0x69,0x3a,0x0c,0x40,0x76,0x6f,0x6c,0x75,0x6d,0x65,0x69,0x55))
  TeleportPlayer(0,227,48,23,4,0)
  0()



EVENT   4
 PAGE   1
  If(0,2013,0)
   If(0,4,0)
    ShowMessageFace("alice_fc5",0,0,2,1)
    ShowMessage("\\n<Alice>Come on, let's take a look inside first.")
    0()
   EndIf()
   If(0,5,0)
    ShowMessageFace("iriasu_fc4",0,0,2,2)
    ShowMessage("\\n<Ilias>Where are you going? Let's take a look inside first.")
    0()
   EndIf()
   205(-1,bytes(0x04,0x08,0x6f,0x3a,0x13,0x52,0x50,0x47,0x3a,0x3a,0x4d,0x6f,0x76,0x65,0x52,0x6f,0x75,0x74,0x65,0x09,0x3a,0x0c,0x40,0x72,0x65,0x70,0x65,0x61,0x74,0x46,0x3a,0x0f,0x40,0x73,0x6b,0x69,0x70,0x70,0x61,0x62,0x6c,0x65,0x46,0x3a,0x0a,0x40,0x77,0x61,0x69,0x74,0x54,0x3a,0x0a,0x40,0x6c,0x69,0x73,0x74,0x5b,0x07,0x6f,0x3a,0x15,0x52,0x50,0x47,0x3a,0x3a,0x4d,0x6f,0x76,0x65,0x43,0x6f,0x6d,0x6d,0x61,0x6e,0x64,0x07,0x3a,0x0a,0x40,0x63,0x6f,0x64,0x65,0x69,0x08,0x3a,0x10,0x40,0x70,0x61,0x72,0x61,0x6d,0x65,0x74,0x65,0x72,0x73,0x5b,0x00,0x6f,0x3b,0x0a,0x07,0x3b,0x0b,0x69,0x00,0x3b,0x0c,0x5b,0x00))
   EndEventProcessing()
   0()
  EndIf()
  281(0)
  250(bytes(0x04,0x08,0x6f,0x3a,0x0c,0x52,0x50,0x47,0x3a,0x3a,0x53,0x45,0x08,0x3a,0x0a,0x40,0x6e,0x61,0x6d,0x65,0x49,0x22,0x09,0x4d,0x6f,0x76,0x65,0x06,0x3a,0x06,0x45,0x54,0x3a,0x0b,0x40,0x70,0x69,0x74,0x63,0x68,0x69,0x69,0x3a,0x0c,0x40,0x76,0x6f,0x6c,0x75,0x6d,0x65,0x69,0x55))
  TeleportPlayer(0,227,48,23,4,0)
  0()



EVENT   5
 PAGE   1
  If(0,2013,0)
   If(0,4,0)
    ShowMessageFace("alice_fc5",0,0,2,1)
    ShowMessage("\\n<Alice>Come on, let's take a look inside first.")
    0()
   EndIf()
   If(0,5,0)
    ShowMessageFace("iriasu_fc4",0,0,2,2)
    ShowMessage("\\n<Ilias>Where are you going? Let's take a look inside first.")
    0()
   EndIf()
   205(-1,bytes(0x04,0x08,0x6f,0x3a,0x13,0x52,0x50,0x47,0x3a,0x3a,0x4d,0x6f,0x76,0x65,0x52,0x6f,0x75,0x74,0x65,0x09,0x3a,0x0c,0x40,0x72,0x65,0x70,0x65,0x61,0x74,0x46,0x3a,0x0f,0x40,0x73,0x6b,0x69,0x70,0x70,0x61,0x62,0x6c,0x65,0x46,0x3a,0x0a,0x40,0x77,0x61,0x69,0x74,0x54,0x3a,0x0a,0x40,0x6c,0x69,0x73,0x74,0x5b,0x07,0x6f,0x3a,0x15,0x52,0x50,0x47,0x3a,0x3a,0x4d,0x6f,0x76,0x65,0x43,0x6f,0x6d,0x6d,0x61,0x6e,0x64,0x07,0x3a,0x0a,0x40,0x63,0x6f,0x64,0x65,0x69,0x08,0x3a,0x10,0x40,0x70,0x61,0x72,0x61,0x6d,0x65,0x74,0x65,0x72,0x73,0x5b,0x00,0x6f,0x3b,0x0a,0x07,0x3b,0x0b,0x69,0x00,0x3b,0x0c,0x5b,0x00))
   EndEventProcessing()
   0()
  EndIf()
  281(0)
  250(bytes(0x04,0x08,0x6f,0x3a,0x0c,0x52,0x50,0x47,0x3a,0x3a,0x53,0x45,0x08,0x3a,0x0a,0x40,0x6e,0x61,0x6d,0x65,0x49,0x22,0x09,0x4d,0x6f,0x76,0x65,0x06,0x3a,0x06,0x45,0x54,0x3a,0x0b,0x40,0x70,0x69,0x74,0x63,0x68,0x69,0x69,0x3a,0x0c,0x40,0x76,0x6f,0x6c,0x75,0x6d,0x65,0x69,0x55))
  TeleportPlayer(0,227,48,23,4,0)
  0()



EVENT   6
 PAGE   1
  If(0,2013,0)
   If(0,4,0)
    ShowMessageFace("alice_fc5",0,0,2,1)
    ShowMessage("\\n<Alice>Come on, let's take a look inside first.")
    0()
   EndIf()
   If(0,5,0)
    ShowMessageFace("iriasu_fc4",0,0,2,2)
    ShowMessage("\\n<Ilias>Where are you going? Let's take a look inside first.")
    0()
   EndIf()
   205(-1,bytes(0x04,0x08,0x6f,0x3a,0x13,0x52,0x50,0x47,0x3a,0x3a,0x4d,0x6f,0x76,0x65,0x52,0x6f,0x75,0x74,0x65,0x09,0x3a,0x0c,0x40,0x72,0x65,0x70,0x65,0x61,0x74,0x46,0x3a,0x0f,0x40,0x73,0x6b,0x69,0x70,0x70,0x61,0x62,0x6c,0x65,0x46,0x3a,0x0a,0x40,0x77,0x61,0x69,0x74,0x54,0x3a,0x0a,0x40,0x6c,0x69,0x73,0x74,0x5b,0x07,0x6f,0x3a,0x15,0x52,0x50,0x47,0x3a,0x3a,0x4d,0x6f,0x76,0x65,0x43,0x6f,0x6d,0x6d,0x61,0x6e,0x64,0x07,0x3a,0x0a,0x40,0x63,0x6f,0x64,0x65,0x69,0x08,0x3a,0x10,0x40,0x70,0x61,0x72,0x61,0x6d,0x65,0x74,0x65,0x72,0x73,0x5b,0x00,0x6f,0x3b,0x0a,0x07,0x3b,0x0b,0x69,0x00,0x3b,0x0c,0x5b,0x00))
   EndEventProcessing()
   0()
  EndIf()
  281(0)
  250(bytes(0x04,0x08,0x6f,0x3a,0x0c,0x52,0x50,0x47,0x3a,0x3a,0x53,0x45,0x08,0x3a,0x0a,0x40,0x6e,0x61,0x6d,0x65,0x49,0x22,0x09,0x4d,0x6f,0x76,0x65,0x06,0x3a,0x06,0x45,0x54,0x3a,0x0b,0x40,0x70,0x69,0x74,0x63,0x68,0x69,0x69,0x3a,0x0c,0x40,0x76,0x6f,0x6c,0x75,0x6d,0x65,0x69,0x55))
  TeleportPlayer(0,227,48,23,4,0)
  0()



EVENT   7
 PAGE   1
  If(0,2013,0)
   If(0,4,0)
    ShowMessageFace("alice_fc5",0,0,2,1)
    ShowMessage("\\n<Alice>Come on, let's take a look inside first.")
    0()
   EndIf()
   If(0,5,0)
    ShowMessageFace("iriasu_fc4",0,0,2,2)
    ShowMessage("\\n<Ilias>Where are you going? Let's take a look inside first.")
    0()
   EndIf()
   205(-1,bytes(0x04,0x08,0x6f,0x3a,0x13,0x52,0x50,0x47,0x3a,0x3a,0x4d,0x6f,0x76,0x65,0x52,0x6f,0x75,0x74,0x65,0x09,0x3a,0x0c,0x40,0x72,0x65,0x70,0x65,0x61,0x74,0x46,0x3a,0x0f,0x40,0x73,0x6b,0x69,0x70,0x70,0x61,0x62,0x6c,0x65,0x46,0x3a,0x0a,0x40,0x77,0x61,0x69,0x74,0x54,0x3a,0x0a,0x40,0x6c,0x69,0x73,0x74,0x5b,0x07,0x6f,0x3a,0x15,0x52,0x50,0x47,0x3a,0x3a,0x4d,0x6f,0x76,0x65,0x43,0x6f,0x6d,0x6d,0x61,0x6e,0x64,0x07,0x3a,0x0a,0x40,0x63,0x6f,0x64,0x65,0x69,0x08,0x3a,0x10,0x40,0x70,0x61,0x72,0x61,0x6d,0x65,0x74,0x65,0x72,0x73,0x5b,0x00,0x6f,0x3b,0x0a,0x07,0x3b,0x0b,0x69,0x00,0x3b,0x0c,0x5b,0x00))
   EndEventProcessing()
   0()
  EndIf()
  281(0)
  250(bytes(0x04,0x08,0x6f,0x3a,0x0c,0x52,0x50,0x47,0x3a,0x3a,0x53,0x45,0x08,0x3a,0x0a,0x40,0x6e,0x61,0x6d,0x65,0x49,0x22,0x09,0x4d,0x6f,0x76,0x65,0x06,0x3a,0x06,0x45,0x54,0x3a,0x0b,0x40,0x70,0x69,0x74,0x63,0x68,0x69,0x69,0x3a,0x0c,0x40,0x76,0x6f,0x6c,0x75,0x6d,0x65,0x69,0x55))
  TeleportPlayer(0,227,48,23,4,0)
  0()



EVENT   8
 PAGE   1
  0()



EVENT   9
 PAGE   1
  0()



EVENT   10
 PAGE   1
  0()



EVENT   11
 PAGE   1
  0()



EVENT   12
 PAGE   1
  If(0,2013,0)
   If(0,4,0)
    ShowMessageFace("alice_fc5",0,0,2,1)
    ShowMessage("\\n<Alice>Come on, let's take a look inside first.")
    0()
   EndIf()
   If(0,5,0)
    ShowMessageFace("iriasu_fc4",0,0,2,2)
    ShowMessage("\\n<Ilias>Where are you going? Let's take a look inside first.")
    0()
   EndIf()
   205(-1,bytes(0x04,0x08,0x6f,0x3a,0x13,0x52,0x50,0x47,0x3a,0x3a,0x4d,0x6f,0x76,0x65,0x52,0x6f,0x75,0x74,0x65,0x09,0x3a,0x0c,0x40,0x72,0x65,0x70,0x65,0x61,0x74,0x46,0x3a,0x0f,0x40,0x73,0x6b,0x69,0x70,0x70,0x61,0x62,0x6c,0x65,0x46,0x3a,0x0a,0x40,0x77,0x61,0x69,0x74,0x54,0x3a,0x0a,0x40,0x6c,0x69,0x73,0x74,0x5b,0x07,0x6f,0x3a,0x15,0x52,0x50,0x47,0x3a,0x3a,0x4d,0x6f,0x76,0x65,0x43,0x6f,0x6d,0x6d,0x61,0x6e,0x64,0x07,0x3a,0x0a,0x40,0x63,0x6f,0x64,0x65,0x69,0x09,0x3a,0x10,0x40,0x70,0x61,0x72,0x61,0x6d,0x65,0x74,0x65,0x72,0x73,0x5b,0x00,0x6f,0x3b,0x0a,0x07,0x3b,0x0b,0x69,0x00,0x3b,0x0c,0x5b,0x00))
   EndEventProcessing()
   0()
  EndIf()
  If(0,2015,0)
   250(bytes(0x04,0x08,0x6f,0x3a,0x0c,0x52,0x50,0x47,0x3a,0x3a,0x53,0x45,0x08,0x3a,0x0a,0x40,0x6e,0x61,0x6d,0x65,0x49,0x22,0x0b,0x4d,0x61,0x67,0x69,0x63,0x32,0x06,0x3a,0x06,0x45,0x54,0x3a,0x0b,0x40,0x70,0x69,0x74,0x63,0x68,0x69,0x69,0x3a,0x0c,0x40,0x76,0x6f,0x6c,0x75,0x6d,0x65,0x69,0x55))
   TeleportPlayer(0,2,296,356,2,1)
   ShowMessageFace("ruka_fc1",0,0,2,3)
   ShowMessage("\\n<Luka>Whew. Looks like we can leave easily. All right, let's get this show on the road!")
   ShowMessageFace("sonia_fc1",0,0,2,4)
   ShowMessage("\\n<Sonya>Hey, Luka, did you say your goodbyes to everyone in the village? It's only polite, after all.")
   ShowMessageFace("slime_fc1",0,0,2,5)
   ShowMessage("\\n<Lime>I want to go see the soldier from the poison marsh and thank him for his concern for me.")
   ChangeSwitch(2015,2015,1)
   ChangeSwitch(2012,2012,1)
   ChangeSwitch(2010,2010,1)
   ChangeSwitch(2016,2016,0)
   ChangeSwitch(3,3,1)
   ChangeSwitch(100,100,1)
   EndEventProcessing()
   0()
  EndIf()
  250(bytes(0x04,0x08,0x6f,0x3a,0x0c,0x52,0x50,0x47,0x3a,0x3a,0x53,0x45,0x08,0x3a,0x0a,0x40,0x6e,0x61,0x6d,0x65,0x49,0x22,0x09,0x4d,0x6f,0x76,0x65,0x06,0x3a,0x06,0x45,0x54,0x3a,0x0b,0x40,0x70,0x69,0x74,0x63,0x68,0x69,0x69,0x3a,0x0c,0x40,0x76,0x6f,0x6c,0x75,0x6d,0x65,0x69,0x55))
  TeleportPlayer(1,21,22,23,2,0)
  0()
 PAGE   2
  // condition: variable 1001 >= 33
  250(bytes(0x04,0x08,0x6f,0x3a,0x0c,0x52,0x50,0x47,0x3a,0x3a,0x53,0x45,0x08,0x3a,0x0a,0x40,0x6e,0x61,0x6d,0x65,0x49,0x22,0x09,0x4d,0x6f,0x76,0x65,0x06,0x3a,0x06,0x45,0x54,0x3a,0x0b,0x40,0x70,0x69,0x74,0x63,0x68,0x69,0x69,0x3a,0x0c,0x40,0x76,0x6f,0x6c,0x75,0x6d,0x65,0x69,0x55))
  TeleportPlayer(1,21,22,23,2,0)
  0()



EVENT   13
 PAGE   1
  If(0,2013,0)
   If(0,4,0)
    ShowMessageFace("alice_fc5",0,0,2,1)
    ShowMessage("\\n<Alice>Come on, let's take a look inside first.")
    0()
   EndIf()
   If(0,5,0)
    ShowMessageFace("iriasu_fc4",0,0,2,2)
    ShowMessage("\\n<Ilias>Where are you going? Let's take a look inside first.")
    0()
   EndIf()
   205(-1,bytes(0x04,0x08,0x6f,0x3a,0x13,0x52,0x50,0x47,0x3a,0x3a,0x4d,0x6f,0x76,0x65,0x52,0x6f,0x75,0x74,0x65,0x09,0x3a,0x0c,0x40,0x72,0x65,0x70,0x65,0x61,0x74,0x46,0x3a,0x0f,0x40,0x73,0x6b,0x69,0x70,0x70,0x61,0x62,0x6c,0x65,0x46,0x3a,0x0a,0x40,0x77,0x61,0x69,0x74,0x54,0x3a,0x0a,0x40,0x6c,0x69,0x73,0x74,0x5b,0x07,0x6f,0x3a,0x15,0x52,0x50,0x47,0x3a,0x3a,0x4d,0x6f,0x76,0x65,0x43,0x6f,0x6d,0x6d,0x61,0x6e,0x64,0x07,0x3a,0x0a,0x40,0x63,0x6f,0x64,0x65,0x69,0x09,0x3a,0x10,0x40,0x70,0x61,0x72,0x61,0x6d,0x65,0x74,0x65,0x72,0x73,0x5b,0x00,0x6f,0x3b,0x0a,0x07,0x3b,0x0b,0x69,0x00,0x3b,0x0c,0x5b,0x00))
   EndEventProcessing()
   0()
  EndIf()
  If(0,2015,0)
   250(bytes(0x04,0x08,0x6f,0x3a,0x0c,0x52,0x50,0x47,0x3a,0x3a,0x53,0x45,0x08,0x3a,0x0a,0x40,0x6e,0x61,0x6d,0x65,0x49,0x22,0x0b,0x4d,0x61,0x67,0x69,0x63,0x32,0x06,0x3a,0x06,0x45,0x54,0x3a,0x0b,0x40,0x70,0x69,0x74,0x63,0x68,0x69,0x69,0x3a,0x0c,0x40,0x76,0x6f,0x6c,0x75,0x6d,0x65,0x69,0x55))
   TeleportPlayer(0,2,296,356,2,1)
   ShowMessageFace("ruka_fc1",0,0,2,3)
   ShowMessage("\\n<Luka>Whew. Looks like we can leave easily. All right, let's get this show on the road!")
   ShowMessageFace("sonia_fc1",0,0,2,4)
   ShowMessage("\\n<Sonya>Hey, Luka, did you say your goodbyes to everyone in the village? It's only polite, after all.")
   ShowMessageFace("slime_fc1",0,0,2,5)
   ShowMessage("\\n<Lime>I want to go see the soldier from the poison marsh and thank him for his concern for me.")
   ChangeSwitch(2015,2015,1)
   ChangeSwitch(2012,2012,1)
   ChangeSwitch(2010,2010,1)
   ChangeSwitch(2016,2016,0)
   ChangeSwitch(3,3,1)
   ChangeSwitch(100,100,1)
   EndEventProcessing()
   0()
  EndIf()
  250(bytes(0x04,0x08,0x6f,0x3a,0x0c,0x52,0x50,0x47,0x3a,0x3a,0x53,0x45,0x08,0x3a,0x0a,0x40,0x6e,0x61,0x6d,0x65,0x49,0x22,0x09,0x4d,0x6f,0x76,0x65,0x06,0x3a,0x06,0x45,0x54,0x3a,0x0b,0x40,0x70,0x69,0x74,0x63,0x68,0x69,0x69,0x3a,0x0c,0x40,0x76,0x6f,0x6c,0x75,0x6d,0x65,0x69,0x55))
  TeleportPlayer(1,21,22,23,2,0)
  0()
 PAGE   2
  // condition: variable 1001 >= 33
  250(bytes(0x04,0x08,0x6f,0x3a,0x0c,0x52,0x50,0x47,0x3a,0x3a,0x53,0x45,0x08,0x3a,0x0a,0x40,0x6e,0x61,0x6d,0x65,0x49,0x22,0x09,0x4d,0x6f,0x76,0x65,0x06,0x3a,0x06,0x45,0x54,0x3a,0x0b,0x40,0x70,0x69,0x74,0x63,0x68,0x69,0x69,0x3a,0x0c,0x40,0x76,0x6f,0x6c,0x75,0x6d,0x65,0x69,0x55))
  TeleportPlayer(1,21,22,23,2,0)
  0()



EVENT   14
 PAGE   1
  If(0,2013,0)
   If(0,4,0)
    ShowMessageFace("alice_fc5",0,0,2,1)
    ShowMessage("\\n<Alice>Come on, let's take a look inside first.")
    0()
   EndIf()
   If(0,5,0)
    ShowMessageFace("iriasu_fc4",0,0,2,2)
    ShowMessage("\\n<Ilias>Where are you going? Let's take a look inside first.")
    0()
   EndIf()
   205(-1,bytes(0x04,0x08,0x6f,0x3a,0x13,0x52,0x50,0x47,0x3a,0x3a,0x4d,0x6f,0x76,0x65,0x52,0x6f,0x75,0x74,0x65,0x09,0x3a,0x0c,0x40,0x72,0x65,0x70,0x65,0x61,0x74,0x46,0x3a,0x0f,0x40,0x73,0x6b,0x69,0x70,0x70,0x61,0x62,0x6c,0x65,0x46,0x3a,0x0a,0x40,0x77,0x61,0x69,0x74,0x54,0x3a,0x0a,0x40,0x6c,0x69,0x73,0x74,0x5b,0x07,0x6f,0x3a,0x15,0x52,0x50,0x47,0x3a,0x3a,0x4d,0x6f,0x76,0x65,0x43,0x6f,0x6d,0x6d,0x61,0x6e,0x64,0x07,0x3a,0x0a,0x40,0x63,0x6f,0x64,0x65,0x69,0x09,0x3a,0x10,0x40,0x70,0x61,0x72,0x61,0x6d,0x65,0x74,0x65,0x72,0x73,0x5b,0x00,0x6f,0x3b,0x0a,0x07,0x3b,0x0b,0x69,0x00,0x3b,0x0c,0x5b,0x00))
   EndEventProcessing()
   0()
  EndIf()
  If(0,2015,0)
   250(bytes(0x04,0x08,0x6f,0x3a,0x0c,0x52,0x50,0x47,0x3a,0x3a,0x53,0x45,0x08,0x3a,0x0a,0x40,0x6e,0x61,0x6d,0x65,0x49,0x22,0x0b,0x4d,0x61,0x67,0x69,0x63,0x32,0x06,0x3a,0x06,0x45,0x54,0x3a,0x0b,0x40,0x70,0x69,0x74,0x63,0x68,0x69,0x69,0x3a,0x0c,0x40,0x76,0x6f,0x6c,0x75,0x6d,0x65,0x69,0x55))
   TeleportPlayer(0,2,296,356,2,1)
   ShowMessageFace("ruka_fc1",0,0,2,3)
   ShowMessage("\\n<Luka>Whew. Looks like we can leave easily. All right, let's get this show on the road!")
   ShowMessageFace("sonia_fc1",0,0,2,4)
   ShowMessage("\\n<Sonya>Hey, Luka, did you say your goodbyes to everyone in the village? It's only polite, after all.")
   ShowMessageFace("slime_fc1",0,0,2,5)
   ShowMessage("\\n<Lime>I want to go see the soldier from the poison marsh and thank him for his concern for me.")
   ChangeSwitch(2015,2015,1)
   ChangeSwitch(2012,2012,1)
   ChangeSwitch(2010,2010,1)
   ChangeSwitch(2016,2016,0)
   ChangeSwitch(3,3,1)
   ChangeSwitch(100,100,1)
   EndEventProcessing()
   0()
  EndIf()
  250(bytes(0x04,0x08,0x6f,0x3a,0x0c,0x52,0x50,0x47,0x3a,0x3a,0x53,0x45,0x08,0x3a,0x0a,0x40,0x6e,0x61,0x6d,0x65,0x49,0x22,0x09,0x4d,0x6f,0x76,0x65,0x06,0x3a,0x06,0x45,0x54,0x3a,0x0b,0x40,0x70,0x69,0x74,0x63,0x68,0x69,0x69,0x3a,0x0c,0x40,0x76,0x6f,0x6c,0x75,0x6d,0x65,0x69,0x55))
  TeleportPlayer(1,21,22,23,2,0)
  0()
 PAGE   2
  // condition: variable 1001 >= 33
  250(bytes(0x04,0x08,0x6f,0x3a,0x0c,0x52,0x50,0x47,0x3a,0x3a,0x53,0x45,0x08,0x3a,0x0a,0x40,0x6e,0x61,0x6d,0x65,0x49,0x22,0x09,0x4d,0x6f,0x76,0x65,0x06,0x3a,0x06,0x45,0x54,0x3a,0x0b,0x40,0x70,0x69,0x74,0x63,0x68,0x69,0x69,0x3a,0x0c,0x40,0x76,0x6f,0x6c,0x75,0x6d,0x65,0x69,0x55))
  TeleportPlayer(1,21,22,23,2,0)
  0()



EVENT   15
 PAGE   1
  If(0,2013,0)
   If(0,4,0)
    ShowMessageFace("alice_fc5",0,0,2,1)
    ShowMessage("\\n<Alice>Come on, let's take a look inside first.")
    0()
   EndIf()
   If(0,5,0)
    ShowMessageFace("iriasu_fc4",0,0,2,2)
    ShowMessage("\\n<Ilias>Where are you going? Let's take a look inside first.")
    0()
   EndIf()
   205(-1,bytes(0x04,0x08,0x6f,0x3a,0x13,0x52,0x50,0x47,0x3a,0x3a,0x4d,0x6f,0x76,0x65,0x52,0x6f,0x75,0x74,0x65,0x09,0x3a,0x0c,0x40,0x72,0x65,0x70,0x65,0x61,0x74,0x46,0x3a,0x0f,0x40,0x73,0x6b,0x69,0x70,0x70,0x61,0x62,0x6c,0x65,0x46,0x3a,0x0a,0x40,0x77,0x61,0x69,0x74,0x54,0x3a,0x0a,0x40,0x6c,0x69,0x73,0x74,0x5b,0x07,0x6f,0x3a,0x15,0x52,0x50,0x47,0x3a,0x3a,0x4d,0x6f,0x76,0x65,0x43,0x6f,0x6d,0x6d,0x61,0x6e,0x64,0x07,0x3a,0x0a,0x40,0x63,0x6f,0x64,0x65,0x69,0x09,0x3a,0x10,0x40,0x70,0x61,0x72,0x61,0x6d,0x65,0x74,0x65,0x72,0x73,0x5b,0x00,0x6f,0x3b,0x0a,0x07,0x3b,0x0b,0x69,0x00,0x3b,0x0c,0x5b,0x00))
   EndEventProcessing()
   0()
  EndIf()
  If(0,2015,0)
   250(bytes(0x04,0x08,0x6f,0x3a,0x0c,0x52,0x50,0x47,0x3a,0x3a,0x53,0x45,0x08,0x3a,0x0a,0x40,0x6e,0x61,0x6d,0x65,0x49,0x22,0x0b,0x4d,0x61,0x67,0x69,0x63,0x32,0x06,0x3a,0x06,0x45,0x54,0x3a,0x0b,0x40,0x70,0x69,0x74,0x63,0x68,0x69,0x69,0x3a,0x0c,0x40,0x76,0x6f,0x6c,0x75,0x6d,0x65,0x69,0x55))
   TeleportPlayer(0,2,296,356,2,1)
   ShowMessageFace("ruka_fc1",0,0,2,3)
   ShowMessage("\\n<Luka>Whew. Looks like we can leave easily. All right, let's get this show on the road!")
   ShowMessageFace("sonia_fc1",0,0,2,4)
   ShowMessage("\\n<Sonya>Hey, Luka, did you say your goodbyes to everyone in the village? It's only polite, after all.")
   ShowMessageFace("slime_fc1",0,0,2,5)
   ShowMessage("\\n<Lime>I want to go see the soldier from the poison marsh and thank him for his concern for me.")
   ChangeSwitch(2015,2015,1)
   ChangeSwitch(2012,2012,1)
   ChangeSwitch(2010,2010,1)
   ChangeSwitch(2016,2016,0)
   ChangeSwitch(3,3,1)
   ChangeSwitch(100,100,1)
   EndEventProcessing()
   0()
  EndIf()
  250(bytes(0x04,0x08,0x6f,0x3a,0x0c,0x52,0x50,0x47,0x3a,0x3a,0x53,0x45,0x08,0x3a,0x0a,0x40,0x6e,0x61,0x6d,0x65,0x49,0x22,0x09,0x4d,0x6f,0x76,0x65,0x06,0x3a,0x06,0x45,0x54,0x3a,0x0b,0x40,0x70,0x69,0x74,0x63,0x68,0x69,0x69,0x3a,0x0c,0x40,0x76,0x6f,0x6c,0x75,0x6d,0x65,0x69,0x55))
  TeleportPlayer(1,21,22,23,2,0)
  0()
 PAGE   2
  // condition: variable 1001 >= 33
  250(bytes(0x04,0x08,0x6f,0x3a,0x0c,0x52,0x50,0x47,0x3a,0x3a,0x53,0x45,0x08,0x3a,0x0a,0x40,0x6e,0x61,0x6d,0x65,0x49,0x22,0x09,0x4d,0x6f,0x76,0x65,0x06,0x3a,0x06,0x45,0x54,0x3a,0x0b,0x40,0x70,0x69,0x74,0x63,0x68,0x69,0x69,0x3a,0x0c,0x40,0x76,0x6f,0x6c,0x75,0x6d,0x65,0x69,0x55))
  TeleportPlayer(1,21,22,23,2,0)
  0()



EVENT   16
 PAGE   1
  If(0,2013,0)
   If(0,4,0)
    ShowMessageFace("alice_fc5",0,0,2,1)
    ShowMessage("\\n<Alice>Come on, let's take a look inside first.")
    0()
   EndIf()
   If(0,5,0)
    ShowMessageFace("iriasu_fc4",0,0,2,2)
    ShowMessage("\\n<Ilias>Where are you going? Let's take a look inside first.")
    0()
   EndIf()
   205(-1,bytes(0x04,0x08,0x6f,0x3a,0x13,0x52,0x50,0x47,0x3a,0x3a,0x4d,0x6f,0x76,0x65,0x52,0x6f,0x75,0x74,0x65,0x09,0x3a,0x0c,0x40,0x72,0x65,0x70,0x65,0x61,0x74,0x46,0x3a,0x0f,0x40,0x73,0x6b,0x69,0x70,0x70,0x61,0x62,0x6c,0x65,0x46,0x3a,0x0a,0x40,0x77,0x61,0x69,0x74,0x54,0x3a,0x0a,0x40,0x6c,0x69,0x73,0x74,0x5b,0x07,0x6f,0x3a,0x15,0x52,0x50,0x47,0x3a,0x3a,0x4d,0x6f,0x76,0x65,0x43,0x6f,0x6d,0x6d,0x61,0x6e,0x64,0x07,0x3a,0x0a,0x40,0x63,0x6f,0x64,0x65,0x69,0x09,0x3a,0x10,0x40,0x70,0x61,0x72,0x61,0x6d,0x65,0x74,0x65,0x72,0x73,0x5b,0x00,0x6f,0x3b,0x0a,0x07,0x3b,0x0b,0x69,0x00,0x3b,0x0c,0x5b,0x00))
   EndEventProcessing()
   0()
  EndIf()
  If(0,2015,0)
   250(bytes(0x04,0x08,0x6f,0x3a,0x0c,0x52,0x50,0x47,0x3a,0x3a,0x53,0x45,0x08,0x3a,0x0a,0x40,0x6e,0x61,0x6d,0x65,0x49,0x22,0x0b,0x4d,0x61,0x67,0x69,0x63,0x32,0x06,0x3a,0x06,0x45,0x54,0x3a,0x0b,0x40,0x70,0x69,0x74,0x63,0x68,0x69,0x69,0x3a,0x0c,0x40,0x76,0x6f,0x6c,0x75,0x6d,0x65,0x69,0x55))
   TeleportPlayer(0,2,296,356,2,1)
   ShowMessageFace("ruka_fc1",0,0,2,3)
   ShowMessage("\\n<Luka>Whew. Looks like we can leave easily. All right, let's get this show on the road!")
   ShowMessageFace("sonia_fc1",0,0,2,4)
   ShowMessage("\\n<Sonya>Hey, Luka, did you say your goodbyes to everyone in the village? It's only polite, after all.")
   ShowMessageFace("slime_fc1",0,0,2,5)
   ShowMessage("\\n<Lime>I want to go see the soldier from the poison marsh and thank him for his concern for me.")
   ChangeSwitch(2015,2015,1)
   ChangeSwitch(2012,2012,1)
   ChangeSwitch(2010,2010,1)
   ChangeSwitch(2016,2016,0)
   ChangeSwitch(3,3,1)
   ChangeSwitch(100,100,1)
   EndEventProcessing()
   0()
  EndIf()
  250(bytes(0x04,0x08,0x6f,0x3a,0x0c,0x52,0x50,0x47,0x3a,0x3a,0x53,0x45,0x08,0x3a,0x0a,0x40,0x6e,0x61,0x6d,0x65,0x49,0x22,0x09,0x4d,0x6f,0x76,0x65,0x06,0x3a,0x06,0x45,0x54,0x3a,0x0b,0x40,0x70,0x69,0x74,0x63,0x68,0x69,0x69,0x3a,0x0c,0x40,0x76,0x6f,0x6c,0x75,0x6d,0x65,0x69,0x55))
  TeleportPlayer(1,21,22,23,2,0)
  0()
 PAGE   2
  // condition: variable 1001 >= 33
  250(bytes(0x04,0x08,0x6f,0x3a,0x0c,0x52,0x50,0x47,0x3a,0x3a,0x53,0x45,0x08,0x3a,0x0a,0x40,0x6e,0x61,0x6d,0x65,0x49,0x22,0x09,0x4d,0x6f,0x76,0x65,0x06,0x3a,0x06,0x45,0x54,0x3a,0x0b,0x40,0x70,0x69,0x74,0x63,0x68,0x69,0x69,0x3a,0x0c,0x40,0x76,0x6f,0x6c,0x75,0x6d,0x65,0x69,0x55))
  TeleportPlayer(1,21,22,23,2,0)
  0()



EVENT   17
 PAGE   1
  // condition: switch 1117 is ON
  PictureDisplay(5,"80_ankou_st01",0,0,0,0,100,100,0,0)
  PictureMove(5,null,0,0,0,0,100,100,255,0,30,true)
  If(1,3117,0,10,1)
   If(1,4117,0,0,0)
    ChangeVariable(4117,4117,0,0,1)
    ShowMessageFace("ankou_fc1",0,0,2,1)
    ShowMessage("\\n<Anko (Affection:\\V[3117])>Gift...")
    250(bytes(0x04,0x08,0x6f,0x3a,0x0c,0x52,0x50,0x47,0x3a,0x3a,0x53,0x45,0x08,0x3a,0x0a,0x40,0x6e,0x61,0x6d,0x65,0x49,0x22,0x0a,0x49,0x74,0x65,0x6d,0x31,0x06,0x3a,0x06,0x45,0x54,0x3a,0x0b,0x40,0x70,0x69,0x74,0x63,0x68,0x69,0x69,0x3a,0x0c,0x40,0x76,0x6f,0x6c,0x75,0x6d,0x65,0x69,0x55))
    ChangeInventory_Item(24,0,0,1)
    0()
   EndIf()
   0()
  EndIf()
  If(1,3117,0,100,1)
   If(1,4117,0,1,0)
    ChangeVariable(4117,4117,0,0,2)
    ShowMessageFace("ankou_fc1",0,0,2,2)
    ShowMessage("\\n<Anko (Affection:\\V[3117])>Gift...")
    250(bytes(0x04,0x08,0x6f,0x3a,0x0c,0x52,0x50,0x47,0x3a,0x3a,0x53,0x45,0x08,0x3a,0x0a,0x40,0x6e,0x61,0x6d,0x65,0x49,0x22,0x0a,0x49,0x74,0x65,0x6d,0x31,0x06,0x3a,0x06,0x45,0x54,0x3a,0x0b,0x40,0x70,0x69,0x74,0x63,0x68,0x69,0x69,0x3a,0x0c,0x40,0x76,0x6f,0x6c,0x75,0x6d,0x65,0x69,0x55))
    ChangeInventoryArmor(1001,0,0,1,false)
    0()
   EndIf()
   0()
  EndIf()
  If(1,3117,0,500,1)
   If(1,4117,0,2,0)
    ChangeVariable(4117,4117,0,0,3)
    ShowMessageFace("ankou_fc1",0,0,2,3)
    ShowMessage("\\n<Anko (Affection:\\V[3117])>Gift...")
    250(bytes(0x04,0x08,0x6f,0x3a,0x0c,0x52,0x50,0x47,0x3a,0x3a,0x53,0x45,0x08,0x3a,0x0a,0x40,0x6e,0x61,0x6d,0x65,0x49,0x22,0x0a,0x49,0x74,0x65,0x6d,0x31,0x06,0x3a,0x06,0x45,0x54,0x3a,0x0b,0x40,0x70,0x69,0x74,0x63,0x68,0x69,0x69,0x3a,0x0c,0x40,0x76,0x6f,0x6c,0x75,0x6d,0x65,0x69,0x55))
    ChangeInventoryArmor(1002,0,0,1,false)
    0()
   EndIf()
   0()
  EndIf()
  If(1,3117,0,2000,1)
   If(1,4117,0,3,0)
    ChangeVariable(4117,4117,0,0,4)
    ShowMessageFace("ankou_fc1",0,0,2,4)
    ShowMessage("\\n<Anko (Affection:\\V[3117])>Gift...")
    250(bytes(0x04,0x08,0x6f,0x3a,0x0c,0x52,0x50,0x47,0x3a,0x3a,0x53,0x45,0x08,0x3a,0x0a,0x40,0x6e,0x61,0x6d,0x65,0x49,0x22,0x0a,0x49,0x74,0x65,0x6d,0x31,0x06,0x3a,0x06,0x45,0x54,0x3a,0x0b,0x40,0x70,0x69,0x74,0x63,0x68,0x69,0x69,0x3a,0x0c,0x40,0x76,0x6f,0x6c,0x75,0x6d,0x65,0x69,0x55))
    ChangeInventoryArmor(1109,0,0,1,false)
    0()
   EndIf()
   0()
  EndIf()
  355("actor_label_jump")
  If(1,1001,0,19,2)
   ShowMessageFace("ankou_fc1",0,0,2,5)
   ShowMessage("\\n<Anko (Affection:\\V[3117])>Where is this...? Am I lost...?")
   0()
  Else()
   ShowMessageFace("ankou_fc1",0,0,2,6)
   ShowMessage("\\n<Anko (Affection:\\V[3117])>Welcome back...")
   0()
  EndIf()
  JumpToLabel("メニュー")
  DefineLabel("90")
  ShowMessageFace("meda_fc1",0,0,2,7)
  ShowMessage("\\n<Meru Meru (Affection:\\V[3090])>*Rustle Rustle* *Creep Creep*")
  ShowMessageFace("ankou_fc1",0,0,2,8)
  ShowMessage("\\n<Anko (Affection:\\V[3117])>*Rustle Rustle*?")
  ShowMessageFace("meda_fc1",0,0,2,9)
  ShowMessage("\\n<Meru Meru (Affection:\\V[3090])>*Creep Creep Creep*")
  ShowMessageFace("ankou_fc1",0,0,2,10)
  ShowMessage("\\n<Anko (Affection:\\V[3117])>*Creep Creep*")
  ShowMessageFace("",0,0,2,11)
  ShowMessage("They seem to understand each other.")
  JumpToLabel("メニュー")
  DefineLabel("99")
  ShowMessageFace("namazu_fc1",0,0,2,12)
  ShowMessage("\\n<Gigi (Affection:\\V[3099])>Oh-ho... Seems we're both rather odd mermaids, aren't we?")
  ShowMessageFace("ankou_fc1",0,0,2,13)
  ShowMessage("\\n<Anko (Affection:\\V[3117])>Odd...?")
  ShowMessageFace("namazu_fc1",0,0,2,14)
  ShowMessage("\\n<Gigi (Affection:\\V[3099])>Oh, never mind.")
  ShowMessageFace("ankou_fc1",0,0,2,15)
  ShowMessage("\\n<Anko (Affection:\\V[3117])>............")
  ShowMessageFace("namazu_fc1",2,0,2,16)
  ShowMessage("\\n<Gigi (Affection:\\V[3099])>Don't hold your lure in front of my eyes. Are you trying to hook me?")
  JumpToLabel("メニュー")
  DefineLabel("144")
  ShowMessageFace("ankou_fc1",0,0,2,17)
  ShowMessage("\\n<Anko (Affection:\\V[3117])>............")
  ShowMessageFace("saboresu_fc1",0,0,2,18)
  ShowMessage("\\n<Sunny (Affection:\\V[3144])>There are some strange fish in the sea, huh? I wonder if she could become a pirate...")
  ShowMessageFace("ankou_fc1",0,0,2,19)
  ShowMessage("\\n<Anko (Affection:\\V[3117])>............")
  ShowMessageFace("saboresu_fc1",0,0,2,20)
  ShowMessage("\\n<Sunny (Affection:\\V[3144])>Knock it off with that lure of yours; I'm not gonna fall for it.")
  JumpToLabel("メニュー")
  DefineLabel("174")
  ShowMessageFace("ankou_fc1",0,0,2,21)
  ShowMessage("\\n<Anko (Affection:\\V[3117])>............")
  ShowMessageFace("sandw_fc1",0,0,2,22)
  ShowMessage("\\n<Dahlia (Affection:\\V[3174])>............")
  ShowMessageFace("ankou_fc1",0,0,2,23)
  ShowMessage("\\n<Anko (Affection:\\V[3117])>I'm an anglerfish...")
  ShowMessageFace("sandw_fc1",0,0,2,24)
  ShowMessage("\\n<Dahlia (Affection:\\V[3174])>I'm a sandworm...")
  ShowMessageFace("ankou_fc1",0,0,2,25)
  ShowMessage("\\n<Anko (Affection:\\V[3117])>............")
  ShowMessageFace("sandw_fc1",0,0,2,26)
  ShowMessage("\\n<Dahlia (Affection:\\V[3174])>............")
  JumpToLabel("メニュー")
  DefineLabel("メニュー")
  StartLoop()
   355("unlimited_choices(11, [\"Give presents\",")
   655("\"Add to party\",")
   655("\"View present list\",\"Make a request\",")
   655("\"Never mind\"])")
   If(1,11,0,0,0)
    355("present_start(117)")
    0()
   EndIf()
   If(1,11,0,1,0)
    PictureClear(5)
    355("move_actor_ex(117)")
    EndEventProcessing()
    0()
   EndIf()
   If(1,11,0,2,0)
    ShowMessageFace("",0,0,2,27)
    ShowMessage("Affection       10:\\ii[24]")
    ShowMessage("Affection     100:\\ia[1001]")
    ShowMessage("Affection     500:\\ia[1002]")
    ShowMessage("Affection   2000:\\ia[1109]")
    0()
   EndIf()
   If(1,11,0,3,0)
    PictureClear(5)
    ShowMessageFace("",0,0,2,28)
    ShowMessage("Request what? (Affection：\\V[3117])")
    ShowChoices(strings("Absorption(Affection:10)","Never mind"),2)
    IfPlayerPicksChoice(0,null)
     If(1,3117,0,10,1)
      355("call_novel_scene(4376)")
      EndEventProcessing()
      0()
     Else()
      ShowMessageFace("ankou_fc1",0,0,2,29)
      ShowMessage("\\n<Anko (Affection:\\V[3117])>............")
      0()
     EndIf()
     0()
    IfPlayerPicksChoice(1,null)
     0()
    404()
    0()
   EndIf()
   If(1,11,0,4,1)
    PictureClear(5)
    EndEventProcessing()
    0()
   EndIf()
   0()
  EndLoop()
  0()
 PAGE   2
  // condition: party contains actor #117
  0()


EVENT   18
 PAGE   1
  // condition: switch 1261 is ON
  PictureDisplay(5,"80_madgolem_st01",0,0,0,0,100,100,0,0)
  PictureMove(5,null,0,0,0,0,100,100,255,0,30,true)
  If(1,3261,0,100,1)
   If(1,4261,0,0,0)
    ChangeVariable(4261,4261,0,0,1)
    ShowMessageFace("madgolem_fc1",0,0,2,1)
    ShowMessage("\\n<Knog (Affection:\\V[3261])>THIS WAS MIXED INTO MY MUD...")
    250(bytes(0x04,0x08,0x6f,0x3a,0x0c,0x52,0x50,0x47,0x3a,0x3a,0x53,0x45,0x08,0x3a,0x0a,0x40,0x6e,0x61,0x6d,0x65,0x49,0x22,0x0a,0x49,0x74,0x65,0x6d,0x31,0x06,0x3a,0x06,0x45,0x54,0x3a,0x0b,0x40,0x70,0x69,0x74,0x63,0x68,0x69,0x69,0x3a,0x0c,0x40,0x76,0x6f,0x6c,0x75,0x6d,0x65,0x69,0x55))
    ChangeInventoryArmor(1001,0,0,1,false)
    0()
   EndIf()
   0()
  EndIf()
  If(1,3261,0,500,1)
   If(1,4261,0,1,0)
    ChangeVariable(4261,4261,0,0,2)
    ShowMessageFace("madgolem_fc1",0,0,2,2)
    ShowMessage("\\n<Knog (Affection:\\V[3261])>THIS WAS MIXED INTO MY MUD...")
    250(bytes(0x04,0x08,0x6f,0x3a,0x0c,0x52,0x50,0x47,0x3a,0x3a,0x53,0x45,0x08,0x3a,0x0a,0x40,0x6e,0x61,0x6d,0x65,0x49,0x22,0x0a,0x49,0x74,0x65,0x6d,0x31,0x06,0x3a,0x06,0x45,0x54,0x3a,0x0b,0x40,0x70,0x69,0x74,0x63,0x68,0x69,0x69,0x3a,0x0c,0x40,0x76,0x6f,0x6c,0x75,0x6d,0x65,0x69,0x55))
    ChangeInventoryArmor(1002,0,0,1,false)
    0()
   EndIf()
   0()
  EndIf()
  If(1,3261,0,2000,1)
   If(1,4261,0,2,0)
    ChangeVariable(4261,4261,0,0,3)
    ShowMessageFace("madgolem_fc1",0,0,2,3)
    ShowMessage("\\n<Knog (Affection:\\V[3261])>THIS WAS MIXED INTO MY MUD...")
    250(bytes(0x04,0x08,0x6f,0x3a,0x0c,0x52,0x50,0x47,0x3a,0x3a,0x53,0x45,0x08,0x3a,0x0a,0x40,0x6e,0x61,0x6d,0x65,0x49,0x22,0x0a,0x49,0x74,0x65,0x6d,0x31,0x06,0x3a,0x06,0x45,0x54,0x3a,0x0b,0x40,0x70,0x69,0x74,0x63,0x68,0x69,0x69,0x3a,0x0c,0x40,0x76,0x6f,0x6c,0x75,0x6d,0x65,0x69,0x55))
    ChangeInventoryArmor(1206,0,0,1,false)
    0()
   EndIf()
   0()
  EndIf()
  If(1,3261,0,4000,1)
   If(1,4261,0,3,0)
    ChangeVariable(4261,4261,0,0,4)
    ShowMessageFace("madgolem_fc1",0,0,2,4)
    ShowMessage("\\n<Knog (Affection:\\V[3261])>THIS WAS MIXED INTO MY MUD...")
    250(bytes(0x04,0x08,0x6f,0x3a,0x0c,0x52,0x50,0x47,0x3a,0x3a,0x53,0x45,0x08,0x3a,0x0a,0x40,0x6e,0x61,0x6d,0x65,0x49,0x22,0x0a,0x49,0x74,0x65,0x6d,0x31,0x06,0x3a,0x06,0x45,0x54,0x3a,0x0b,0x40,0x70,0x69,0x74,0x63,0x68,0x69,0x69,0x3a,0x0c,0x40,0x76,0x6f,0x6c,0x75,0x6d,0x65,0x69,0x55))
    ChangeInventoryArmor(1004,0,0,1,false)
    0()
   EndIf()
   0()
  EndIf()
  355("actor_label_jump")
  ShowMessageFace("madgolem_fc1",0,0,2,5)
  ShowMessage("\\n<Knog (Affection:\\V[3261])>MOVING OUT...?")
  JumpToLabel("メニュー")
  DefineLabel("262")
  ShowMessageFace("madgolem_fc1",0,0,2,6)
  ShowMessage("\\n<Knog (Affection:\\V[3261])>STONE GOLEM CONFIRMED...")
  ShowMessageFace("golem_fc1",0,0,2,7)
  ShowMessage("\\n<Emeth (Affection:\\V[3262])>MUD GOLEM AHEAD...\nSUPERIOR WAR POTENTIAL IS MY STRENGTH...")
  ShowMessageFace("madgolem_fc1",0,0,2,8)
  ShowMessage("\\n<Knog (Affection:\\V[3261])>YOU HAVE MADE AN ERROR IN COMPARING YOUR WAR POTENTIAL FROM LIMA. I HAVE THE ADVANTAGE IN COMBAT...")
  ShowMessageFace("golem_fc1",0,0,2,9)
  ShowMessage("\\n<Emeth (Affection:\\V[3262])>COMMENCING COMPARISON OF SUPERIORITY...*WHIRRRR*...")
  ShowMessageFace("madgolem_fc1",0,0,2,10)
  ShowMessage("\\n<Knog (Affection:\\V[3261])>INITIATING COMBAT...*slosh slosh slosh*")
  ShowMessageFace("sonia_fc3",2,0,2,11)
  ShowMessage("\\n<Sonya>No fighting!\nYou'll reduce this castle to nothing!!")
  JumpToLabel("メニュー")
  DefineLabel("264")
  ShowMessageFace("madgolem_fc1",0,0,2,12)
  ShowMessage("\\n<Knog (Affection:\\V[3261])>STANDING BY...*slosh slosh*...")
  ShowMessageFace("bgolem_fc1",1,0,2,13)
  ShowMessage("\\n<Maiss (Affection:\\V[3264])>An old-fashioned mud golem.\nI'm much more advanced than you.")
  ShowMessageFace("madgolem_fc1",0,0,2,14)
  ShowMessage("\\n<Knog (Affection:\\V[3261])>THEN I SHALL CONDUCT A COMBAT PERFORMANCE COMPARISON...")
  ShowMessageFace("bgolem_fc1",2,0,2,15)
  ShowMessage("\\n<Maiss (Affection:\\V[3264])>Oh, it's autonomous behavior system is in bad shape!\nI, robot...")
  JumpToLabel("メニュー")
  DefineLabel("286")
  ShowMessageFace("witchs_fc1",0,0,2,16)
  ShowMessage("\\n<Witch (Affection:\\V[3286])>This is a mud golem from Grangold...\nIt requires a great technological capacity to mass-produce something like this.")
  ShowMessageFace("madgolem_fc1",0,0,2,17)
  ShowMessage("\\n<Knog (Affection:\\V[3261])>HIGH MAGICAL POWER DETECTED...\nYOUR ORDERS, MASTER.")
  ShowMessageFace("witchs_fc1",0,0,2,18)
  ShowMessage("\\n<Witch (Affection:\\V[3286])>I am not your master, you have a free will.\nMove with your own intentions.")
  ShowMessageFace("madgolem_fc1",0,0,2,19)
  ShowMessage("\\n<Knog (Affection:\\V[3261])>...RESUMING AUTONOMOUS BEHAVIOR.\nTHINKING ON MY OWN...DIFFICULT...")
  JumpToLabel("メニュー")
  DefineLabel("314")
  ShowMessageFace("madgolem_fc1",0,0,2,20)
  ShowMessage("\\n<Knog (Affection:\\V[3261])>STANDING BY...*slosh slosh*...")
  ShowMessageFace("gigantic_fc1",0,0,2,21)
  ShowMessage("\\n<Jame (Affection:\\V[3314])>You're a mud golem!\nYou're really big!")
  ShowMessageFace("madgolem_fc1",0,0,2,22)
  ShowMessage("\\n<Knog (Affection:\\V[3261])>ALLY GIANT CONFIRMED...\nSURMISED OBJECTIVE: PLAYING WITH MUD.")
  ShowMessageFace("gigantic_fc1",0,0,2,23)
  ShowMessage("\\n<Jame (Affection:\\V[3314])>Playing with mud is fuuun!\nAhahahaaaaaa!")
  JumpToLabel("メニュー")
  DefineLabel("メニュー")
  StartLoop()
   355("unlimited_choices(11, [\"Give presents\",")
   655("\"Add to party\",")
   655("\"View present list\",\"Make a request\",")
   655("\"Never mind\"])")
   If(1,11,0,0,0)
    355("present_start(261)")
    0()
   EndIf()
   If(1,11,0,1,0)
    PictureClear(5)
    355("move_actor_ex(261)")
    EndEventProcessing()
    0()
   EndIf()
   If(1,11,0,2,0)
    ShowMessageFace("",0,0,2,24)
    ShowMessage("Affection     100:\\ia[1001]")
    ShowMessage("Affection     500:\\ia[1002]")
    ShowMessage("Affection   2000:\\ia[1206]")
    ShowMessage("Affection   4000:\\ia[1004]")
    0()
   EndIf()
   If(1,11,0,3,0)
    PictureClear(5)
    ShowMessageFace("",0,0,2,25)
    ShowMessage("Ask her for what? (Affection:\\V[3261])")
    ShowChoices(strings("Semen Squeezing Mud(Affection:10)","Never mind"),2)
    IfPlayerPicksChoice(0,null)
     If(1,3261,0,10,1)
      355("call_novel_scene(5116)")
      EndEventProcessing()
      0()
     Else()
      ShowMessageFace("madgolem_fc1",0,0,2,26)
      ShowMessage("\\n<Knog (Affection:\\V[3261])>CANNOT ACCEPT COMMAND...")
      0()
     EndIf()
     0()
    IfPlayerPicksChoice(1,null)
     0()
    404()
    0()
   EndIf()
   If(1,11,0,4,1)
    PictureClear(5)
    EndEventProcessing()
    0()
   EndIf()
   0()
  EndLoop()
  0()
 PAGE   2
  // condition: party contains actor #261
  0()



EVENT   19
 PAGE   1
  // condition: switch 1348 is ON
  PictureDisplay(5,"80_kyoryuu_st01",0,0,0,0,100,100,0,0)
  PictureMove(5,null,0,0,0,0,100,100,255,0,30,true)
  If(1,3348,0,500,1)
   If(1,4348,0,0,0)
    ChangeVariable(4348,4348,0,0,1)
    ShowMessageFace("kyoryuu_fc1",1,0,2,1)
    ShowMessage("\\n<Giga (Affection:\\V[3348])>This came out of my mouth...")
    250(bytes(0x04,0x08,0x6f,0x3a,0x0c,0x52,0x50,0x47,0x3a,0x3a,0x53,0x45,0x08,0x3a,0x0a,0x40,0x6e,0x61,0x6d,0x65,0x49,0x22,0x0a,0x49,0x74,0x65,0x6d,0x31,0x06,0x3a,0x06,0x45,0x54,0x3a,0x0b,0x40,0x70,0x69,0x74,0x63,0x68,0x69,0x69,0x3a,0x0c,0x40,0x76,0x6f,0x6c,0x75,0x6d,0x65,0x69,0x55))
    ChangeInventoryArmor(1120,0,0,1,false)
    0()
   EndIf()
   0()
  EndIf()
  If(1,3348,0,2000,1)
   If(1,4348,0,1,0)
    ChangeVariable(4348,4348,0,0,2)
    ShowMessageFace("kyoryuu_fc1",1,0,2,2)
    ShowMessage("\\n<Giga (Affection:\\V[3348])>This came out of my mouth...")
    250(bytes(0x04,0x08,0x6f,0x3a,0x0c,0x52,0x50,0x47,0x3a,0x3a,0x53,0x45,0x08,0x3a,0x0a,0x40,0x6e,0x61,0x6d,0x65,0x49,0x22,0x0a,0x49,0x74,0x65,0x6d,0x31,0x06,0x3a,0x06,0x45,0x54,0x3a,0x0b,0x40,0x70,0x69,0x74,0x63,0x68,0x69,0x69,0x3a,0x0c,0x40,0x76,0x6f,0x6c,0x75,0x6d,0x65,0x69,0x55))
    ChangeInventoryArmor(1023,0,0,1,false)
    0()
   EndIf()
   0()
  EndIf()
  If(1,3348,0,4000,1)
   If(1,4348,0,2,0)
    ChangeVariable(4348,4348,0,0,3)
    ShowMessageFace("kyoryuu_fc1",1,0,2,3)
    ShowMessage("\\n<Giga (Affection:\\V[3348])>This came out of my mouth...")
    250(bytes(0x04,0x08,0x6f,0x3a,0x0c,0x52,0x50,0x47,0x3a,0x3a,0x53,0x45,0x08,0x3a,0x0a,0x40,0x6e,0x61,0x6d,0x65,0x49,0x22,0x0a,0x49,0x74,0x65,0x6d,0x31,0x06,0x3a,0x06,0x45,0x54,0x3a,0x0b,0x40,0x70,0x69,0x74,0x63,0x68,0x69,0x69,0x3a,0x0c,0x40,0x76,0x6f,0x6c,0x75,0x6d,0x65,0x69,0x55))
    ChangeInventoryArmor(1561,0,0,1,false)
    0()
   EndIf()
   0()
  EndIf()
  If(1,3348,0,6000,1)
   If(1,4348,0,3,0)
    ChangeVariable(4348,4348,0,0,4)
    ShowMessageFace("kyoryuu_fc1",1,0,2,4)
    ShowMessage("\\n<Giga (Affection:\\V[3348])>This came out of my mouth...")
    250(bytes(0x04,0x08,0x6f,0x3a,0x0c,0x52,0x50,0x47,0x3a,0x3a,0x53,0x45,0x08,0x3a,0x0a,0x40,0x6e,0x61,0x6d,0x65,0x49,0x22,0x0a,0x49,0x74,0x65,0x6d,0x31,0x06,0x3a,0x06,0x45,0x54,0x3a,0x0b,0x40,0x70,0x69,0x74,0x63,0x68,0x69,0x69,0x3a,0x0c,0x40,0x76,0x6f,0x6c,0x75,0x6d,0x65,0x69,0x55))
    ChangeInventoryArmor(1511,0,0,1,false)
    0()
   EndIf()
   0()
  EndIf()
  355("actor_label_jump")
  ShowMessageFace("kyoryuu_fc1",1,0,2,5)
  ShowMessage("\\n<Giga (Affection:\\V[3348])>Are you going for a walk?\n*excited*...")
  JumpToLabel("メニュー")
  DefineLabel("174")
  ShowMessageFace("sandw_fc1",0,0,2,6)
  ShowMessage("\\n<Dahlia (Affection:\\V[3174])>Big...")
  ShowMessageFace("kyoryuu_fc1",0,0,2,7)
  ShowMessage("\\n<Giga (Affection:\\V[3348])>Big...")
  ShowMessageFace("sandw_fc1",0,0,2,8)
  ShowMessage("\\n<Dahlia (Affection:\\V[3174])>Compare height...?")
  ShowMessageFace("kyoryuu_fc1",0,0,2,9)
  ShowMessage("\\n<Giga (Affection:\\V[3348])>You're long, that's not better...")
  ShowMessageFace("sandw_fc1",1,0,2,10)
  ShowMessage("\\n<Dahlia (Affection:\\V[3174])>Ufufu...")
  JumpToLabel("メニュー")
  DefineLabel("262")
  ShowMessageFace("golem_fc1",0,0,2,11)
  ShowMessage("\\n<Emeth (Affection:\\V[3262])>GIANT DRAGON CONFIRMED...")
  ShowMessageFace("kyoryuu_fc1",1,0,2,12)
  ShowMessage("\\n<Giga (Affection:\\V[3348])>It's a rock giant...\nLet's play...")
  ShowMessageFace("golem_fc1",0,0,2,13)
  ShowMessage("\\n<Emeth (Affection:\\V[3262])>PLAY...?\nTHAT IS NOT IN MY COMMANDS...")
  ShowMessageFace("kyoryuu_fc1",1,0,2,14)
  ShowMessage("\\n<Giga (Affection:\\V[3348])>Do this... Shove!")
  ShowMessageFace("golem_fc1",0,0,2,15)
  ShowMessage("\\n<Emeth (Affection:\\V[3262])>UNDERSTOOD...SHOVE!")
  ShowMessageFace("sonia_fc3",2,0,2,16)
  ShowMessage("\\n<Sonya>The castle is falling apart!!")
  JumpToLabel("メニュー")
  DefineLabel("314")
  ShowMessageFace("gigantic_fc1",0,0,2,17)
  ShowMessage("\\n<Jame (Affection:\\V[3314])>Ooh, a giant dragon!")
  ShowMessageFace("kyoryuu_fc1",1,0,2,18)
  ShowMessage("\\n<Giga (Affection:\\V[3348])>Wow, a giant person...")
  ShowMessageFace("gigantic_fc1",0,0,2,19)
  ShowMessage("\\n<Jame (Affection:\\V[3314])>Hey, can I ride on your shell?")
  ShowMessageFace("kyoryuu_fc1",1,0,2,20)
  ShowMessage("\\n<Giga (Affection:\\V[3348])>You can't, the trees would fall off...\nCan I ride on your back...?")
  ShowMessageFace("gigantic_fc1",0,0,2,21)
  ShowMessage("\\n<Jame (Affection:\\V[3314])>No way, I'd be crushed under your weight!")
  ShowMessageFace("gigantic_fc1",0,0,2,22)
  ShowMessage("\\n<Jame (Affection:\\V[3314])>............")
  ShowMessageFace("kyoryuu_fc1",1,0,2,23)
  ShowMessage("\\n<Giga (Affection:\\V[3348])>............")
  ShowMessageFace("gigantic_fc1",0,0,2,24)
  ShowMessage("\\n<Jame (Affection:\\V[3314])>Ooh, a giant dragon!")
  ShowMessageFace("kyoryuu_fc1",1,0,2,25)
  ShowMessage("\\n<Giga (Affection:\\V[3348])>Wow, a giant person...")
  JumpToLabel("メニュー")
  DefineLabel("347")
  ShowMessageFace("kyoryuu_fc1",1,0,2,26)
  ShowMessage("\\n<Giga (Affection:\\V[3348])>Hazy...")
  ShowMessageFace("wyvern_fc1",0,0,2,27)
  ShowMessage("\\n<Warvein (Affection:\\V[3347])>This dragon is really absentminded...\nCan't you move a little faster...?")
  ShowMessageFace("kyoryuu_fc1",1,0,2,28)
  ShowMessage("\\n<Giga (Affection:\\V[3348])>I should run around at high speeds...?")
  ShowMessageFace("wyvern_fc1",0,0,2,29)
  ShowMessage("\\n<Warvein (Affection:\\V[3347])>I take back what I just said, I'm really scared.")
  JumpToLabel("メニュー")
  DefineLabel("メニュー")
  StartLoop()
   355("unlimited_choices(11, [\"Give presents\",")
   655("\"Add to party\",")
   655("\"View present list\",\"Make a request\",")
   655("\"Never mind\"])")
   If(1,11,0,0,0)
    355("present_start(348)")
    0()
   EndIf()
   If(1,11,0,1,0)
    PictureClear(5)
    355("move_actor_ex(348)")
    EndEventProcessing()
    0()
   EndIf()
   If(1,11,0,2,0)
    ShowMessageFace("",0,0,2,30)
    ShowMessage("Affection     500:\\ia[1120]")
    ShowMessage("Affection   2000:\\ia[1023]")
    ShowMessage("Affection   4000:\\ia[1561]")
    ShowMessage("Affection   6000:\\ia[1511]")
    0()
   EndIf()
   If(1,11,0,3,0)
    PictureClear(5)
    ShowMessageFace("",0,0,2,31)
    ShowMessage("Ask her for what? (Affection:\\V[3348])")
    ShowChoices(strings("Swallow(Affection:10)","Swallow...?(Affection:100)","Never mind"),3)
    IfPlayerPicksChoice(0,null)
     If(1,3348,0,10,1)
      355("call_novel_scene(5556)")
      EndEventProcessing()
      0()
     Else()
      ShowMessageFace("kyoryuu_fc1",0,0,2,32)
      ShowMessage("\\n<Giga (Affection:\\V[3348])>Later...")
      0()
     EndIf()
     0()
    IfPlayerPicksChoice(1,null)
     If(1,3348,0,100,1)
      355("call_novel_scene(5557)")
      EndEventProcessing()
      0()
     Else()
      ShowMessageFace("kyoryuu_fc1",0,0,2,33)
      ShowMessage("\\n<Giga (Affection:\\V[3348])>Later...")
      0()
     EndIf()
     0()
    IfPlayerPicksChoice(2,null)
     0()
    404()
    0()
   EndIf()
   If(1,11,0,4,1)
    PictureClear(5)
    EndEventProcessing()
    0()
   EndIf()
   0()
  EndLoop()
  0()
 PAGE   2
  // condition: party contains actor #348
  0()

EVENT   21
 PAGE   1
  // condition: switch 1262 is ON
  PictureDisplay(5,"80_golem_st01",0,0,0,0,100,100,0,0)
  PictureMove(5,null,0,0,0,0,100,100,255,0,30,true)
  If(1,3262,0,100,1)
   If(1,4262,0,0,0)
    ChangeVariable(4262,4262,0,0,1)
    ShowMessageFace("golem_fc1",0,0,2,1)
    ShowMessage("\\n<Emeth (Affection:\\V[3262])>OBJECT ACQUIRED...")
    250(bytes(0x04,0x08,0x6f,0x3a,0x0c,0x52,0x50,0x47,0x3a,0x3a,0x53,0x45,0x08,0x3a,0x0a,0x40,0x6e,0x61,0x6d,0x65,0x49,0x22,0x0a,0x49,0x74,0x65,0x6d,0x31,0x06,0x3a,0x06,0x45,0x54,0x3a,0x0b,0x40,0x70,0x69,0x74,0x63,0x68,0x69,0x69,0x3a,0x0c,0x40,0x76,0x6f,0x6c,0x75,0x6d,0x65,0x69,0x55))
    ChangeInventoryArmor(1016,0,0,1,false)
    0()
   EndIf()
   0()
  EndIf()
  If(1,3262,0,500,1)
   If(1,4262,0,1,0)
    ChangeVariable(4262,4262,0,0,2)
    ShowMessageFace("golem_fc1",0,0,2,2)
    ShowMessage("\\n<Emeth (Affection:\\V[3262])>OBJECT ACQUIRED...")
    250(bytes(0x04,0x08,0x6f,0x3a,0x0c,0x52,0x50,0x47,0x3a,0x3a,0x53,0x45,0x08,0x3a,0x0a,0x40,0x6e,0x61,0x6d,0x65,0x49,0x22,0x0a,0x49,0x74,0x65,0x6d,0x31,0x06,0x3a,0x06,0x45,0x54,0x3a,0x0b,0x40,0x70,0x69,0x74,0x63,0x68,0x69,0x69,0x3a,0x0c,0x40,0x76,0x6f,0x6c,0x75,0x6d,0x65,0x69,0x55))
    ChangeInventoryArmor(1402,0,0,1,false)
    0()
   EndIf()
   0()
  EndIf()
  If(1,3262,0,2000,1)
   If(1,4262,0,2,0)
    ChangeVariable(4262,4262,0,0,3)
    ShowMessageFace("golem_fc1",0,0,2,3)
    ShowMessage("\\n<Emeth (Affection:\\V[3262])>OBJECT ACQUIRED...")
    250(bytes(0x04,0x08,0x6f,0x3a,0x0c,0x52,0x50,0x47,0x3a,0x3a,0x53,0x45,0x08,0x3a,0x0a,0x40,0x6e,0x61,0x6d,0x65,0x49,0x22,0x0a,0x49,0x74,0x65,0x6d,0x31,0x06,0x3a,0x06,0x45,0x54,0x3a,0x0b,0x40,0x70,0x69,0x74,0x63,0x68,0x69,0x69,0x3a,0x0c,0x40,0x76,0x6f,0x6c,0x75,0x6d,0x65,0x69,0x55))
    ChangeInventoryArmor(1018,0,0,1,false)
    0()
   EndIf()
   0()
  EndIf()
  If(1,3262,0,4000,1)
   If(1,4262,0,3,0)
    ChangeVariable(4262,4262,0,0,4)
    ShowMessageFace("golem_fc1",0,0,2,4)
    ShowMessage("\\n<Emeth (Affection:\\V[3262])>OBJECT ACQUIRED...")
    250(bytes(0x04,0x08,0x6f,0x3a,0x0c,0x52,0x50,0x47,0x3a,0x3a,0x53,0x45,0x08,0x3a,0x0a,0x40,0x6e,0x61,0x6d,0x65,0x49,0x22,0x0a,0x49,0x74,0x65,0x6d,0x31,0x06,0x3a,0x06,0x45,0x54,0x3a,0x0b,0x40,0x70,0x69,0x74,0x63,0x68,0x69,0x69,0x3a,0x0c,0x40,0x76,0x6f,0x6c,0x75,0x6d,0x65,0x69,0x55))
    ChangeInventoryArmor(1403,0,0,1,false)
    0()
   EndIf()
   0()
  EndIf()
  355("actor_label_jump")
  ShowMessageFace("golem_fc1",0,0,2,5)
  ShowMessage("\\n<Emeth (Affection:\\V[3262])>COMMENCE STARTUP...?")
  JumpToLabel("メニュー")
  DefineLabel("233")
  ShowMessageFace("mefist_fc1",0,0,2,6)
  ShowMessage("\\n<Mephisto (Affection:\\V[3233])>Is this the golem made by Grangold?\nI see, it has a very high degree of perfection...")
  ShowMessageFace("golem_fc1",0,0,2,7)
  ShowMessage("\\n<Emeth (Affection:\\V[3262])>MASTER?\nAWAITING ORDERS...")
  ShowMessageFace("mefist_fc1",0,0,2,8)
  ShowMessage("\\n<Mephisto (Affection:\\V[3233])>So, you are absolutely loyal to me...")
  ShowMessageFace("sonia_fc2",5,0,2,9)
  ShowMessage("\\n<Sonya>Wait! What are you doing?")
  JumpToLabel("メニュー")
  DefineLabel("261")
  ShowMessageFace("madgolem_fc1",0,0,2,10)
  ShowMessage("\\n<Knog (Affection:\\V[3261])>STONE GOLEM CONFIRMED...")
  ShowMessageFace("golem_fc1",0,0,2,11)
  ShowMessage("\\n<Emeth (Affection:\\V[3262])>MUD GOLEM AHEAD...\nSUPERIOR WAR POTENTIAL IS MY STRENGTH...")
  ShowMessageFace("madgolem_fc1",0,0,2,12)
  ShowMessage("\\n<Knog (Affection:\\V[3261])>YOU HAVE MADE AN ERROR IN COMPARING YOUR WAR POTENTIAL FROM LIMA. I HAVE THE ADVANTAGE IN COMBAT...")
  ShowMessageFace("golem_fc1",0,0,2,13)
  ShowMessage("\\n<Emeth (Affection:\\V[3262])>COMMENCING COMPARISON OF SUPERIORITY...*WHIRRRR*...")
  ShowMessageFace("madgolem_fc1",0,0,2,14)
  ShowMessage("\\n<Knog (Affection:\\V[3261])>INITIATING COMBAT...*slosh slosh slosh*")
  ShowMessageFace("sonia_fc3",2,0,2,15)
  ShowMessage("\\n<Sonya>No fighting!\nYou'll reduce this castle to nothing!!")
  JumpToLabel("メニュー")
  DefineLabel("264")
  ShowMessageFace("golem_fc1",0,0,2,16)
  ShowMessage("\\n<Emeth (Affection:\\V[3262])>*WHIRRRR*")
  ShowMessageFace("bgolem_fc1",1,0,2,17)
  ShowMessage("\\n<Maiss (Affection:\\V[3264])>An old-fashioned stone model golem.\nI'm much more advanced than you.")
  ShowMessageFace("golem_fc1",0,0,2,18)
  ShowMessage("\\n<Emeth (Affection:\\V[3262])>*whirr*... COMMENCE COMPARISON OF STRENGTH...?")
  ShowMessageFace("bgolem_fc1",2,0,2,19)
  ShowMessage("\\n<Maiss (Affection:\\V[3264])>I'm a magic-type golem...")
  JumpToLabel("メニュー")
  DefineLabel("348")
  ShowMessageFace("golem_fc1",0,0,2,20)
  ShowMessage("\\n<Emeth (Affection:\\V[3262])>GIANT DRAGON CONFIRMED...")
  ShowMessageFace("kyoryuu_fc1",1,0,2,21)
  ShowMessage("\\n<Giga (Affection:\\V[3348])>It's a rock giant...\nLet's play...")
  ShowMessageFace("golem_fc1",0,0,2,22)
  ShowMessage("\\n<Emeth (Affection:\\V[3262])>PLAY...?\nTHAT IS NOT IN MY COMMANDS...")
  ShowMessageFace("kyoryuu_fc1",1,0,2,23)
  ShowMessage("\\n<Giga (Affection:\\V[3348])>Do this... Shove!")
  ShowMessageFace("golem_fc1",0,0,2,24)
  ShowMessage("\\n<Emeth (Affection:\\V[3262])>UNDERSTOOD...SHOVE!")
  ShowMessageFace("sonia_fc3",2,0,2,25)
  ShowMessage("\\n<Sonya>The castle is falling apart!!")
  JumpToLabel("メニュー")
  DefineLabel("メニュー")
  StartLoop()
   355("unlimited_choices(11, [\"Give presents\",")
   655("\"Add to party\",")
   655("\"View present list\",\"Make a request\",")
   655("\"Never mind\"])")
   If(1,11,0,0,0)
    355("present_start(262)")
    0()
   EndIf()
   If(1,11,0,1,0)
    PictureClear(5)
    355("move_actor_ex(262)")
    EndEventProcessing()
    0()
   EndIf()
   If(1,11,0,2,0)
    ShowMessageFace("",0,0,2,26)
    ShowMessage("Affection     100:\\ia[1016]")
    ShowMessage("Affection     500:\\ia[1402]")
    ShowMessage("Affection   2000:\\ia[1018]")
    ShowMessage("Affection   4000:\\ia[1403]")
    0()
   EndIf()
   If(1,11,0,3,0)
    PictureClear(5)
    ShowMessageFace("",0,0,2,27)
    ShowMessage("Ask her for what? (Affection:\\V[3262])")
    ShowChoices(strings("Power Supply(Affection:10)","Never mind"),2)
    IfPlayerPicksChoice(0,null)
     If(1,3262,0,10,1)
      355("call_novel_scene(5121)")
      EndEventProcessing()
      0()
     Else()
      ShowMessageFace("golem_fc1",0,0,2,28)
      ShowMessage("\\n<Emeth (Affection:\\V[3262])>INSUFFICIENT FAVORABILITY...")
      0()
     EndIf()
     0()
    IfPlayerPicksChoice(1,null)
     0()
    404()
    0()
   EndIf()
   If(1,11,0,4,1)
    PictureClear(5)
    EndEventProcessing()
    0()
   EndIf()
   0()
  EndLoop()
  0()
 PAGE   2
  // condition: party contains actor #262
  0()


