﻿
DisplayName "Sabasa"



EVENT   1
 PAGE   1
  ShowMessageFace("",0,0,2,1)
  ShowMessage("The door is firmly shut.")
  0()



EVENT   2
 PAGE   1
  ShowMessageFace("",0,0,2,1)
  ShowMessage("The door is firmly shut.")
  0()



EVENT   3
 PAGE   1
  ShowMessageFace("",0,0,2,1)
  ShowMessage("The door is firmly shut.")
  0()



EVENT   4
 PAGE   1
  ShowMessageFace("",0,0,2,1)
  ShowMessage("The door is firmly shut.")
  0()



EVENT   5
 PAGE   1
  ShowMessageFace("",0,0,2,1)
  ShowMessage("The door is firmly shut.")
  0()



EVENT   6
 PAGE   1
  ShowMessageFace("vendetta_fc1",0,0,2,1)
  ShowMessage("\\n<Vendetta>Fufu, what a tasty-looking boy...\nShall I teach you some of the pleasures adults enjoy?")
  ShowMessageFace("",0,0,2,2)
  ShowMessage("\\n<Young Boy>S-someone help...")
  ShowMessageFace("ruka_fc1",0,0,2,3)
  ShowMessage("\\n<Luka>Get away from him!")
  If(4,118,0)
   ShowMessageFace("meia_fc1",3,0,2,4)
   ShowMessage("\\n<Meia>Hands off that boy!")
   0()
  EndIf()
  Battle(0,810,false,false)
  ChangeSwitch(2237,2237,0)
  ShowMessageFace("",0,0,2,5)
  ShowMessage("\\n<Young Boy>Thanks, hero!\nHere, take this!")
  250(bytes(0x04,0x08,0x6f,0x3a,0x0c,0x52,0x50,0x47,0x3a,0x3a,0x53,0x45,0x08,0x3a,0x0a,0x40,0x6e,0x61,0x6d,0x65,0x49,0x22,0x0a,0x49,0x74,0x65,0x6d,0x31,0x06,0x3a,0x06,0x45,0x54,0x3a,0x0b,0x40,0x70,0x69,0x74,0x63,0x68,0x69,0x69,0x3a,0x0c,0x40,0x76,0x6f,0x6c,0x75,0x6d,0x65,0x69,0x55))
  ChangeInventory_Item(1,0,0,1)
  EndEventProcessing()
  0()
 PAGE   2
  // condition: switch 2237 is ON
  0()



EVENT   7
 PAGE   1
  If(0,2237,1)
   ShowMessageFace("vendetta_fc1",0,0,2,1)
   ShowMessage("\\n<Vendetta>Fufu, what a tasty-looking boy...\nShall I teach you some of the pleasures adults enjoy?")
   ShowMessageFace("",0,0,2,2)
   ShowMessage("\\n<Young Boy>S-someone help...")
   0()
  EndIf()
  If(0,2237,0)
   ShowMessageFace("",0,0,2,3)
   ShowMessage("\\n<Young Boy>I'm gonna grow up to be a cool and strong hero like you!")
   0()
  EndIf()
  0()



EVENT   8
 PAGE   1
  ShowMessageFace("conquista_fc1",0,0,2,1)
  ShowMessage("\\n<Conquista>A hero? I'll be preying on you next!")
  If(4,520,0)
   ShowMessageFace("lazarus3_fc1",0,0,2,2)
   ShowMessage("\\n<Lazarus>That's nice, but I didn't think vampires were the religious sort...")
   0()
  EndIf()
  Battle(0,808,false,false)
  TemporaryRemoveEvent()
  0()



EVENT   9
 PAGE   1
  ShowMessageFace("",0,0,2,1)
  ShowMessage("\\n<Thug>They sucked me dry...")
  0()



EVENT   10
 PAGE   1
  ShowMessageFace("",0,0,2,1)
  ShowMessage("The door is firmly shut.")
  0()



EVENT   11
 PAGE   1
  ShowMessageFace("",0,0,2,1)
  ShowMessage("\\n<Knight>Queen Sara...\nI missed you so much...")
  0()



EVENT   12
 PAGE   1
  ShowMessageFace("",2,0,2,1)
  ShowMessage("\\n<Knight>I won't turn my back no matter how powerful you monsters are!")
  ShowMessageFace("vendetta_fc1",0,0,2,2)
  ShowMessage("\\n<Vendetta>Excellent. The blood of strong humans is my favorite.")
  0()



EVENT   13
 PAGE   1
  ShowMessageFace("",2,0,2,1)
  ShowMessage("\\n<Knight>I won't turn my back no matter how powerful you monsters are!")
  ShowMessageFace("vendetta_fc1",0,0,2,2)
  ShowMessage("\\n<Vendetta>Excellent. The blood of strong humans is my favorite.")
  0()



EVENT   14
 PAGE   1
  ShowMessageFace("vampire_fc1",0,0,2,1)
  ShowMessage("\\n<Vampire>Give me your blood...")
  ShowMessageFace("wani_fc1",0,0,2,2)
  ShowMessage("\\n<Alligator Girl>Gaa...")
  205(0,bytes(0x04,0x08,0x6f,0x3a,0x13,0x52,0x50,0x47,0x3a,0x3a,0x4d,0x6f,0x76,0x65,0x52,0x6f,0x75,0x74,0x65,0x09,0x3a,0x0c,0x40,0x72,0x65,0x70,0x65,0x61,0x74,0x46,0x3a,0x0f,0x40,0x73,0x6b,0x69,0x70,0x70,0x61,0x62,0x6c,0x65,0x46,0x3a,0x0a,0x40,0x77,0x61,0x69,0x74,0x54,0x3a,0x0a,0x40,0x6c,0x69,0x73,0x74,0x5b,0x07,0x6f,0x3a,0x15,0x52,0x50,0x47,0x3a,0x3a,0x4d,0x6f,0x76,0x65,0x43,0x6f,0x6d,0x6d,0x61,0x6e,0x64,0x07,0x3a,0x0a,0x40,0x63,0x6f,0x64,0x65,0x69,0x15,0x3a,0x10,0x40,0x70,0x61,0x72,0x61,0x6d,0x65,0x74,0x65,0x72,0x73,0x5b,0x00,0x6f,0x3b,0x0a,0x07,0x3b,0x0b,0x69,0x00,0x3b,0x0c,0x5b,0x00))
  ShowMessageFace("vampire_fc1",0,0,2,3)
  ShowMessage("\\n<Vampire>...Huh? Did that come from over by the water?")
  ChangeSwitch(31,31,0)
  Wait(30)
  250(bytes(0x04,0x08,0x6f,0x3a,0x0c,0x52,0x50,0x47,0x3a,0x3a,0x53,0x45,0x08,0x3a,0x0a,0x40,0x6e,0x61,0x6d,0x65,0x49,0x22,0x0b,0x57,0x61,0x74,0x65,0x72,0x31,0x06,0x3a,0x06,0x45,0x54,0x3a,0x0b,0x40,0x70,0x69,0x74,0x63,0x68,0x69,0x69,0x3a,0x0c,0x40,0x76,0x6f,0x6c,0x75,0x6d,0x65,0x69,0x55))
  205(72,bytes(0x04,0x08,0x6f,0x3a,0x13,0x52,0x50,0x47,0x3a,0x3a,0x4d,0x6f,0x76,0x65,0x52,0x6f,0x75,0x74,0x65,0x09,0x3a,0x0c,0x40,0x72,0x65,0x70,0x65,0x61,0x74,0x46,0x3a,0x0f,0x40,0x73,0x6b,0x69,0x70,0x70,0x61,0x62,0x6c,0x65,0x46,0x3a,0x0a,0x40,0x77,0x61,0x69,0x74,0x54,0x3a,0x0a,0x40,0x6c,0x69,0x73,0x74,0x5b,0x09,0x6f,0x3a,0x15,0x52,0x50,0x47,0x3a,0x3a,0x4d,0x6f,0x76,0x65,0x43,0x6f,0x6d,0x6d,0x61,0x6e,0x64,0x07,0x3a,0x0a,0x40,0x63,0x6f,0x64,0x65,0x69,0x09,0x3a,0x10,0x40,0x70,0x61,0x72,0x61,0x6d,0x65,0x74,0x65,0x72,0x73,0x5b,0x00,0x6f,0x3b,0x0a,0x07,0x3b,0x0b,0x69,0x09,0x3b,0x0c,0x5b,0x00,0x6f,0x3b,0x0a,0x07,0x3b,0x0b,0x69,0x09,0x3b,0x0c,0x5b,0x00,0x6f,0x3b,0x0a,0x07,0x3b,0x0b,0x69,0x00,0x3b,0x0c,0x5b,0x00))
  205(72,bytes(0x04,0x08,0x6f,0x3a,0x13,0x52,0x50,0x47,0x3a,0x3a,0x4d,0x6f,0x76,0x65,0x52,0x6f,0x75,0x74,0x65,0x09,0x3a,0x0c,0x40,0x72,0x65,0x70,0x65,0x61,0x74,0x46,0x3a,0x0f,0x40,0x73,0x6b,0x69,0x70,0x70,0x61,0x62,0x6c,0x65,0x46,0x3a,0x0a,0x40,0x77,0x61,0x69,0x74,0x46,0x3a,0x0a,0x40,0x6c,0x69,0x73,0x74,0x5b,0x09,0x6f,0x3a,0x15,0x52,0x50,0x47,0x3a,0x3a,0x4d,0x6f,0x76,0x65,0x43,0x6f,0x6d,0x6d,0x61,0x6e,0x64,0x07,0x3a,0x0a,0x40,0x63,0x6f,0x64,0x65,0x69,0x06,0x3a,0x10,0x40,0x70,0x61,0x72,0x61,0x6d,0x65,0x74,0x65,0x72,0x73,0x5b,0x00,0x6f,0x3b,0x0a,0x07,0x3b,0x0b,0x69,0x06,0x3b,0x0c,0x5b,0x00,0x6f,0x3b,0x0a,0x07,0x3b,0x0b,0x69,0x06,0x3b,0x0c,0x5b,0x00,0x6f,0x3b,0x0a,0x07,0x3b,0x0b,0x69,0x00,0x3b,0x0c,0x5b,0x00))
  205(0,bytes(0x04,0x08,0x6f,0x3a,0x13,0x52,0x50,0x47,0x3a,0x3a,0x4d,0x6f,0x76,0x65,0x52,0x6f,0x75,0x74,0x65,0x09,0x3a,0x0c,0x40,0x72,0x65,0x70,0x65,0x61,0x74,0x46,0x3a,0x0f,0x40,0x73,0x6b,0x69,0x70,0x70,0x61,0x62,0x6c,0x65,0x46,0x3a,0x0a,0x40,0x77,0x61,0x69,0x74,0x54,0x3a,0x0a,0x40,0x6c,0x69,0x73,0x74,0x5b,0x0c,0x6f,0x3a,0x15,0x52,0x50,0x47,0x3a,0x3a,0x4d,0x6f,0x76,0x65,0x43,0x6f,0x6d,0x6d,0x61,0x6e,0x64,0x07,0x3a,0x0a,0x40,0x63,0x6f,0x64,0x65,0x69,0x22,0x3a,0x10,0x40,0x70,0x61,0x72,0x61,0x6d,0x65,0x74,0x65,0x72,0x73,0x5b,0x06,0x69,0x0b,0x6f,0x3b,0x0a,0x07,0x3b,0x0b,0x69,0x23,0x3b,0x0c,0x5b,0x06,0x69,0x0a,0x6f,0x3b,0x0a,0x07,0x3b,0x0b,0x69,0x2a,0x3b,0x0c,0x5b,0x00,0x6f,0x3b,0x0a,0x07,0x3b,0x0b,0x69,0x28,0x3b,0x0c,0x5b,0x00,0x6f,0x3b,0x0a,0x07,0x3b,0x0b,0x69,0x06,0x3b,0x0c,0x5b,0x00,0x6f,0x3b,0x0a,0x07,0x3b,0x0b,0x69,0x06,0x3b,0x0c,0x5b,0x00,0x6f,0x3b,0x0a,0x07,0x3b,0x0b,0x69,0x00,0x3b,0x0c,0x5b,0x00))
  ChangeSwitch(2240,2240,0)
  ChangeSwitch(31,31,1)
  250(bytes(0x04,0x08,0x6f,0x3a,0x0c,0x52,0x50,0x47,0x3a,0x3a,0x53,0x45,0x08,0x3a,0x0a,0x40,0x6e,0x61,0x6d,0x65,0x49,0x22,0x0b,0x57,0x61,0x74,0x65,0x72,0x31,0x06,0x3a,0x06,0x45,0x54,0x3a,0x0b,0x40,0x70,0x69,0x74,0x63,0x68,0x69,0x69,0x3a,0x0c,0x40,0x76,0x6f,0x6c,0x75,0x6d,0x65,0x69,0x55))
  ShowMessageFace("vampire_fc1",2,0,2,4)
  ShowMessage("\\n<Vampire>Kyaaa!!")
  ShowMessageFace("wani_fc1",0,0,2,5)
  ShowMessage("\\n<Alligator Girl>Gobble, gobble...")
  ShowMessageFace("ruka_fc1",0,0,2,6)
  ShowMessage("\\n<Luka>.........")
  If(4,154,0)
   ShowMessageFace("wani_fc1",1,0,2,7)
   ShowMessage("\\n<Gaa>Nicely done! ♪")
   0()
  EndIf()
  0()
 PAGE   2
  // condition: switch 2240 is ON
  0()



EVENT   15
 PAGE   1
  ShowMessageFace("",0,0,2,1)
  ShowMessage("\\n<Man>Is this the end of Sabasa?")
  0()



EVENT   16
 PAGE   1
  ShowMessageFace("",0,0,2,1)
  ShowMessage("\\n<Soldier>Auuu...")
  0()



EVENT   17
 PAGE   1
  ShowMessageFace("",0,0,2,1)
  ShowMessage("\\n<Soldier>If only I had trained harder...")
  0()



EVENT   18
 PAGE   1
  ShowMessageFace("vendetta_fc1",0,0,2,1)
  ShowMessage("\\n<Vendetta>Will you give me your bodily fluids?\nI'll give you lots and lots of pleasure in return...")
  If(4,283,0)
   ShowMessageFace("maccubus_fc1",3,0,2,2)
   ShowMessage("\\n<Melissa>Okay, shall we play?")
   0()
  EndIf()
  Battle(0,809,false,false)
  TemporaryRemoveEvent()
  0()



EVENT   19
 PAGE   1
  ShowMessageFace("",0,0,2,1)
  ShowMessage("\\n<Soldier>My body... so cold...")
  0()



EVENT   20
 PAGE   1
  ShowMessageFace("",0,0,2,1)
  ShowMessage("\\n<Soldier>.........")
  0()



EVENT   21
 PAGE   1
  250(bytes(0x04,0x08,0x6f,0x3a,0x0c,0x52,0x50,0x47,0x3a,0x3a,0x53,0x45,0x08,0x3a,0x0a,0x40,0x6e,0x61,0x6d,0x65,0x49,0x22,0x0a,0x4f,0x70,0x65,0x6e,0x31,0x06,0x3a,0x06,0x45,0x54,0x3a,0x0b,0x40,0x70,0x69,0x74,0x63,0x68,0x69,0x69,0x3a,0x0c,0x40,0x76,0x6f,0x6c,0x75,0x6d,0x65,0x69,0x55))
  205(0,bytes(0x04,0x08,0x6f,0x3a,0x13,0x52,0x50,0x47,0x3a,0x3a,0x4d,0x6f,0x76,0x65,0x52,0x6f,0x75,0x74,0x65,0x09,0x3a,0x0c,0x40,0x72,0x65,0x70,0x65,0x61,0x74,0x46,0x3a,0x0f,0x40,0x73,0x6b,0x69,0x70,0x70,0x61,0x62,0x6c,0x65,0x46,0x3a,0x0a,0x40,0x77,0x61,0x69,0x74,0x54,0x3a,0x0a,0x40,0x6c,0x69,0x73,0x74,0x5b,0x0c,0x6f,0x3a,0x15,0x52,0x50,0x47,0x3a,0x3a,0x4d,0x6f,0x76,0x65,0x43,0x6f,0x6d,0x6d,0x61,0x6e,0x64,0x07,0x3a,0x0a,0x40,0x63,0x6f,0x64,0x65,0x69,0x16,0x3a,0x10,0x40,0x70,0x61,0x72,0x61,0x6d,0x65,0x74,0x65,0x72,0x73,0x5b,0x00,0x6f,0x3b,0x0a,0x07,0x3b,0x0b,0x69,0x14,0x3b,0x0c,0x5b,0x06,0x69,0x08,0x6f,0x3b,0x0a,0x07,0x3b,0x0b,0x69,0x17,0x3b,0x0c,0x5b,0x00,0x6f,0x3b,0x0a,0x07,0x3b,0x0b,0x69,0x14,0x3b,0x0c,0x5b,0x06,0x69,0x08,0x6f,0x3b,0x0a,0x07,0x3b,0x0b,0x69,0x18,0x3b,0x0c,0x5b,0x00,0x6f,0x3b,0x0a,0x07,0x3b,0x0b,0x69,0x2a,0x3b,0x0c,0x5b,0x00,0x6f,0x3b,0x0a,0x07,0x3b,0x0b,0x69,0x00,0x3b,0x0c,0x5b,0x00))
  205(-1,bytes(0x04,0x08,0x6f,0x3a,0x13,0x52,0x50,0x47,0x3a,0x3a,0x4d,0x6f,0x76,0x65,0x52,0x6f,0x75,0x74,0x65,0x09,0x3a,0x0c,0x40,0x72,0x65,0x70,0x65,0x61,0x74,0x46,0x3a,0x0f,0x40,0x73,0x6b,0x69,0x70,0x70,0x61,0x62,0x6c,0x65,0x54,0x3a,0x0a,0x40,0x77,0x61,0x69,0x74,0x54,0x3a,0x0a,0x40,0x6c,0x69,0x73,0x74,0x5b,0x07,0x6f,0x3a,0x15,0x52,0x50,0x47,0x3a,0x3a,0x4d,0x6f,0x76,0x65,0x43,0x6f,0x6d,0x6d,0x61,0x6e,0x64,0x07,0x3a,0x0a,0x40,0x63,0x6f,0x64,0x65,0x69,0x11,0x3a,0x10,0x40,0x70,0x61,0x72,0x61,0x6d,0x65,0x74,0x65,0x72,0x73,0x5b,0x00,0x6f,0x3b,0x0a,0x07,0x3b,0x0b,0x69,0x00,0x3b,0x0c,0x5b,0x00))
  250(bytes(0x04,0x08,0x6f,0x3a,0x0c,0x52,0x50,0x47,0x3a,0x3a,0x53,0x45,0x08,0x3a,0x0a,0x40,0x6e,0x61,0x6d,0x65,0x49,0x22,0x09,0x4d,0x6f,0x76,0x65,0x06,0x3a,0x06,0x45,0x54,0x3a,0x0b,0x40,0x70,0x69,0x74,0x63,0x68,0x69,0x69,0x3a,0x0c,0x40,0x76,0x6f,0x6c,0x75,0x6d,0x65,0x69,0x55))
  TeleportPlayer(0,477,131,98,0,0)
  0()



EVENT   22
 PAGE   1
  250(bytes(0x04,0x08,0x6f,0x3a,0x0c,0x52,0x50,0x47,0x3a,0x3a,0x53,0x45,0x08,0x3a,0x0a,0x40,0x6e,0x61,0x6d,0x65,0x49,0x22,0x09,0x4d,0x6f,0x76,0x65,0x06,0x3a,0x06,0x45,0x54,0x3a,0x0b,0x40,0x70,0x69,0x74,0x63,0x68,0x69,0x69,0x3a,0x0c,0x40,0x76,0x6f,0x6c,0x75,0x6d,0x65,0x69,0x55))
  TeleportPlayer(0,2,103,293,2,0)
  0()



EVENT   23
 PAGE   1
  250(bytes(0x04,0x08,0x6f,0x3a,0x0c,0x52,0x50,0x47,0x3a,0x3a,0x53,0x45,0x08,0x3a,0x0a,0x40,0x6e,0x61,0x6d,0x65,0x49,0x22,0x09,0x4d,0x6f,0x76,0x65,0x06,0x3a,0x06,0x45,0x54,0x3a,0x0b,0x40,0x70,0x69,0x74,0x63,0x68,0x69,0x69,0x3a,0x0c,0x40,0x76,0x6f,0x6c,0x75,0x6d,0x65,0x69,0x55))
  TeleportPlayer(0,2,103,293,2,0)
  0()



EVENT   24
 PAGE   1
  250(bytes(0x04,0x08,0x6f,0x3a,0x0c,0x52,0x50,0x47,0x3a,0x3a,0x53,0x45,0x08,0x3a,0x0a,0x40,0x6e,0x61,0x6d,0x65,0x49,0x22,0x09,0x4d,0x6f,0x76,0x65,0x06,0x3a,0x06,0x45,0x54,0x3a,0x0b,0x40,0x70,0x69,0x74,0x63,0x68,0x69,0x69,0x3a,0x0c,0x40,0x76,0x6f,0x6c,0x75,0x6d,0x65,0x69,0x55))
  TeleportPlayer(0,2,103,293,2,0)
  0()



EVENT   25
 PAGE   1
  250(bytes(0x04,0x08,0x6f,0x3a,0x0c,0x52,0x50,0x47,0x3a,0x3a,0x53,0x45,0x08,0x3a,0x0a,0x40,0x6e,0x61,0x6d,0x65,0x49,0x22,0x09,0x4d,0x6f,0x76,0x65,0x06,0x3a,0x06,0x45,0x54,0x3a,0x0b,0x40,0x70,0x69,0x74,0x63,0x68,0x69,0x69,0x3a,0x0c,0x40,0x76,0x6f,0x6c,0x75,0x6d,0x65,0x69,0x55))
  TeleportPlayer(0,2,103,293,2,0)
  0()



EVENT   26
 PAGE   1
  250(bytes(0x04,0x08,0x6f,0x3a,0x0c,0x52,0x50,0x47,0x3a,0x3a,0x53,0x45,0x08,0x3a,0x0a,0x40,0x6e,0x61,0x6d,0x65,0x49,0x22,0x09,0x4d,0x6f,0x76,0x65,0x06,0x3a,0x06,0x45,0x54,0x3a,0x0b,0x40,0x70,0x69,0x74,0x63,0x68,0x69,0x69,0x3a,0x0c,0x40,0x76,0x6f,0x6c,0x75,0x6d,0x65,0x69,0x55))
  TeleportPlayer(0,2,103,293,2,0)
  0()



EVENT   28
 PAGE   1
  ShowMessageFace("conquista_fc1",0,0,2,1)
  ShowMessage("\\n<Conquista>A hero? You're my next victim!")
  If(4,213,0)
   ShowMessageFace("kerberos_fc1",0,0,2,2)
   ShowMessage("\\n<Caesar>A vampire? A worthy foe!")
   0()
  EndIf()
  Battle(0,808,false,false)
  TemporaryRemoveEvent()
  0()



EVENT   29
 PAGE   1
  ShowMessageFace("",0,0,2,1)
  ShowMessage("\\n<Old Lady>Are you okay?! Let me treat you!")
  0()



EVENT   30
 PAGE   1
  250(bytes(0x04,0x08,0x6f,0x3a,0x0c,0x52,0x50,0x47,0x3a,0x3a,0x53,0x45,0x08,0x3a,0x0a,0x40,0x6e,0x61,0x6d,0x65,0x49,0x22,0x09,0x4d,0x6f,0x76,0x65,0x06,0x3a,0x06,0x45,0x54,0x3a,0x0b,0x40,0x70,0x69,0x74,0x63,0x68,0x69,0x69,0x3a,0x0c,0x40,0x76,0x6f,0x6c,0x75,0x6d,0x65,0x69,0x55))
  TeleportPlayer(0,2,103,293,2,0)
  0()



EVENT   31
 PAGE   1
  ChangeSelfSwitch("A",0)
  ShowMessageFace("ruka_fc1",0,0,2,1)
  ShowMessage("\\n<Luka>Tch, Sabasa is in bad shape too!")
  If(0,4,0)
   ShowMessageFace("alice_fc5",2,0,2,2)
   ShowMessage("\\n<Alice>They're under attack by the vampire army.\nVampires are high ranking monsters, so this isn't going to be easy for us, either.")
   0()
  EndIf()
  If(0,5,0)
   ShowMessageFace("iriasu_fc4",7,0,2,3)
   ShowMessage("\\n<Ilias>They're under attack by the vampire army.\nVampires are high ranking monsters, so prepare for some difficult battles ahead.")
   0()
  EndIf()
  If(4,45,0)
   ShowMessageFace("alicetromeria_fc1",4,0,2,4)
   ShowMessage("\\n<Alicetroemeria>Monsters of the night are having an afternoon tea-party? I hope they aren't cut to ribbons by rays of sunlight.")
   0()
  EndIf()
  ShowMessageFace("sara_fc1",3,0,2,5)
  ShowMessage("\\n<Sara>Forgive me, but I need to leave the party and take command of my army.")
  ChangeSwitch(31,31,0)
  ChangeSwitch(1529,1529,1)
  ChangePartyMember(529,1,0)
  205(87,bytes(0x04,0x08,0x6f,0x3a,0x13,0x52,0x50,0x47,0x3a,0x3a,0x4d,0x6f,0x76,0x65,0x52,0x6f,0x75,0x74,0x65,0x09,0x3a,0x0c,0x40,0x72,0x65,0x70,0x65,0x61,0x74,0x46,0x3a,0x0f,0x40,0x73,0x6b,0x69,0x70,0x70,0x61,0x62,0x6c,0x65,0x46,0x3a,0x0a,0x40,0x77,0x61,0x69,0x74,0x54,0x3a,0x0a,0x40,0x6c,0x69,0x73,0x74,0x5b,0x16,0x6f,0x3a,0x15,0x52,0x50,0x47,0x3a,0x3a,0x4d,0x6f,0x76,0x65,0x43,0x6f,0x6d,0x6d,0x61,0x6e,0x64,0x07,0x3a,0x0a,0x40,0x63,0x6f,0x64,0x65,0x69,0x09,0x3a,0x10,0x40,0x70,0x61,0x72,0x61,0x6d,0x65,0x74,0x65,0x72,0x73,0x5b,0x00,0x6f,0x3b,0x0a,0x07,0x3b,0x0b,0x69,0x09,0x3b,0x0c,0x5b,0x00,0x6f,0x3b,0x0a,0x07,0x3b,0x0b,0x69,0x09,0x3b,0x0c,0x5b,0x00,0x6f,0x3b,0x0a,0x07,0x3b,0x0b,0x69,0x09,0x3b,0x0c,0x5b,0x00,0x6f,0x3b,0x0a,0x07,0x3b,0x0b,0x69,0x09,0x3b,0x0c,0x5b,0x00,0x6f,0x3b,0x0a,0x07,0x3b,0x0b,0x69,0x09,0x3b,0x0c,0x5b,0x00,0x6f,0x3b,0x0a,0x07,0x3b,0x0b,0x69,0x07,0x3b,0x0c,0x5b,0x00,0x6f,0x3b,0x0a,0x07,0x3b,0x0b,0x69,0x07,0x3b,0x0c,0x5b,0x00,0x6f,0x3b,0x0a,0x07,0x3b,0x0b,0x69,0x07,0x3b,0x0c,0x5b,0x00,0x6f,0x3b,0x0a,0x07,0x3b,0x0b,0x69,0x07,0x3b,0x0c,0x5b,0x00,0x6f,0x3b,0x0a,0x07,0x3b,0x0b,0x69,0x07,0x3b,0x0c,0x5b,0x00,0x6f,0x3b,0x0a,0x07,0x3b,0x0b,0x69,0x07,0x3b,0x0c,0x5b,0x00,0x6f,0x3b,0x0a,0x07,0x3b,0x0b,0x69,0x07,0x3b,0x0c,0x5b,0x00,0x6f,0x3b,0x0a,0x07,0x3b,0x0b,0x69,0x07,0x3b,0x0c,0x5b,0x00,0x6f,0x3b,0x0a,0x07,0x3b,0x0b,0x69,0x07,0x3b,0x0c,0x5b,0x00,0x6f,0x3b,0x0a,0x07,0x3b,0x0b,0x69,0x07,0x3b,0x0c,0x5b,0x00,0x6f,0x3b,0x0a,0x07,0x3b,0x0b,0x69,0x00,0x3b,0x0c,0x5b,0x00))
  ChangeSwitch(31,31,1)
  ShowMessageFace("",0,0,2,6)
  ShowMessage("Sara has temporarily left the party.")
  If(0,6,0)
   ShowMessageFace("sonia_fc2",2,0,2,7)
   ShowMessage("\\n<Sonya>I hope she's going to be okay...\nSeeing her country being attacked must be rough...")
   0()
  Else()
   ShowMessageFace("ruka_fc1",0,0,2,8)
   ShowMessage("\\n<Luka>I hope she's going to be okay...\nSeeing her country being attacked must be rough...")
   0()
  EndIf()
  If(4,531,0)
   ShowMessageFace("saniria_fc2",0,0,2,9)
   ShowMessage("\\n<King of San Ilia>She's as capable a monarch as any, but the situation here does look bleak.")
   0()
  EndIf()
  If(0,4,0)
   ShowMessageFace("alice_fc5",2,0,2,10)
   ShowMessage("\\n<Alice>Up against the vampire army, even Sabasa's excellent knights won't hold out for long.")
   ShowMessageFace("alice_fc5",2,0,2,11)
   ShowMessage("\\n<Alice>We need to take out their leader as quickly as possible! That's the only way our position is going to improve!")
   0()
  EndIf()
  If(0,5,0)
   ShowMessageFace("iriasu_fc4",7,0,2,12)
   ShowMessage("\\n<Ilias>Up against the vampire army, even Sabasa's excellent knights likely will not hold out for long.")
   ShowMessageFace("iriasu_fc4",7,0,2,13)
   ShowMessage("\\n<Ilias>We need to take out their leader as quickly as possible! That's our only hope of improving our position!")
   0()
  EndIf()
  If(4,218,0)
   ShowMessageFace("nyumaou_fc1",0,0,2,14)
   ShowMessage("\\n<Cow Demon Queen>Hmph! What do these damn vampires think they're doing?! I'll give them a sound beating!")
   0()
  EndIf()
  If(4,66,0)
   ShowMessageFace("vgirl_fc1",2,0,2,15)
   ShowMessage("\\n<Vanilla>I don't really want to fight my kin...")
   0()
  EndIf()
  If(4,302,0)
   ShowMessageFace("vampire_fc1",2,0,2,16)
   ShowMessage("\\n<Wilhemina>Well this is embarrassing...")
   0()
  EndIf()
  EndEventProcessing()
  0()
 PAGE   2
  // condition: self-switch A is ON
  0()



EVENT   32
 PAGE   1
  ShowMessageFace("",0,0,2,1)
  ShowMessage("\\n<Soldier>Forgive me...")
  0()



EVENT   33
 PAGE   1
  ShowMessageFace("",0,0,2,1)
  ShowMessage("\\n<Knight>I've lost so much blood...")
  0()



EVENT   34
 PAGE   1
  If(0,2234,1)
   ShowMessageFace("vampire_fc1",0,0,2,1)
   ShowMessage("\\n<Vampire>I shall suck every last drop of your blood!")
   ShowMessageFace("",0,0,2,2)
   ShowMessage("\\n<Youth>Get away! Ah, aaaaah!!")
   0()
  EndIf()
  If(0,2234,0)
   ShowMessageFace("",0,0,2,3)
   ShowMessage("\\n<Youth>Having a vampire suck my blood felt so good...\nI think I'd have been better off never knowing that...")
   0()
  EndIf()
  0()



EVENT   35
 PAGE   1
  ShowMessageFace("",0,0,2,1)
  ShowMessage("\\n<Young Woman>She sucked so much blood...\nI feel weak...")
  0()



EVENT   36
 PAGE   1
  ShowMessageFace("",0,0,2,1)
  ShowMessage("\\n<Soldier>Those fiends...")
  0()



EVENT   37
 PAGE   1
  ShowMessageFace("",0,0,2,1)
  ShowMessage("\\n<Knight>Forgive me, Queen Sara...")
  0()



EVENT   38
 PAGE   1
  ShowMessageFace("",0,0,2,1)
  ShowMessage("\\n<Old Man>Someone... Please save Sabasa...")
  0()



EVENT   39
 PAGE   1
  ShowMessageFace("",0,0,2,1)
  ShowMessage("\\n<Salesgirl>Aaah, save us, save us...")
  If(4,531,0)
   ShowMessageFace("saniria_fc2",0,0,2,2)
   ShowMessage("\\n<King of San Ilia>Keep yourself hidden here. It'd be more dangerous to attempt escape.")
   0()
  EndIf()
  0()



EVENT   40
 PAGE   1
  ShowMessageFace("",0,0,2,1)
  ShowMessage("\\n<Salesgirl>My... store...")
  0()



EVENT   41
 PAGE   1
  ShowMessageFace("",0,0,2,1)
  ShowMessage("\\n<Old Lady>I'm safe hiding here.\nGo help the others!")
  0()



EVENT   42
 PAGE   1
  ShowMessageFace("",0,0,2,1)
  ShowMessage("\\n<Soldier>Ugh... Ngh...")
  0()



EVENT   43
 PAGE   1
  ShowMessageFace("",0,0,2,1)
  ShowMessage("\\n<Knight>Hold the line! Don't give them an inch!")
  ShowMessageFace("vampire_fc1",0,0,2,2)
  ShowMessage("\\n<Vampire>The Sabasan Cavalry is no pushover it seems...")
  If(0,4,0)
   ShowMessageFace("alice_fc5",2,0,2,3)
   ShowMessage("\\n<Alice>The street is blocked.\nLet's go around them!")
   0()
  EndIf()
  If(0,5,0)
   ShowMessageFace("iriasu_fc4",7,0,2,4)
   ShowMessage("\\n<Ilias>The street is blocked.\nLet's go around them!")
   0()
  EndIf()
  0()



EVENT   44
 PAGE   1
  ShowMessageFace("",0,0,2,1)
  ShowMessage("\\n<Knight>Hold the line! Don't give them an inch!")
  ShowMessageFace("vampire_fc1",0,0,2,2)
  ShowMessage("\\n<Vampire>The Sabasan Cavalry is no pushover it seems...")
  If(0,4,0)
   ShowMessageFace("alice_fc5",2,0,2,3)
   ShowMessage("\\n<Alice>The street is blocked.\nLet's go around them!")
   0()
  EndIf()
  If(0,5,0)
   ShowMessageFace("iriasu_fc4",7,0,2,4)
   ShowMessage("\\n<Ilias>The street is blocked.\nLet's go around them!")
   0()
  EndIf()
  0()



EVENT   45
 PAGE   1
  ShowMessageFace("",0,0,2,1)
  ShowMessage("\\n<Knight>They're too strong...")
  0()



EVENT   46
 PAGE   1
  ShowMessageFace("",0,0,2,1)
  ShowMessage("\\n<Man>No way... Ngh...")
  0()



EVENT   47
 PAGE   1
  ShowMessageFace("",0,0,2,1)
  ShowMessage("\\n<Traveling Merchant>A couple of vampires just passed by...\nI've never seen a scarier monster than those two.")
  355("actor_label_jump")
  EndEventProcessing()
  DefineLabel("66")
  ShowMessageFace("vgirl_fc1",2,0,2,2)
  ShowMessage("\\n<Vanilla>They were probably the queen's confidants, Carmilla and Elizabeth. I'm super scared about having to fight them.")
  EndEventProcessing()
  DefineLabel("302")
  ShowMessageFace("vampire_fc1",2,0,2,3)
  ShowMessage("\\n<Wilhemina>The queen's left and right hands, Carmilla and Elizabeth. I really do not want to fight them.")
  EndEventProcessing()
  0()



EVENT   48
 PAGE   1
  ShowMessageFace("",0,0,2,1)
  ShowMessage("\\n<Knight>Hold the line! Don't give them an inch!")
  ShowMessageFace("vampire_fc1",0,0,2,2)
  ShowMessage("\\n<Vampire>The Sabasan Cavalry is no pushover it seems...")
  If(0,4,0)
   ShowMessageFace("alice_fc5",2,0,2,3)
   ShowMessage("\\n<Alice>The street is blocked.\nLet's go around them!")
   0()
  EndIf()
  If(0,5,0)
   ShowMessageFace("iriasu_fc4",7,0,2,4)
   ShowMessage("\\n<Ilias>The street is blocked.\nLet's go around them!")
   0()
  EndIf()
  0()



EVENT   49
 PAGE   1
  ShowMessageFace("",0,0,2,1)
  ShowMessage("\\n<Knight>Ggggghh...")
  0()



EVENT   50
 PAGE   1
  ShowMessageFace("",0,0,2,1)
  ShowMessage("\\n<Burly Man>Eeek!\nWh-what the hell was that?!")
  0()



EVENT   51
 PAGE   1
  0()



EVENT   52
 PAGE   1
  ShowMessageFace("",0,0,2,1)
  ShowMessage("\\n<Young Girl>Waaaaa!")
  ShowMessageFace("",0,0,2,2)
  ShowMessage("\\n<Young Boy>Help us!")
  355("actor_label_jump")
  EndEventProcessing()
  DefineLabel("525")
  ShowMessageFace("sonia_fc1",4,0,2,3)
  ShowMessage("\\n<Sonya>It'll be all right...\nStay safe here, and I'll go kick some butts for you.")
  EndEventProcessing()
  0()



EVENT   53
 PAGE   1
  ShowMessageFace("",0,0,2,1)
  ShowMessage("\\n<Young Girl>Waaaaa!")
  ShowMessageFace("",0,0,2,2)
  ShowMessage("\\n<Young Boy>Help us!")
  355("actor_label_jump")
  EndEventProcessing()
  DefineLabel("525")
  ShowMessageFace("sonia_fc1",4,0,2,3)
  ShowMessage("\\n<Sonya>It'll be all right...\nStay safe here, and I'll go kick some butts for you.")
  EndEventProcessing()
  0()



EVENT   54
 PAGE   1
  0()



EVENT   55
 PAGE   1
  0()

EVENT   56
 PAGE   1
  241(bytes(0x04,0x08,0x6f,0x3a,0x0d,0x52,0x50,0x47,0x3a,0x3a,0x42,0x47,0x4d,0x08,0x3a,0x0a,0x40,0x6e,0x61,0x6d,0x65,0x49,0x22,0x0a,0x62,0x6f,0x73,0x73,0x30,0x06,0x3a,0x06,0x45,0x54,0x3a,0x0c,0x40,0x76,0x6f,0x6c,0x75,0x6d,0x65,0x69,0x69,0x3a,0x0b,0x40,0x70,0x69,0x74,0x63,0x68,0x69,0x69))
  ScrollMap(8,4,4)
  205(-1,bytes(0x04,0x08,0x6f,0x3a,0x13,0x52,0x50,0x47,0x3a,0x3a,0x4d,0x6f,0x76,0x65,0x52,0x6f,0x75,0x74,0x65,0x09,0x3a,0x0c,0x40,0x72,0x65,0x70,0x65,0x61,0x74,0x46,0x3a,0x0f,0x40,0x73,0x6b,0x69,0x70,0x70,0x61,0x62,0x6c,0x65,0x46,0x3a,0x0a,0x40,0x77,0x61,0x69,0x74,0x54,0x3a,0x0a,0x40,0x6c,0x69,0x73,0x74,0x5b,0x07,0x6f,0x3a,0x15,0x52,0x50,0x47,0x3a,0x3a,0x4d,0x6f,0x76,0x65,0x43,0x6f,0x6d,0x6d,0x61,0x6e,0x64,0x07,0x3a,0x0a,0x40,0x63,0x6f,0x64,0x65,0x69,0x18,0x3a,0x10,0x40,0x70,0x61,0x72,0x61,0x6d,0x65,0x74,0x65,0x72,0x73,0x5b,0x00,0x6f,0x3b,0x0a,0x07,0x3b,0x0b,0x69,0x00,0x3b,0x0c,0x5b,0x00))
  Wait(90)
  PictureDisplay(6,"80_sara_st03",0,0,-150,0,100,100,0,0)
  PictureDisplay(5,"80_elisabeth_st01",0,0,150,0,100,100,0,0)
  PictureMove(6,null,0,0,-150,0,100,100,255,0,30,false)
  PictureMove(5,null,0,0,150,0,100,100,255,0,30,true)
  ShowMessageFace("elisabeth_fc1",0,0,2,1)
  ShowMessage("\\n<Elizabeth>Kukuku, we've got you surrounded!\nSabasa is as good as ours now!")
  ShowMessageFace("sara_fc1",4,0,2,2)
  ShowMessage("\\n<Sara>You vampires want to rule this country?\nWhat would you even do with an entire country?")
  ShowMessageFace("elisabeth_fc1",0,0,2,3)
  ShowMessage("\\n<Elizabeth>That's obvious. Everyone living here will be vampire slaves. They'll give us their blood and semen and serve us with their lives.")
  ShowMessageFace("elisabeth_fc1",0,0,2,4)
  ShowMessage("\\n<Elizabeth>You'll be our plaything too, Queen Sara!\nWe'll get you addicted to having your blood sucked then pass you around between all the vampires!")
  ShowMessageFace("sara_fc1",4,0,2,5)
  ShowMessage("\\n<Sara>You actually think we'll be your slaves?")
  ShowMessageFace("elisabeth_fc1",0,0,2,6)
  ShowMessage("\\n<Elizabeth>Oh yes! I'll drink your blood in front of your people and let them see you writhe in pleasure!")
  PictureDisplay(6,"80_sara_st06",0,0,-150,0,100,100,255,0)
  ShowMessageFace("sara_fc1",5,0,2,7)
  ShowMessage("\\n<Sara>You vampires are nothing more than an offshoot of the succubus bloodline created by the Great Ancestor Minagi. Dependent on blood, you're an inferior, dead-end evolution.")
  ShowMessageFace("elisabeth_fc1",2,0,2,8)
  ShowMessage("\\n<Elizabeth>...What are you talking about?")
  ShowMessageFace("sara_fc1",5,0,2,9)
  ShowMessage("\\n<Sara>You peons think to make me your slave?\nI, who descend from Sphinx?\nI, who was awakened by the hand of Lilith herself?")
  ShowMessageFace("elisabeth_fc1",2,0,2,10)
  ShowMessage("\\n<Elizabeth>J-just what are you?!")
  PictureClear(5)
  PictureClear(6)
  Wait(60)
  241(bytes(0x04,0x08,0x6f,0x3a,0x0d,0x52,0x50,0x47,0x3a,0x3a,0x42,0x47,0x4d,0x08,0x3a,0x0a,0x40,0x6e,0x61,0x6d,0x65,0x49,0x22,0x0a,0x6b,0x69,0x6b,0x69,0x34,0x06,0x3a,0x06,0x45,0x54,0x3a,0x0c,0x40,0x76,0x6f,0x6c,0x75,0x6d,0x65,0x69,0x69,0x3a,0x0b,0x40,0x70,0x69,0x74,0x63,0x68,0x69,0x69))
  212(78,1170,false)
  Wait(60)
  ChangeSwitch(31,31,0)
  Wait(60)
  PictureDisplay(5,"80_saraevil_st01",0,0,0,0,100,100,0,0)
  PictureMove(5,null,0,0,0,0,100,100,255,0,30,true)
  ShowMessageFace("sara_fc4",0,0,2,11)
  ShowMessage("\\n<Sara>Ahahaha... You've got it all backwards!\nYou're the ones who are going to be MY slaves!")
  PictureClear(5)
  Wait(60)
  212(95,522,false)
  Wait(60)
  205(113,bytes(0x04,0x08,0x6f,0x3a,0x13,0x52,0x50,0x47,0x3a,0x3a,0x4d,0x6f,0x76,0x65,0x52,0x6f,0x75,0x74,0x65,0x09,0x3a,0x0c,0x40,0x72,0x65,0x70,0x65,0x61,0x74,0x46,0x3a,0x0f,0x40,0x73,0x6b,0x69,0x70,0x70,0x61,0x62,0x6c,0x65,0x46,0x3a,0x0a,0x40,0x77,0x61,0x69,0x74,0x46,0x3a,0x0a,0x40,0x6c,0x69,0x73,0x74,0x5b,0x07,0x6f,0x3a,0x15,0x52,0x50,0x47,0x3a,0x3a,0x4d,0x6f,0x76,0x65,0x43,0x6f,0x6d,0x6d,0x61,0x6e,0x64,0x07,0x3a,0x0a,0x40,0x63,0x6f,0x64,0x65,0x69,0x13,0x3a,0x10,0x40,0x70,0x61,0x72,0x61,0x6d,0x65,0x74,0x65,0x72,0x73,0x5b,0x07,0x69,0x08,0x69,0xf9,0x6f,0x3b,0x0a,0x07,0x3b,0x0b,0x69,0x00,0x3b,0x0c,0x5b,0x00))
  205(93,bytes(0x04,0x08,0x6f,0x3a,0x13,0x52,0x50,0x47,0x3a,0x3a,0x4d,0x6f,0x76,0x65,0x52,0x6f,0x75,0x74,0x65,0x09,0x3a,0x0c,0x40,0x72,0x65,0x70,0x65,0x61,0x74,0x46,0x3a,0x0f,0x40,0x73,0x6b,0x69,0x70,0x70,0x61,0x62,0x6c,0x65,0x46,0x3a,0x0a,0x40,0x77,0x61,0x69,0x74,0x46,0x3a,0x0a,0x40,0x6c,0x69,0x73,0x74,0x5b,0x07,0x6f,0x3a,0x15,0x52,0x50,0x47,0x3a,0x3a,0x4d,0x6f,0x76,0x65,0x43,0x6f,0x6d,0x6d,0x61,0x6e,0x64,0x07,0x3a,0x0a,0x40,0x63,0x6f,0x64,0x65,0x69,0x13,0x3a,0x10,0x40,0x70,0x61,0x72,0x61,0x6d,0x65,0x74,0x65,0x72,0x73,0x5b,0x07,0x69,0x09,0x69,0xfa,0x6f,0x3b,0x0a,0x07,0x3b,0x0b,0x69,0x00,0x3b,0x0c,0x5b,0x00))
  205(96,bytes(0x04,0x08,0x6f,0x3a,0x13,0x52,0x50,0x47,0x3a,0x3a,0x4d,0x6f,0x76,0x65,0x52,0x6f,0x75,0x74,0x65,0x09,0x3a,0x0c,0x40,0x72,0x65,0x70,0x65,0x61,0x74,0x46,0x3a,0x0f,0x40,0x73,0x6b,0x69,0x70,0x70,0x61,0x62,0x6c,0x65,0x46,0x3a,0x0a,0x40,0x77,0x61,0x69,0x74,0x46,0x3a,0x0a,0x40,0x6c,0x69,0x73,0x74,0x5b,0x07,0x6f,0x3a,0x15,0x52,0x50,0x47,0x3a,0x3a,0x4d,0x6f,0x76,0x65,0x43,0x6f,0x6d,0x6d,0x61,0x6e,0x64,0x07,0x3a,0x0a,0x40,0x63,0x6f,0x64,0x65,0x69,0x13,0x3a,0x10,0x40,0x70,0x61,0x72,0x61,0x6d,0x65,0x74,0x65,0x72,0x73,0x5b,0x07,0x69,0xf8,0x69,0xf8,0x6f,0x3b,0x0a,0x07,0x3b,0x0b,0x69,0x00,0x3b,0x0c,0x5b,0x00))
  205(95,bytes(0x04,0x08,0x6f,0x3a,0x13,0x52,0x50,0x47,0x3a,0x3a,0x4d,0x6f,0x76,0x65,0x52,0x6f,0x75,0x74,0x65,0x09,0x3a,0x0c,0x40,0x72,0x65,0x70,0x65,0x61,0x74,0x46,0x3a,0x0f,0x40,0x73,0x6b,0x69,0x70,0x70,0x61,0x62,0x6c,0x65,0x46,0x3a,0x0a,0x40,0x77,0x61,0x69,0x74,0x46,0x3a,0x0a,0x40,0x6c,0x69,0x73,0x74,0x5b,0x07,0x6f,0x3a,0x15,0x52,0x50,0x47,0x3a,0x3a,0x4d,0x6f,0x76,0x65,0x43,0x6f,0x6d,0x6d,0x61,0x6e,0x64,0x07,0x3a,0x0a,0x40,0x63,0x6f,0x64,0x65,0x69,0x13,0x3a,0x10,0x40,0x70,0x61,0x72,0x61,0x6d,0x65,0x74,0x65,0x72,0x73,0x5b,0x07,0x69,0xf8,0x69,0xfa,0x6f,0x3b,0x0a,0x07,0x3b,0x0b,0x69,0x00,0x3b,0x0c,0x5b,0x00))
  205(97,bytes(0x04,0x08,0x6f,0x3a,0x13,0x52,0x50,0x47,0x3a,0x3a,0x4d,0x6f,0x76,0x65,0x52,0x6f,0x75,0x74,0x65,0x09,0x3a,0x0c,0x40,0x72,0x65,0x70,0x65,0x61,0x74,0x46,0x3a,0x0f,0x40,0x73,0x6b,0x69,0x70,0x70,0x61,0x62,0x6c,0x65,0x46,0x3a,0x0a,0x40,0x77,0x61,0x69,0x74,0x46,0x3a,0x0a,0x40,0x6c,0x69,0x73,0x74,0x5b,0x07,0x6f,0x3a,0x15,0x52,0x50,0x47,0x3a,0x3a,0x4d,0x6f,0x76,0x65,0x43,0x6f,0x6d,0x6d,0x61,0x6e,0x64,0x07,0x3a,0x0a,0x40,0x63,0x6f,0x64,0x65,0x69,0x13,0x3a,0x10,0x40,0x70,0x61,0x72,0x61,0x6d,0x65,0x74,0x65,0x72,0x73,0x5b,0x07,0x69,0xf9,0x69,0x07,0x6f,0x3b,0x0a,0x07,0x3b,0x0b,0x69,0x00,0x3b,0x0c,0x5b,0x00))
  205(94,bytes(0x04,0x08,0x6f,0x3a,0x13,0x52,0x50,0x47,0x3a,0x3a,0x4d,0x6f,0x76,0x65,0x52,0x6f,0x75,0x74,0x65,0x09,0x3a,0x0c,0x40,0x72,0x65,0x70,0x65,0x61,0x74,0x46,0x3a,0x0f,0x40,0x73,0x6b,0x69,0x70,0x70,0x61,0x62,0x6c,0x65,0x46,0x3a,0x0a,0x40,0x77,0x61,0x69,0x74,0x46,0x3a,0x0a,0x40,0x6c,0x69,0x73,0x74,0x5b,0x07,0x6f,0x3a,0x15,0x52,0x50,0x47,0x3a,0x3a,0x4d,0x6f,0x76,0x65,0x43,0x6f,0x6d,0x6d,0x61,0x6e,0x64,0x07,0x3a,0x0a,0x40,0x63,0x6f,0x64,0x65,0x69,0x13,0x3a,0x10,0x40,0x70,0x61,0x72,0x61,0x6d,0x65,0x74,0x65,0x72,0x73,0x5b,0x07,0x69,0x07,0x69,0x06,0x6f,0x3b,0x0a,0x07,0x3b,0x0b,0x69,0x00,0x3b,0x0c,0x5b,0x00))
  205(114,bytes(0x04,0x08,0x6f,0x3a,0x13,0x52,0x50,0x47,0x3a,0x3a,0x4d,0x6f,0x76,0x65,0x52,0x6f,0x75,0x74,0x65,0x09,0x3a,0x0c,0x40,0x72,0x65,0x70,0x65,0x61,0x74,0x46,0x3a,0x0f,0x40,0x73,0x6b,0x69,0x70,0x70,0x61,0x62,0x6c,0x65,0x46,0x3a,0x0a,0x40,0x77,0x61,0x69,0x74,0x54,0x3a,0x0a,0x40,0x6c,0x69,0x73,0x74,0x5b,0x07,0x6f,0x3a,0x15,0x52,0x50,0x47,0x3a,0x3a,0x4d,0x6f,0x76,0x65,0x43,0x6f,0x6d,0x6d,0x61,0x6e,0x64,0x07,0x3a,0x0a,0x40,0x63,0x6f,0x64,0x65,0x69,0x13,0x3a,0x10,0x40,0x70,0x61,0x72,0x61,0x6d,0x65,0x74,0x65,0x72,0x73,0x5b,0x07,0x69,0xf9,0x69,0x08,0x6f,0x3b,0x0a,0x07,0x3b,0x0b,0x69,0x00,0x3b,0x0c,0x5b,0x00))
  ChangeSwitch(32,32,0)
  ShowMessageFace("vampire_fc1",2,0,2,12)
  ShowMessage("\\n<Vampire>Kyaaaaa!")
  Wait(60)
  PictureDisplay(6,"80_saraevil_st01",0,0,-150,0,100,100,0,0)
  PictureDisplay(5,"80_elisabeth_st03",0,0,150,0,100,100,0,0)
  PictureMove(6,null,0,0,-150,0,100,100,255,0,30,false)
  PictureMove(5,null,0,0,150,0,100,100,255,0,30,true)
  ShowMessageFace("elisabeth_fc1",2,0,2,13)
  ShowMessage("\\n<Elizabeth>I see... You have the blood of the royal families, the blood of Sphinx, and a touch of the mighty power of Lilith as well.")
  ShowMessageFace("elisabeth_fc1",2,0,2,14)
  ShowMessage("\\n<Elizabeth>Who knew that Sabasa was ruled by such a monstrosity...")
  PictureClear(5)
  PictureClear(6)
  ShowMessageFace("ruka_fc1",0,0,2,15)
  ShowMessage("\\n<Luka>Sara! Are you okay?!")
  205(78,bytes(0x04,0x08,0x6f,0x3a,0x13,0x52,0x50,0x47,0x3a,0x3a,0x4d,0x6f,0x76,0x65,0x52,0x6f,0x75,0x74,0x65,0x09,0x3a,0x0c,0x40,0x72,0x65,0x70,0x65,0x61,0x74,0x46,0x3a,0x0f,0x40,0x73,0x6b,0x69,0x70,0x70,0x61,0x62,0x6c,0x65,0x46,0x3a,0x0a,0x40,0x77,0x61,0x69,0x74,0x54,0x3a,0x0a,0x40,0x6c,0x69,0x73,0x74,0x5b,0x08,0x6f,0x3a,0x15,0x52,0x50,0x47,0x3a,0x3a,0x4d,0x6f,0x76,0x65,0x43,0x6f,0x6d,0x6d,0x61,0x6e,0x64,0x07,0x3a,0x0a,0x40,0x63,0x6f,0x64,0x65,0x69,0x13,0x3a,0x10,0x40,0x70,0x61,0x72,0x61,0x6d,0x65,0x74,0x65,0x72,0x73,0x5b,0x07,0x69,0xf9,0x69,0x08,0x6f,0x3b,0x0a,0x07,0x3b,0x0b,0x69,0x15,0x3b,0x0c,0x5b,0x00,0x6f,0x3b,0x0a,0x07,0x3b,0x0b,0x69,0x00,0x3b,0x0c,0x5b,0x00))
  205(98,bytes(0x04,0x08,0x6f,0x3a,0x13,0x52,0x50,0x47,0x3a,0x3a,0x4d,0x6f,0x76,0x65,0x52,0x6f,0x75,0x74,0x65,0x09,0x3a,0x0c,0x40,0x72,0x65,0x70,0x65,0x61,0x74,0x46,0x3a,0x0f,0x40,0x73,0x6b,0x69,0x70,0x70,0x61,0x62,0x6c,0x65,0x46,0x3a,0x0a,0x40,0x77,0x61,0x69,0x74,0x54,0x3a,0x0a,0x40,0x6c,0x69,0x73,0x74,0x5b,0x07,0x6f,0x3a,0x15,0x52,0x50,0x47,0x3a,0x3a,0x4d,0x6f,0x76,0x65,0x43,0x6f,0x6d,0x6d,0x61,0x6e,0x64,0x07,0x3a,0x0a,0x40,0x63,0x6f,0x64,0x65,0x69,0x15,0x3a,0x10,0x40,0x70,0x61,0x72,0x61,0x6d,0x65,0x74,0x65,0x72,0x73,0x5b,0x00,0x6f,0x3b,0x0a,0x07,0x3b,0x0b,0x69,0x00,0x3b,0x0c,0x5b,0x00))
  Wait(60)
  PictureDisplay(5,"80_saraevil_st01",0,0,0,0,100,100,0,0)
  PictureMove(5,null,0,0,0,0,100,100,255,0,30,true)
  ShowMessageFace("sara_fc4",0,0,2,16)
  ShowMessage("\\n<Sara>Ufufu, I'm fully in control of myself.\nAnd I feel grrrrrrreat...♪")
  If(0,6,0)
   ShowMessageFace("sonia_fc2",2,0,2,17)
   ShowMessage("\\n<Sonya>Are you sure you're really in control?")
   0()
  Else()
   ShowMessageFace("ruka_fc1",0,0,2,18)
   ShowMessage("\\n<Luka>Are you sure you're really in control?")
   0()
  EndIf()
  If(4,284,0)
   ShowMessageFace("minccubus_fc1",3,0,2,19)
   ShowMessage("\\n<Serra>I know that feeling...")
   0()
  EndIf()
  If(0,4,0)
   ShowMessageFace("alice_fc5",2,0,2,20)
   ShowMessage("\\n<Alice>Either way, fight alongside us, Sara!\nIf we defeat Elizabeth, the vampire army will fall apart!")
   0()
  EndIf()
  If(0,5,0)
   ShowMessageFace("iriasu_fc4",7,0,2,21)
   ShowMessage("\\n<Ilias>Either way, use that power to help us, Sara!\nWe can defeat Elizabeth and crush the vampire army in one stroke!")
   0()
  EndIf()
  ChangeSwitch(33,33,0)
  PictureClear(5)
  ChangeSwitch(1913,1913,0)
  355("add_actor_ex(530)")
  If(12,"actor_class_level_over?(529, 177, 1)")
   0()
  Else()
   355("gain_actor_exp(529, :base, 760000, false, false)")
   355("set_class_level(529, 158, 10, false, false)")
   655("set_class_level(529, 159, 10, false, false)")
   655("set_class_level(529, 160, 1, false, false)")
   655("set_class_level(529, 175, 10, false, false)")
   655("set_class_level(529, 176, 10, false, false)")
   655("set_class_level(529, 177, 1, false, true)")
   314(0,530)
   0()
  EndIf()
  249(bytes(0x04,0x08,0x6f,0x3a,0x0c,0x52,0x50,0x47,0x3a,0x3a,0x4d,0x45,0x08,0x3a,0x0a,0x40,0x6e,0x61,0x6d,0x65,0x49,0x22,0x0c,0x66,0x61,0x6e,0x66,0x61,0x6c,0x65,0x06,0x3a,0x06,0x45,0x54,0x3a,0x0b,0x40,0x70,0x69,0x74,0x63,0x68,0x69,0x69,0x3a,0x0c,0x40,0x76,0x6f,0x6c,0x75,0x6d,0x65,0x69,0x69))
  ShowMessageFace("",0,0,2,22)
  ShowMessage("Sara has rejoined the party!")
  Wait(60)
  PictureDisplay(5,"80_elisabeth_st03",0,0,0,0,100,100,0,0)
  PictureMove(5,null,0,0,0,0,100,100,255,0,30,true)
  ShowMessageFace("sara_fc4",0,0,2,23)
  ShowMessage("\\n<Sara>Now... Let's pay this vampire back for each and every citizen of this country they've molested...")
  PictureDisplay(5,"80_elisabeth_st02",0,0,0,0,100,100,255,0)
  ShowMessageFace("elisabeth_fc1",1,0,2,24)
  ShowMessage("\\n<Elizabeth>Hah! Don't be so full of yourself!\nI'm a high ranking monster only one step below Queen Vampire!")
  ShowMessageFace("ruka_fc1",0,0,2,25)
  ShowMessage("\\n<Luka>We won't let you cause any more harm to Sabasa!\nThis ends now!")
  If(4,185,0)
   ShowMessageFace("radio_fc1",0,0,2,26)
   ShowMessage("\\n<Radio>Monster of the night...\nReturn to the night...")
   0()
  EndIf()
  PictureClear(5)
  PictureClear(6)
  SetBattleBGM(bytes(0x04,0x08,0x6f,0x3a,0x0d,0x52,0x50,0x47,0x3a,0x3a,0x42,0x47,0x4d,0x08,0x3a,0x0a,0x40,0x6e,0x61,0x6d,0x65,0x49,0x22,0x0a,0x62,0x6f,0x73,0x73,0x31,0x06,0x3a,0x06,0x45,0x54,0x3a,0x0c,0x40,0x76,0x6f,0x6c,0x75,0x6d,0x65,0x69,0x69,0x3a,0x0b,0x40,0x70,0x69,0x74,0x63,0x68,0x69,0x69))
  ChangeSwitch(22,22,0)
  Battle(0,813,false,false)
  ChangeSwitch(22,22,1)
  SetBattleBGM(bytes(0x04,0x08,0x6f,0x3a,0x0d,0x52,0x50,0x47,0x3a,0x3a,0x42,0x47,0x4d,0x08,0x3a,0x0a,0x40,0x6e,0x61,0x6d,0x65,0x49,0x22,0x0b,0x62,0x61,0x74,0x74,0x6c,0x65,0x06,0x3a,0x06,0x45,0x54,0x3a,0x0c,0x40,0x76,0x6f,0x6c,0x75,0x6d,0x65,0x69,0x69,0x3a,0x0b,0x40,0x70,0x69,0x74,0x63,0x68,0x69,0x69))
  241(bytes(0x04,0x08,0x6f,0x3a,0x0d,0x52,0x50,0x47,0x3a,0x3a,0x42,0x47,0x4d,0x08,0x3a,0x0a,0x40,0x6e,0x61,0x6d,0x65,0x49,0x22,0x14,0x73,0x63,0x65,0x6e,0x65,0x5f,0x65,0x70,0x69,0x6c,0x6f,0x67,0x75,0x65,0x32,0x06,0x3a,0x06,0x45,0x54,0x3a,0x0c,0x40,0x76,0x6f,0x6c,0x75,0x6d,0x65,0x69,0x69,0x3a,0x0b,0x40,0x70,0x69,0x74,0x63,0x68,0x69,0x69))
  PictureDisplay(5,"80_elisabeth_st03",0,0,0,0,100,100,0,0)
  PictureMove(5,null,0,0,0,0,100,100,255,0,30,true)
  ShowMessageFace("sara_fc4",1,0,2,27)
  ShowMessage("\\n<Sara>Ahaha, how disappointing...")
  ShowMessageFace("elisabeth_fc1",2,0,2,28)
  ShowMessage("\\n<Elizabeth>Damn you...\nWe'll withdraw our forces for now.")
  PictureDisplay(5,"80_elisabeth_st01",0,0,0,0,100,100,255,0)
  ShowMessageFace("elisabeth_fc1",0,0,2,29)
  ShowMessage("\\n<Elizabeth>But this is nothing more than a strategic retreat! Even more vampires are waiting in reserve at Vampire Castle!")
  ShowMessageFace("elisabeth_fc1",0,0,2,30)
  ShowMessage("\\n<Elizabeth>Don't think you can hold us off forever!\nThis land will be ours eventually!")
  ShowMessageFace("elisabeth_fc1",0,0,2,31)
  ShowMessage("\\n<Elizabeth>Bwhahahaha! See ya!")
  PictureClear(5)
  Wait(60)
  250(bytes(0x04,0x08,0x6f,0x3a,0x0c,0x52,0x50,0x47,0x3a,0x3a,0x53,0x45,0x08,0x3a,0x0a,0x40,0x6e,0x61,0x6d,0x65,0x49,0x22,0x0d,0x6d,0x6f,0x6e,0x5f,0x77,0x61,0x72,0x70,0x06,0x3a,0x06,0x45,0x54,0x3a,0x0b,0x40,0x70,0x69,0x74,0x63,0x68,0x69,0x69,0x3a,0x0c,0x40,0x76,0x6f,0x6c,0x75,0x6d,0x65,0x69,0x55))
  ChangeSwitch(34,34,0)
  If(0,4,0)
   ShowMessageFace("alice_fc5",0,0,2,32)
   ShowMessage("\\n<Alice>She's quite the poor loser, but she's also right.\nQueen Vampire still has considerable military power at her disposal.")
   ShowMessageFace("alice_fc5",0,0,2,33)
   ShowMessage("\\n<Alice>This won't end unless we take the fight to them and defeat her at Vampire Castle.\nThat said, a win is a win, even if only temporary.")
   0()
  EndIf()
  If(0,5,0)
   ShowMessageFace("iriasu_fc4",2,0,2,34)
   ShowMessage("\\n<Ilias>She's quite the poor loser, but she's not wrong.\nQueen Vampire still has considerable military power at her disposal.")
   ShowMessageFace("iriasu_fc4",0,0,2,35)
   ShowMessage("\\n<Ilias>To achieve complete victory, we need to assault Vampire Castle and overthrow her. That said, we did manage to repel the vampire hordes for a while.")
   0()
  EndIf()
  If(4,45,0)
   ShowMessageFace("alicetromeria_fc1",4,0,2,36)
   ShowMessage("\\n<Alicetroemeria>The bat party here appears to be over.\nWe hadn't even gotten to the main dish...")
   0()
  EndIf()
  PictureDisplay(5,"80_saraevil_st01",0,0,0,0,100,100,0,0)
  PictureMove(5,null,0,0,0,0,100,100,255,0,30,true)
  ShowMessageFace("sara_fc4",0,0,2,37)
  ShowMessage("\\n<Sara>Ufufu... I'll keep traveling with your party.\nLet's keep having lots of fun together♪")
  If(0,6,0)
   ShowMessageFace("sonia_fc2",2,0,2,38)
   ShowMessage("\\n<Sonya>Is that such a good idea?")
   0()
  Else()
   ShowMessageFace("ruka_fc1",0,0,2,39)
   ShowMessage("\\n<Luka>Is that such a good idea?")
   0()
  EndIf()
  If(0,4,0)
   ShowMessageFace("alice_fc5",1,0,2,40)
   ShowMessage("\\n<Alice>We turned things around here thanks to her.\nSo what's there to complain about?")
   0()
  EndIf()
  If(0,5,0)
   ShowMessageFace("iriasu_fc4",0,0,2,41)
   ShowMessage("\\n<Ilias>I may have complained in the past, but oh well. The ends justify the means.")
   0()
  EndIf()
  PictureClear(5)
  ChangeSwitch(2163,2163,0)
  314(0,0)
  RunCommonEvent(328)
  If(0,2273,0)
   EndEventProcessing()
   0()
  EndIf()
  ShowMessageFace("ruka_fc1",0,0,2,42)
  ShowMessage("\\n<Luka>Now that we have that settled, let's move!\nThere are other countries still under attack!")
  221()
  ChangeSwitch(31,31,1)
  ChangeSwitch(32,32,1)
  ChangeSwitch(33,33,1)
  ChangeSwitch(34,34,1)
  ShowMessageFace("",0,0,2,43)
  ShowMessage("Thus, we repelled the vampire army. However, there's no time to celebrate as we leave Sabasa behind.")
  ShowMessageFace("",0,0,2,44)
  ShowMessage("The Monster Lord's grand offensive is against all four major powers. It will take everything we've got to defend them all.")
  Wait(60)
  TeleportPlayer(0,2,103,294,2,0)
  222()
  EndEventProcessing()
  0()



EVENT   57
 PAGE   1
  ShowMessageFace("",0,0,2,1)
  ShowMessage("\\n<Youth>They sucked my blood... and semen...")
  0()



EVENT   60
 PAGE   1
  ShowMessageFace("",0,0,2,1)
  ShowMessage("\\n<Soldier>Oooh... Ngh...")
  0()



EVENT   61
 PAGE   1
  ShowMessageFace("",0,0,2,1)
  ShowMessage("\\n<Youth>I'm stabilizing the victims that are brought here. Let me fix you up too.")
  250(bytes(0x04,0x08,0x6f,0x3a,0x0c,0x52,0x50,0x47,0x3a,0x3a,0x53,0x45,0x08,0x3a,0x0a,0x40,0x6e,0x61,0x6d,0x65,0x49,0x22,0x0a,0x48,0x65,0x61,0x6c,0x37,0x06,0x3a,0x06,0x45,0x54,0x3a,0x0b,0x40,0x70,0x69,0x74,0x63,0x68,0x69,0x69,0x3a,0x0c,0x40,0x76,0x6f,0x6c,0x75,0x6d,0x65,0x69,0x55))
  224(bytes(0x04,0x08,0x75,0x3a,0x0a,0x43,0x6f,0x6c,0x6f,0x72,0x25,0x00,0x00,0x00,0x00,0x00,0xe0,0x6f,0x40,0x00,0x00,0x00,0x00,0x00,0xe0,0x6f,0x40,0x00,0x00,0x00,0x00,0x00,0xe0,0x6f,0x40,0x00,0x00,0x00,0x00,0x00,0xe0,0x6f,0x40),30,true)
  314(0,0)
  ShowMessageFace("",0,0,2,2)
  ShowMessage("The party's HP and MP have been fully restored!")
  0()



EVENT   64
 PAGE   1
  RunCommonEvent(356)
  0()
 PAGE   2
  // condition: switch 2233 is ON
  0()



EVENT   67
 PAGE   1
  ShowMessageFace("",0,0,2,1)
  ShowMessage("\\n<Guard Captain>Queen Sara... Your Majesty... Forgive me...")
  0()



EVENT   69
 PAGE   1
  If(0,2236,1)
   ShowMessageFace("conquista_fc1",0,0,2,1)
   ShowMessage("\\n<Conquista>You thought you weaklings could defend your country? Don't make me laugh!")
   ShowMessageFace("",0,0,2,2)
   ShowMessage("\\n<Soldier>Gah... Wh-where are our reinforcements!")
   0()
  EndIf()
  If(0,2236,0)
   ShowMessageFace("",0,0,2,3)
   ShowMessage("\\n<Soldier>I realize how insufficient we were now...\nMy wounds are deep. I won't be able to move for a while.")
   0()
  EndIf()
  0()



EVENT   72
 PAGE   1
  // condition: switch 31 is ON
  0()



EVENT   75
 PAGE   1
  RunCommonEvent(356)
  0()
 PAGE   2
  // condition: switch 2233 is ON
  0()



EVENT   78
 PAGE   1
  0()
 PAGE   2
  // condition: switch 31 is ON
  0()
 PAGE   3
  // condition: switch 33 is ON
  0()



EVENT   83
 PAGE   1
  ShowMessageFace("dog_fc1",4,0,2,1)
  ShowMessage("\\n<Dog Girl>Woof, woof! I'm scared!")
  If(4,60,0)
   ShowMessageFace("dog_fc1",1,0,2,2)
   ShowMessage("\\n<Pochi>Don't worry, we'll beat them all up!")
   ShowMessageFace("dog_fc1",4,0,2,3)
   ShowMessage("\\n<Dog Girl>*whimper*")
   0()
  EndIf()
  0()



EVENT   85
 PAGE   1
  0()



EVENT   87
 PAGE   1
  // condition: switch 31 is ON
  0()



EVENT   90
 PAGE   1
  ShowMessageFace("e_vampire_fc1",0,0,2,1)
  ShowMessage("\\n<Elder Vampire>Are you my next victims?\nCome, be my prey...")
  If(4,522,0)
   ShowMessageFace("merlin_fc1",0,0,2,2)
   ShowMessage("\\n<Merlin>An elder one? Should this get me fired up?")
   0()
  EndIf()
  Battle(0,811,false,false)
  TemporaryRemoveEvent()
  0()



EVENT   91
 PAGE   1
  ShowMessageFace("",0,0,2,1)
  ShowMessage("\\n<Minstrel>I don't want to write songs about this country's demise...")
  0()



EVENT   92
 PAGE   1
  ShowMessageFace("",0,0,2,1)
  ShowMessage("\\n<Soldier>The vampires are absurdly strong...")
  0()



EVENT   93
 PAGE   1
  ShowMessageFace("conquista_fc1",0,0,2,1)
  ShowMessage("\\n<Conquista>......")
  0()
 PAGE   2
  // condition: switch 32 is ON
  0()



EVENT   94
 PAGE   1
  ShowMessageFace("vendetta_fc1",0,0,2,1)
  ShowMessage("\\n<Vendetta>......")
  0()
 PAGE   2
  // condition: switch 32 is ON
  0()



EVENT   95
 PAGE   1
  ShowMessageFace("vampire_fc1",0,0,2,1)
  ShowMessage("\\n<Vampire>......")
  0()
 PAGE   2
  // condition: switch 32 is ON
  0()



EVENT   96
 PAGE   1
  ShowMessageFace("vampire_fc1",0,0,2,1)
  ShowMessage("\\n<Vampire>......")
  0()
 PAGE   2
  // condition: switch 32 is ON
  0()



EVENT   97
 PAGE   1
  ShowMessageFace("vampire_fc1",0,0,2,1)
  ShowMessage("\\n<Vampire>......")
  0()
 PAGE   2
  // condition: switch 32 is ON
  0()



EVENT   98
 PAGE   1
  0()
 PAGE   2
  // condition: switch 34 is ON
  0()



EVENT   99
 PAGE   1
  0()



EVENT   100
 PAGE   1
  ShowMessageFace("",0,0,2,1)
  ShowMessage("\\n<Knight>You shall not pass!")
  0()
 PAGE   2
  // condition: switch 2232 is ON
  0()



EVENT   101
 PAGE   1
  0()
 PAGE   2
  // condition: switch 2232 is ON
  0()



EVENT   102
 PAGE   1
  ShowMessageFace("",0,0,2,1)
  ShowMessage("\\n<Soldier>Tch, have at you!")
  0()
 PAGE   2
  // condition: switch 2232 is ON
  0()



EVENT   103
 PAGE   1
  ShowMessageFace("",0,0,2,1)
  ShowMessage("\\n<Soldier>They're so strong...")
  0()
 PAGE   2
  // condition: switch 2232 is ON
  0()



EVENT   104
 PAGE   1
  ShowMessageFace("",0,0,2,1)
  ShowMessage("\\n<Soldier>All of us... In the blink of an eye...")
  0()
 PAGE   2
  // condition: switch 2232 is ON
  0()



EVENT   105
 PAGE   1
  0()
 PAGE   2
  // condition: switch 2232 is ON
  0()



EVENT   106
 PAGE   1
  // condition: switch 2232 is ON
  ShowMessageFace("",0,0,2,1)
  ShowMessage("\\n<Soldier>Ngh... Gaah...")
  0()



EVENT   107
 PAGE   1
  // condition: switch 2232 is ON
  ShowMessageFace("",0,0,2,1)
  ShowMessage("\\n<Knight>Paralyzed... Can't move...")
  0()



EVENT   108
 PAGE   1
  // condition: switch 2232 is ON
  ShowMessageFace("",0,0,2,1)
  ShowMessage("\\n<Soldier>They're so strong...")
  0()



EVENT   109
 PAGE   1
  // condition: switch 2232 is ON
  ShowMessageFace("",0,0,2,1)
  ShowMessage("\\n<Soldier>Guh... Ungh...")
  0()



EVENT   111
 PAGE   1
  ShowMessageFace("",0,0,2,1)
  ShowMessage("\\n<Queen's Guard>I failed to protect Queen Sara...")
  0()



EVENT   112
 PAGE   1
  ShowMessageFace("",0,0,2,1)
  ShowMessage("\\n<Queen's Guard>We Queen's Guards were defeated... so easily...")
  0()



EVENT   113
 PAGE   1
  ShowMessageFace("vampire_fc1",0,0,2,1)
  ShowMessage("\\n<Vampire>......")
  0()
 PAGE   2
  // condition: switch 32 is ON
  0()



EVENT   114
 PAGE   1
  ShowMessageFace("vampire_fc1",0,0,2,1)
  ShowMessage("\\n<Vampire>......")
  0()
 PAGE   2
  // condition: switch 32 is ON
  0()



EVENT   115
 PAGE   1
  ShowMessageFace("",2,0,2,1)
  ShowMessage("\\n<Knight>I shall defend my homeland!")
  ShowMessageFace("vampire_fc1",1,0,2,2)
  ShowMessage("\\n<Vampire>Oh, a human with some backbone?\nMy favorite type of blood...")
  0()



EVENT   116
 PAGE   1
  ShowMessageFace("",2,0,2,1)
  ShowMessage("\\n<Knight>I shall defend my homeland!")
  ShowMessageFace("vampire_fc1",1,0,2,2)
  ShowMessage("\\n<Vampire>Oh, a human with some backbone?\nMy favorite type of blood...")
  0()



EVENT   117
 PAGE   1
  ShowMessageFace("vampire_fc1",0,0,2,1)
  ShowMessage("\\n<Vampire>I'll drink your blood down to the last drop...")
  ShowMessageFace("",0,0,2,2)
  ShowMessage("\\n<Youth>Please don't... Ah, aaaaaaah!!")
  ShowMessageFace("ruka_fc1",0,0,2,3)
  ShowMessage("\\n<Luka>Get away from him!")
  If(4,204,0)
   ShowMessageFace("umiusi_k_fc1",0,0,2,4)
   ShowMessage("\\n<Stacy>The navy will not permit you to assault citizens!")
   0()
  EndIf()
  Battle(0,760,false,false)
  ChangeSwitch(2234,2234,0)
  ShowMessageFace("",0,0,2,5)
  ShowMessage("\\n<Youth>That felt wonderful, but I almost died...\nTake this as thanks.")
  250(bytes(0x04,0x08,0x6f,0x3a,0x0c,0x52,0x50,0x47,0x3a,0x3a,0x53,0x45,0x08,0x3a,0x0a,0x40,0x6e,0x61,0x6d,0x65,0x49,0x22,0x0a,0x49,0x74,0x65,0x6d,0x31,0x06,0x3a,0x06,0x45,0x54,0x3a,0x0b,0x40,0x70,0x69,0x74,0x63,0x68,0x69,0x69,0x3a,0x0c,0x40,0x76,0x6f,0x6c,0x75,0x6d,0x65,0x69,0x55))
  ChangeInventory_Item(30,0,0,1)
  EndEventProcessing()
  0()
 PAGE   2
  // condition: switch 2234 is ON
  0()



EVENT   118
 PAGE   1
  ShowMessageFace("",2,0,2,1)
  ShowMessage("\\n<Knight>Don't underestimate the army of Sabasa! Gooooo!!")
  ShowMessageFace("conquista_fc1",0,0,2,2)
  ShowMessage("\\n<Conquista>Not bad. This is getting fun!")
  0()



EVENT   119
 PAGE   1
  ShowMessageFace("",2,0,2,1)
  ShowMessage("\\n<Knight>Don't underestimate the army of Sabasa! Gooooo!!")
  ShowMessageFace("conquista_fc1",0,0,2,2)
  ShowMessage("\\n<Conquista>Not bad. This is getting fun!")
  0()



EVENT   120
 PAGE   1
  If(0,2235,1)
   ShowMessageFace("vendetta_fc1",0,0,2,1)
   ShowMessage("\\n<Vendetta>Ooh, an entire family of three for me to suck.\nFufu, I'll get my fill of blood today.")
   ShowMessageFace("",0,0,2,2)
   ShowMessage("\\n<Man>I won't let you lay a finger on my family, you monster!")
   ShowMessageFace("",0,0,2,3)
   ShowMessage("\\n<Woman>D-Dear...")
   ShowMessageFace("",0,0,2,4)
   ShowMessage("\\n<Young Girl>S-someone help!!")
   0()
  EndIf()
  If(0,2235,0)
   ShowMessageFace("",0,0,2,5)
   ShowMessage("\\n<Man>Thanks, you're a lifesaver!")
   ShowMessageFace("",0,0,2,6)
   ShowMessage("\\n<Woman>Aah, our savior...")
   ShowMessageFace("",0,0,2,7)
   ShowMessage("\\n<Young Girl>You're so cool!\nJust like the legendary Heinrich!")
   0()
  EndIf()
  0()



EVENT   121
 PAGE   1
  If(0,2235,1)
   ShowMessageFace("vendetta_fc1",0,0,2,1)
   ShowMessage("\\n<Vendetta>Ooh, an entire family of three for me to suck.\nFufu, I'll get my fill of blood today.")
   ShowMessageFace("",0,0,2,2)
   ShowMessage("\\n<Man>I won't let you lay a finger on my family, you monster!")
   ShowMessageFace("",0,0,2,3)
   ShowMessage("\\n<Woman>D-Dear...")
   ShowMessageFace("",0,0,2,4)
   ShowMessage("\\n<Young Girl>S-someone help!!")
   0()
  EndIf()
  If(0,2235,0)
   ShowMessageFace("",0,0,2,5)
   ShowMessage("\\n<Man>Thanks, you're a lifesaver!")
   ShowMessageFace("",0,0,2,6)
   ShowMessage("\\n<Woman>Aah, our savior...")
   ShowMessageFace("",0,0,2,7)
   ShowMessage("\\n<Young Girl>You're so cool!\nJust like the legendary Heinrich!")
   0()
  EndIf()
  0()



EVENT   122
 PAGE   1
  ShowMessageFace("",0,0,2,1)
  ShowMessage("\\n<Thug>G-go away! You'll lead the vampires to me!")
  0()



EVENT   123
 PAGE   1
  ShowMessageFace("vendetta_fc1",0,0,2,1)
  ShowMessage("\\n<Vendetta>Ooh, an entire family of three for me to suck.\nFufu, I'll get my fill of blood today.")
  ShowMessageFace("",0,0,2,2)
  ShowMessage("\\n<Man>I won't let you lay a finger on my family, you monster!")
  ShowMessageFace("",0,0,2,3)
  ShowMessage("\\n<Woman>D-Dear...")
  ShowMessageFace("",0,0,2,4)
  ShowMessage("\\n<Young Girl>S-someone help!!")
  ShowMessageFace("ruka_fc1",0,0,2,5)
  ShowMessage("\\n<Luka>Get away from them! Fight me instead!")
  If(4,288,0)
   ShowMessageFace("d_succubus_fc1",0,0,2,6)
   ShowMessage("\\n<Natasha>You bare you fangs at a defenseless family when I'm around? You'll pay for that...")
   0()
  EndIf()
  Battle(0,809,false,false)
  ChangeSwitch(2235,2235,0)
  ShowMessageFace("",0,0,2,7)
  ShowMessage("\\n<Man>Thanks, you're a lifesaver!")
  ShowMessageFace("",0,0,2,8)
  ShowMessage("\\n<Woman>Aah, our savior...")
  ShowMessageFace("",0,0,2,9)
  ShowMessage("\\n<Young Girl>You're so cool!\nJust like the legendary Heinrich!")
  250(bytes(0x04,0x08,0x6f,0x3a,0x0c,0x52,0x50,0x47,0x3a,0x3a,0x53,0x45,0x08,0x3a,0x0a,0x40,0x6e,0x61,0x6d,0x65,0x49,0x22,0x0a,0x49,0x74,0x65,0x6d,0x31,0x06,0x3a,0x06,0x45,0x54,0x3a,0x0b,0x40,0x70,0x69,0x74,0x63,0x68,0x69,0x69,0x3a,0x0c,0x40,0x76,0x6f,0x6c,0x75,0x6d,0x65,0x69,0x55))
  ChangeInventory_Item(8,0,0,1)
  EndEventProcessing()
  0()
 PAGE   2
  // condition: switch 2235 is ON
  0()



EVENT   124
 PAGE   1
  ShowMessageFace("",0,0,2,1)
  ShowMessage("\\n<Soldier>I must... defend the people...")
  0()



EVENT   125
 PAGE   1
  ShowMessageFace("vampire_fc1",0,0,2,1)
  ShowMessage("\\n<Vampire>Let me taste your blood...")
  If(4,239,0)
   ShowMessageFace("rafi_fc1",0,0,2,2)
   ShowMessage("\\n<Raffia>Let me taste your flesh...")
   0()
  EndIf()
  Battle(0,892,false,false)
  TemporaryRemoveEvent()
  0()



EVENT   126
 PAGE   1
  ShowMessageFace("conquista_fc1",0,0,2,1)
  ShowMessage("\\n<Conquista>You thought you weaklings could defend your country? Don't make me laugh!")
  ShowMessageFace("",0,0,2,2)
  ShowMessage("\\n<Soldier>Gah... Wh-where are our reinforcements!")
  ShowMessageFace("ruka_fc1",0,0,2,3)
  ShowMessage("\\n<Luka>I'm here!")
  If(4,298,0)
   ShowMessageFace("dragon_fc1",0,0,2,4)
   ShowMessage("\\n<Grande>Lording over weak humans? Don't make ME laugh!")
   0()
  EndIf()
  Battle(0,808,false,false)
  ChangeSwitch(2236,2236,0)
  ShowMessageFace("",0,0,2,5)
  ShowMessage("\\n<Soldier>You saved me...\nI'm embarrassed at how weak I am...")
  250(bytes(0x04,0x08,0x6f,0x3a,0x0c,0x52,0x50,0x47,0x3a,0x3a,0x53,0x45,0x08,0x3a,0x0a,0x40,0x6e,0x61,0x6d,0x65,0x49,0x22,0x0a,0x49,0x74,0x65,0x6d,0x31,0x06,0x3a,0x06,0x45,0x54,0x3a,0x0b,0x40,0x70,0x69,0x74,0x63,0x68,0x69,0x69,0x3a,0x0c,0x40,0x76,0x6f,0x6c,0x75,0x6d,0x65,0x69,0x55))
  ChangeInventory_Item(24,0,0,1)
  EndEventProcessing()
  0()
 PAGE   2
  // condition: switch 2236 is ON
  0()



EVENT   127
 PAGE   1
  ShowMessageFace("",0,0,2,1)
  ShowMessage("\\n<Knight>Hold the line! Don't give them an inch!")
  ShowMessageFace("vampire_fc1",0,0,2,2)
  ShowMessage("\\n<Vampire>The Sabasan Cavalry is no pushover it seems...")
  If(0,4,0)
   ShowMessageFace("alice_fc5",2,0,2,3)
   ShowMessage("\\n<Alice>The street is blocked.\nLet's go around them!")
   0()
  EndIf()
  If(0,5,0)
   ShowMessageFace("iriasu_fc4",7,0,2,4)
   ShowMessage("\\n<Ilias>The street is blocked.\nLet's go around them!")
   0()
  EndIf()
  0()



EVENT   128
 PAGE   1
  ShowMessageFace("",0,0,2,1)
  ShowMessage("\\n<Knight>Hold the line! Don't give them an inch!")
  ShowMessageFace("vampire_fc1",0,0,2,2)
  ShowMessage("\\n<Vampire>The Sabasan Cavalry is no pushover it seems...")
  If(0,4,0)
   ShowMessageFace("alice_fc5",2,0,2,3)
   ShowMessage("\\n<Alice>The street is blocked.\nLet's go around them!")
   0()
  EndIf()
  If(0,5,0)
   ShowMessageFace("iriasu_fc4",7,0,2,4)
   ShowMessage("\\n<Ilias>The street is blocked.\nLet's go around them!")
   0()
  EndIf()
  0()



EVENT   129
 PAGE   1
  ShowMessageFace("",0,0,2,1)
  ShowMessage("\\n<Knight>Hold the line! Don't give them an inch!")
  ShowMessageFace("vampire_fc1",0,0,2,2)
  ShowMessage("\\n<Vampire>The Sabasan Cavalry is no pushover it seems...")
  If(0,4,0)
   ShowMessageFace("alice_fc5",2,0,2,3)
   ShowMessage("\\n<Alice>The street is blocked.\nLet's go around them!")
   0()
  EndIf()
  If(0,5,0)
   ShowMessageFace("iriasu_fc4",7,0,2,4)
   ShowMessage("\\n<Ilias>The street is blocked.\nLet's go around them!")
   0()
  EndIf()
  0()



EVENT   130
 PAGE   1
  ShowMessageFace("",0,0,2,1)
  ShowMessage("\\n<Knight>Hold the line! Don't give them an inch!")
  ShowMessageFace("vampire_fc1",0,0,2,2)
  ShowMessage("\\n<Vampire>The Sabasan Cavalry is no pushover it seems...")
  If(0,4,0)
   ShowMessageFace("alice_fc5",2,0,2,3)
   ShowMessage("\\n<Alice>The street is blocked.\nLet's go around them!")
   0()
  EndIf()
  If(0,5,0)
   ShowMessageFace("iriasu_fc4",7,0,2,4)
   ShowMessage("\\n<Ilias>The street is blocked.\nLet's go around them!")
   0()
  EndIf()
  0()



EVENT   131
 PAGE   1
  ShowMessageFace("",0,0,2,1)
  ShowMessage("\\n<Knight>Hold the line! Don't give them an inch!")
  ShowMessageFace("vampire_fc1",0,0,2,2)
  ShowMessage("\\n<Vampire>The Sabasan Cavalry is no pushover it seems...")
  If(0,4,0)
   ShowMessageFace("alice_fc5",2,0,2,3)
   ShowMessage("\\n<Alice>The street is blocked.\nLet's go around them!")
   0()
  EndIf()
  If(0,5,0)
   ShowMessageFace("iriasu_fc4",7,0,2,4)
   ShowMessage("\\n<Ilias>The street is blocked.\nLet's go around them!")
   0()
  EndIf()
  0()



EVENT   132
 PAGE   1
  ShowMessageFace("",0,0,2,1)
  ShowMessage("\\n<Knight>Hold the line! Don't give them an inch!")
  ShowMessageFace("vampire_fc1",0,0,2,2)
  ShowMessage("\\n<Vampire>The Sabasan Cavalry is no pushover it seems...")
  If(0,4,0)
   ShowMessageFace("alice_fc5",2,0,2,3)
   ShowMessage("\\n<Alice>The street is blocked.\nLet's go around them!")
   0()
  EndIf()
  If(0,5,0)
   ShowMessageFace("iriasu_fc4",7,0,2,4)
   ShowMessage("\\n<Ilias>The street is blocked.\nLet's go around them!")
   0()
  EndIf()
  0()



EVENT   133
 PAGE   1
  RunCommonEvent(349)
  0()
 PAGE   2
  // condition: switch 2239 is ON
  0()



EVENT   134
 PAGE   1
  ShowMessageFace("",0,0,2,1)
  ShowMessage("\\n<Knight>Hold the line! Don't give them an inch!")
  ShowMessageFace("vampire_fc1",0,0,2,2)
  ShowMessage("\\n<Vampire>The Sabasan Cavalry is no pushover it seems...")
  If(0,4,0)
   ShowMessageFace("alice_fc5",2,0,2,3)
   ShowMessage("\\n<Alice>The street is blocked.\nLet's go around them!")
   0()
  EndIf()
  If(0,5,0)
   ShowMessageFace("iriasu_fc4",7,0,2,4)
   ShowMessage("\\n<Ilias>The street is blocked.\nLet's go around them!")
   0()
  EndIf()
  0()



EVENT   135
 PAGE   1
  ShowMessageFace("",0,0,2,1)
  ShowMessage("\\n<Knight>Hold the line! Don't give them an inch!")
  ShowMessageFace("vampire_fc1",0,0,2,2)
  ShowMessage("\\n<Vampire>The Sabasan Cavalry is no pushover it seems...")
  If(0,4,0)
   ShowMessageFace("alice_fc5",2,0,2,3)
   ShowMessage("\\n<Alice>The street is blocked.\nLet's go around them!")
   0()
  EndIf()
  If(0,5,0)
   ShowMessageFace("iriasu_fc4",7,0,2,4)
   ShowMessage("\\n<Ilias>The street is blocked.\nLet's go around them!")
   0()
  EndIf()
  0()



EVENT   136
 PAGE   1
  ShowMessageFace("",0,0,2,1)
  ShowMessage("\\n<Knight>Hold the line! Don't give them an inch!")
  ShowMessageFace("vampire_fc1",0,0,2,2)
  ShowMessage("\\n<Vampire>The Sabasan Cavalry is no pushover it seems...")
  If(0,4,0)
   ShowMessageFace("alice_fc5",2,0,2,3)
   ShowMessage("\\n<Alice>The street is blocked.\nLet's go around them!")
   0()
  EndIf()
  If(0,5,0)
   ShowMessageFace("iriasu_fc4",7,0,2,4)
   ShowMessage("\\n<Ilias>The street is blocked.\nLet's go around them!")
   0()
  EndIf()
  0()



EVENT   137
 PAGE   1
  ShowMessageFace("",0,0,2,1)
  ShowMessage("\\n<Knight>S-so strong...")
  0()



EVENT   138
 PAGE   1
  ShowMessageFace("",0,0,2,1)
  ShowMessage("\\n<Knight>Is she some big shot monster?")
  0()



EVENT   139
 PAGE   1
  ShowMessageFace("",0,0,2,1)
  ShowMessage("\\n<Soldier>She's not someone we can beat...")
  0()



EVENT   140
 PAGE   1
  ShowMessageFace("",0,0,2,1)
  ShowMessage("\\n<Soldier>How are we supposed to fight that...")
  0()



EVENT   141
 PAGE   1
  RunCommonEvent(349)
  0()
 PAGE   2
  // condition: switch 2239 is ON
  0()



EVENT   142
 PAGE   1
  RunCommonEvent(349)
  0()
 PAGE   2
  // condition: switch 2239 is ON
  0()



EVENT   143
 PAGE   1
  RunCommonEvent(349)
  0()
 PAGE   2
  // condition: switch 2239 is ON
  0()



EVENT   144
 PAGE   1
  RunCommonEvent(349)
  0()
 PAGE   2
  // condition: switch 2239 is ON
  0()



EVENT   145
 PAGE   1
  RunCommonEvent(349)
  0()
 PAGE   2
  // condition: switch 2239 is ON
  0()



EVENT   146
 PAGE   1
  RunCommonEvent(349)
  0()
 PAGE   2
  // condition: switch 2239 is ON
  0()



EVENT   147
 PAGE   1
  RunCommonEvent(349)
  0()
 PAGE   2
  // condition: switch 2239 is ON
  0()



EVENT   148
 PAGE   1
  ShowMessageFace("",0,0,2,1)
  ShowMessage("\\n<Old Woman>Ilias save us...")
  0()



EVENT   149
 PAGE   1
  ShowMessageFace("",0,0,2,1)
  ShowMessage("\\n<Soldier>I can... still fight...")
  0()



EVENT   150
 PAGE   1
  ShowMessageFace("",0,0,2,1)
  ShowMessage("\\n<Knight>Nnngh...")
  0()



EVENT   151
 PAGE   1
  ShowMessageFace("",0,0,2,1)
  ShowMessage("\\n<Town Girl>Are you okay? Here are some herbs!")
  0()



EVENT   152
 PAGE   1
  ShowMessageFace("",0,0,2,1)
  ShowMessage("\\n<Soldier>Guh...")
  0()



EVENT   153
 PAGE   1
  ShowMessageFace("",0,0,2,1)
  ShowMessage("\\n<Knight>Th-thank you...")
  0()



EVENT   154
 PAGE   1
  ShowMessageFace("",0,0,2,1)
  ShowMessage("\\n<Priest>Hang in there!\nCan you still move?")
  0()



EVENT   155
 PAGE   1
  ShowMessageFace("",0,0,2,1)
  ShowMessage("\\n<Soldier>My squad mates... still fighting...")
  0()



EVENT   156
 PAGE   1
  ShowMessageFace("saboten_fc1",2,0,2,1)
  ShowMessage("\\n<Cactus Girl>I wonder if I'll ever get a chance to rest...")
  ShowMessageFace("conquista_fc1",0,0,2,2)
  ShowMessage("\\n<Conquista>You'll prick me...")
  0()



EVENT   157
 PAGE   1
  ShowMessageFace("saboten_fc1",2,0,2,1)
  ShowMessage("\\n<Cactus Girl>I wonder if I'll ever get a chance to rest...")
  ShowMessageFace("conquista_fc1",0,0,2,2)
  ShowMessage("\\n<Conquista>You'll prick me...")
  0()


